<svg xmlns="http://www.w3.org/2000/svg" version="1.1" width="3812.7mm" height="1562.7mm" viewBox = " 0 0 13509.578037 5537.130537" >
<!-- Front--> 
<g transform="translate(22.5000185, 22.5000185) " > 
<polygon style="stroke:#FF0000; fill:none; stroke-width:0.354331" points="42.51972, 0 132.874125, 0 132.874125, 42.51972 193.819057, 42.51972 193.819057, 71.22053100000001 189.3899195, 71.22053100000001 189.3899195, 80.07880600000001 193.819057, 80.07880600000001 193.819057, 88.937081 204.803318, 88.937081 204.803318, 80.07880600000001 209.2324555, 80.07880600000001 209.2324555, 71.22053100000001 204.803318, 71.22053100000001 204.803318, 42.51972 265.74825, 42.51972 265.74825, 0 372.04755, 0 372.04755, 42.51972 478.34685, 42.51972 478.34685, 0 584.64615, 0 584.64615, 42.51972 690.9454499999999, 42.51972 690.9454499999999, 0 797.24475, 0 797.24475, 42.51972 903.54405, 42.51972 903.54405, 0 1009.84335, 0 1009.84335, 42.51972 1116.14265, 42.51972 1116.14265, 0 1222.44195, 0 1222.44195, 42.51972 1328.74125, 42.51972 1328.74125, 0 1435.0405500000002, 0 1435.0405500000002, 42.51972 1541.3398499999998, 42.51972 1541.3398499999998, 0 1647.63915, 0 1647.63915, 42.51972 1753.93845, 42.51972 1753.93845, 0 1860.2377500000002, 0 1860.2377500000002, 42.51972 1966.53705, 42.51972 1966.53705, 0 2072.83635, 0 2072.83635, 42.51972 2179.13565, 42.51972 2179.13565, 0 2285.43495, 0 2285.43495, 42.51972 2391.73425, 42.51972 2391.73425, 0 2498.03355, 0 2498.03355, 42.51972 2604.3328500000002, 42.51972 2604.3328500000002, 0 2710.6321500000004, 0 2710.6321500000004, 42.51972 2816.93145, 42.51972 2816.93145, 0 2923.23075, 0 2923.23075, 42.51972 3029.5300500000003, 42.51972 3029.5300500000003, 0 3135.82935, 0 3135.82935, 42.51972 3242.12865, 42.51972 3242.12865, 0 3348.4279500000002, 0 3348.4279500000002, 42.51972 3454.7272500000004, 42.51972 3454.7272500000004, 0 3561.02655, 0 3561.02655, 42.51972 3667.32585, 42.51972 3667.32585, 0 3773.6251500000003, 0 3773.6251500000003, 42.51972 3879.92445, 42.51972 3879.92445, 0 3986.22375, 0 3986.22375, 42.51972 4047.1686820000004, 42.51972 4047.1686820000004, 71.22053100000001 4042.7395445, 71.22053100000001 4042.7395445, 80.07880600000001 4047.1686820000004, 80.07880600000001 4047.1686820000004, 88.937081 4058.152943, 88.937081 4058.152943, 80.07880600000001 4062.5820805000003, 80.07880600000001 4062.5820805000003, 71.22053100000001 4058.152943, 71.22053100000001 4058.152943, 42.51972 4119.097875, 42.51972 4119.097875, 0 4209.4522799999995, 0 4209.4522799999995, 106.2993 4251.972, 106.2993 4251.972, 212.5986 4209.4522799999995, 212.5986 4209.4522799999995, 260.2561195 4180.751469, 260.2561195 4180.751469, 255.826982 4171.893193999999, 255.826982 4171.893193999999, 260.2561195 4163.034919, 260.2561195 4163.034919, 271.24038049999996 4171.893193999999, 271.24038049999996 4171.893193999999, 275.669518 4180.751469, 275.669518 4180.751469, 271.24038049999996 4209.4522799999995, 271.24038049999996 4209.4522799999995, 318.8979 4251.972, 318.8979 4251.972, 425.1972 4209.4522799999995, 425.1972 4209.4522799999995, 531.4965 4119.097875, 531.4965 4119.097875, 488.97677999999996 4058.152943, 488.97677999999996 4058.152943, 460.275969 4062.5820805000003, 460.275969 4062.5820805000003, 451.417694 4058.152943, 451.417694 4058.152943, 442.55941899999993 4047.1686820000004, 442.55941899999993 4047.1686820000004, 451.417694 4042.7395445, 451.417694 4042.7395445, 460.275969 4047.1686820000004, 460.275969 4047.1686820000004, 488.97677999999996 3986.22375, 488.97677999999996 3986.22375, 531.4965 3879.92445, 531.4965 3879.92445, 488.97677999999996 3773.6251500000003, 488.97677999999996 3773.6251500000003, 531.4965 3667.32585, 531.4965 3667.32585, 488.97677999999996 3561.02655, 488.97677999999996 3561.02655, 531.4965 3454.7272500000004, 531.4965 3454.7272500000004, 488.97677999999996 3348.4279500000002, 488.97677999999996 3348.4279500000002, 531.4965 3242.12865, 531.4965 3242.12865, 488.97677999999996 3135.82935, 488.97677999999996 3135.82935, 531.4965 3029.5300500000003, 531.4965 3029.5300500000003, 488.97677999999996 2923.23075, 488.97677999999996 2923.23075, 531.4965 2816.93145, 531.4965 2816.93145, 488.97677999999996 2710.6321500000004, 488.97677999999996 2710.6321500000004, 531.4965 2604.3328500000002, 531.4965 2604.3328500000002, 488.97677999999996 2498.03355, 488.97677999999996 2498.03355, 531.4965 2391.73425, 531.4965 2391.73425, 488.97677999999996 2285.43495, 488.97677999999996 2285.43495, 531.4965 2179.13565, 531.4965 2179.13565, 488.97677999999996 2072.83635, 488.97677999999996 2072.83635, 531.4965 1966.53705, 531.4965 1966.53705, 488.97677999999996 1860.2377500000002, 488.97677999999996 1860.2377500000002, 531.4965 1753.93845, 531.4965 1753.93845, 488.97677999999996 1647.63915, 488.97677999999996 1647.63915, 531.4965 1541.3398499999998, 531.4965 1541.3398499999998, 488.97677999999996 1435.0405500000002, 488.97677999999996 1435.0405500000002, 531.4965 1328.74125, 531.4965 1328.74125, 488.97677999999996 1222.44195, 488.97677999999996 1222.44195, 531.4965 1116.14265, 531.4965 1116.14265, 488.97677999999996 1009.84335, 488.97677999999996 1009.84335, 531.4965 903.54405, 531.4965 903.54405, 488.97677999999996 797.24475, 488.97677999999996 797.24475, 531.4965 690.9454499999999, 531.4965 690.9454499999999, 488.97677999999996 584.64615, 488.97677999999996 584.64615, 531.4965 478.34685, 531.4965 478.34685, 488.97677999999996 372.04755, 488.97677999999996 372.04755, 531.4965 265.74825, 531.4965 265.74825, 488.97677999999996 204.803318, 488.97677999999996 204.803318, 460.275969 209.2324555, 460.275969 209.2324555, 451.417694 204.803318, 451.417694 204.803318, 442.55941899999993 193.819057, 442.55941899999993 193.819057, 451.417694 189.3899195, 451.417694 189.3899195, 460.275969 193.819057, 460.275969 193.819057, 488.97677999999996 132.874125, 488.97677999999996 132.874125, 531.4965 42.51972, 531.4965 42.51972, 425.1972 0, 425.1972 0, 318.8979 42.51972, 318.8979 42.51972, 271.24038049999996 71.22053100000001, 271.24038049999996 71.22053100000001, 275.669518 80.07880600000001, 275.669518 80.07880600000001, 271.24038049999996 88.937081, 271.24038049999996 88.937081, 260.2561195 80.07880600000001, 260.2561195 80.07880600000001, 255.826982 71.22053100000001, 255.826982 71.22053100000001, 260.2561195 42.51972, 260.2561195 42.51972, 212.5986 0, 212.5986 0, 106.2993 42.51972, 106.2993 "/> 
</g>
<!-- Back--> 
<g transform="translate(4274.4720185, 22.5000185) " > 
<polygon style="stroke:#FF0000; fill:none; stroke-width:0.354331" points="42.51972, 0 132.874125, 0 132.874125, 42.51972 193.819057, 42.51972 193.819057, 71.22053100000001 189.3899195, 71.22053100000001 189.3899195, 80.07880600000001 193.819057, 80.07880600000001 193.819057, 88.937081 204.803318, 88.937081 204.803318, 80.07880600000001 209.2324555, 80.07880600000001 209.2324555, 71.22053100000001 204.803318, 71.22053100000001 204.803318, 42.51972 265.74825, 42.51972 265.74825, 0 372.04755, 0 372.04755, 42.51972 478.34685, 42.51972 478.34685, 0 584.64615, 0 584.64615, 42.51972 690.9454499999999, 42.51972 690.9454499999999, 0 797.24475, 0 797.24475, 42.51972 903.54405, 42.51972 903.54405, 0 1009.84335, 0 1009.84335, 42.51972 1116.14265, 42.51972 1116.14265, 0 1222.44195, 0 1222.44195, 42.51972 1328.74125, 42.51972 1328.74125, 0 1435.0405500000002, 0 1435.0405500000002, 42.51972 1541.3398499999998, 42.51972 1541.3398499999998, 0 1647.63915, 0 1647.63915, 42.51972 1753.93845, 42.51972 1753.93845, 0 1860.2377500000002, 0 1860.2377500000002, 42.51972 1966.53705, 42.51972 1966.53705, 0 2072.83635, 0 2072.83635, 42.51972 2179.13565, 42.51972 2179.13565, 0 2285.43495, 0 2285.43495, 42.51972 2391.73425, 42.51972 2391.73425, 0 2498.03355, 0 2498.03355, 42.51972 2604.3328500000002, 42.51972 2604.3328500000002, 0 2710.6321500000004, 0 2710.6321500000004, 42.51972 2816.93145, 42.51972 2816.93145, 0 2923.23075, 0 2923.23075, 42.51972 3029.5300500000003, 42.51972 3029.5300500000003, 0 3135.82935, 0 3135.82935, 42.51972 3242.12865, 42.51972 3242.12865, 0 3348.4279500000002, 0 3348.4279500000002, 42.51972 3454.7272500000004, 42.51972 3454.7272500000004, 0 3561.02655, 0 3561.02655, 42.51972 3667.32585, 42.51972 3667.32585, 0 3773.6251500000003, 0 3773.6251500000003, 42.51972 3879.92445, 42.51972 3879.92445, 0 3986.22375, 0 3986.22375, 42.51972 4047.1686820000004, 42.51972 4047.1686820000004, 71.22053100000001 4042.7395445, 71.22053100000001 4042.7395445, 80.07880600000001 4047.1686820000004, 80.07880600000001 4047.1686820000004, 88.937081 4058.152943, 88.937081 4058.152943, 80.07880600000001 4062.5820805000003, 80.07880600000001 4062.5820805000003, 71.22053100000001 4058.152943, 71.22053100000001 4058.152943, 42.51972 4119.097875, 42.51972 4119.097875, 0 4209.4522799999995, 0 4209.4522799999995, 106.2993 4251.972, 106.2993 4251.972, 212.5986 4209.4522799999995, 212.5986 4209.4522799999995, 260.2561195 4180.751469, 260.2561195 4180.751469, 255.826982 4171.893193999999, 255.826982 4171.893193999999, 260.2561195 4163.034919, 260.2561195 4163.034919, 271.24038049999996 4171.893193999999, 271.24038049999996 4171.893193999999, 275.669518 4180.751469, 275.669518 4180.751469, 271.24038049999996 4209.4522799999995, 271.24038049999996 4209.4522799999995, 318.8979 4251.972, 318.8979 4251.972, 425.1972 4209.4522799999995, 425.1972 4209.4522799999995, 531.4965 4119.097875, 531.4965 4119.097875, 488.97677999999996 4058.152943, 488.97677999999996 4058.152943, 460.275969 4062.5820805000003, 460.275969 4062.5820805000003, 451.417694 4058.152943, 451.417694 4058.152943, 442.55941899999993 4047.1686820000004, 442.55941899999993 4047.1686820000004, 451.417694 4042.7395445, 451.417694 4042.7395445, 460.275969 4047.1686820000004, 460.275969 4047.1686820000004, 488.97677999999996 3986.22375, 488.97677999999996 3986.22375, 531.4965 3879.92445, 531.4965 3879.92445, 488.97677999999996 3773.6251500000003, 488.97677999999996 3773.6251500000003, 531.4965 3667.32585, 531.4965 3667.32585, 488.97677999999996 3561.02655, 488.97677999999996 3561.02655, 531.4965 3454.7272500000004, 531.4965 3454.7272500000004, 488.97677999999996 3348.4279500000002, 488.97677999999996 3348.4279500000002, 531.4965 3242.12865, 531.4965 3242.12865, 488.97677999999996 3135.82935, 488.97677999999996 3135.82935, 531.4965 3029.5300500000003, 531.4965 3029.5300500000003, 488.97677999999996 2923.23075, 488.97677999999996 2923.23075, 531.4965 2816.93145, 531.4965 2816.93145, 488.97677999999996 2710.6321500000004, 488.97677999999996 2710.6321500000004, 531.4965 2604.3328500000002, 531.4965 2604.3328500000002, 488.97677999999996 2498.03355, 488.97677999999996 2498.03355, 531.4965 2391.73425, 531.4965 2391.73425, 488.97677999999996 2285.43495, 488.97677999999996 2285.43495, 531.4965 2179.13565, 531.4965 2179.13565, 488.97677999999996 2072.83635, 488.97677999999996 2072.83635, 531.4965 1966.53705, 531.4965 1966.53705, 488.97677999999996 1860.2377500000002, 488.97677999999996 1860.2377500000002, 531.4965 1753.93845, 531.4965 1753.93845, 488.97677999999996 1647.63915, 488.97677999999996 1647.63915, 531.4965 1541.3398499999998, 531.4965 1541.3398499999998, 488.97677999999996 1435.0405500000002, 488.97677999999996 1435.0405500000002, 531.4965 1328.74125, 531.4965 1328.74125, 488.97677999999996 1222.44195, 488.97677999999996 1222.44195, 531.4965 1116.14265, 531.4965 1116.14265, 488.97677999999996 1009.84335, 488.97677999999996 1009.84335, 531.4965 903.54405, 531.4965 903.54405, 488.97677999999996 797.24475, 488.97677999999996 797.24475, 531.4965 690.9454499999999, 531.4965 690.9454499999999, 488.97677999999996 584.64615, 488.97677999999996 584.64615, 531.4965 478.34685, 531.4965 478.34685, 488.97677999999996 372.04755, 488.97677999999996 372.04755, 531.4965 265.74825, 531.4965 265.74825, 488.97677999999996 204.803318, 488.97677999999996 204.803318, 460.275969 209.2324555, 460.275969 209.2324555, 451.417694 204.803318, 451.417694 204.803318, 442.55941899999993 193.819057, 442.55941899999993 193.819057, 451.417694 189.3899195, 451.417694 189.3899195, 460.275969 193.819057, 460.275969 193.819057, 488.97677999999996 132.874125, 488.97677999999996 132.874125, 531.4965 42.51972, 531.4965 42.51972, 425.1972 0, 425.1972 0, 318.8979 42.51972, 318.8979 42.51972, 271.24038049999996 71.22053100000001, 271.24038049999996 71.22053100000001, 275.669518 80.07880600000001, 275.669518 80.07880600000001, 271.24038049999996 88.937081, 271.24038049999996 88.937081, 260.2561195 80.07880600000001, 260.2561195 80.07880600000001, 255.826982 71.22053100000001, 255.826982 71.22053100000001, 260.2561195 42.51972, 260.2561195 42.51972, 212.5986 0, 212.5986 0, 106.2993 42.51972, 106.2993 "/> 
</g>
<!-- Left--> 
<g transform="translate(8526.4440185, 22.5000185) " > 
<polygon style="stroke:#FF0000; fill:none; stroke-width:0.354331" points="0, 42.51972 150.590675, 42.51972 150.590675, 0 219.33088899999998, 0 219.33088899999998, 13.110247000000001 232.441136, 13.110247000000001 232.441136, 0 301.18135, 0 301.18135, 42.51972 407.48065, 42.51972 407.48065, 0 513.77995, 0 513.77995, 42.51972 620.07925, 42.51972 620.07925, 0 726.37855, 0 726.37855, 42.51972 832.67785, 42.51972 832.67785, 0 938.9771499999999, 0 938.9771499999999, 42.51972 1045.27645, 42.51972 1045.27645, 0 1151.57575, 0 1151.57575, 42.51972 1257.87505, 42.51972 1257.87505, 0 1364.17435, 0 1364.17435, 42.51972 1470.4736500000001, 42.51972 1470.4736500000001, 0 1576.77295, 0 1576.77295, 42.51972 1683.0722500000002, 42.51972 1683.0722500000002, 0 1789.37155, 0 1789.37155, 42.51972 1895.6708500000002, 42.51972 1895.6708500000002, 0 2001.97015, 0 2001.97015, 42.51972 2108.26945, 42.51972 2108.26945, 0 2214.56875, 0 2214.56875, 42.51972 2320.86805, 42.51972 2320.86805, 0 2427.1673499999997, 0 2427.1673499999997, 42.51972 2533.46665, 42.51972 2533.46665, 0 2639.76595, 0 2639.76595, 42.51972 2746.06525, 42.51972 2746.06525, 0 2852.36455, 0 2852.36455, 42.51972 2958.66385, 42.51972 2958.66385, 0 3064.96315, 0 3064.96315, 42.51972 3171.2624499999997, 42.51972 3171.2624499999997, 0 3277.56175, 0 3277.56175, 42.51972 3383.86105, 42.51972 3383.86105, 0 3490.16035, 0 3490.16035, 42.51972 3596.45965, 42.51972 3596.45965, 0 3702.75895, 0 3702.75895, 42.51972 3809.05825, 42.51972 3809.05825, 0 3915.3575499999997, 0 3915.3575499999997, 42.51972 4021.65685, 42.51972 4021.65685, 0 4127.95615, 0 4127.95615, 42.51972 4234.255450000001, 42.51972 4234.255450000001, 0 4340.55475, 0 4340.55475, 42.51972 4446.85405, 42.51972 4446.85405, 0 4553.15335, 0 4553.15335, 42.51972 4659.45265, 42.51972 4659.45265, 0 4728.192864000001, 0 4728.192864000001, 13.110247000000001 4741.303111000001, 13.110247000000001 4741.303111000001, 0 4810.043325000001, 0 4810.043325000001, 42.51972 4960.634, 42.51972 4960.634, 106.2993 4918.11428, 106.2993 4918.11428, 212.5986 4960.634, 212.5986 4960.634, 259.1931265 4947.523753, 259.1931265 4947.523753, 272.30337349999996 4960.634, 272.30337349999996 4960.634, 318.8979 4918.11428, 318.8979 4918.11428, 425.1972 4960.634, 425.1972 4960.634, 488.97677999999996 4810.043325000001, 488.97677999999996 4810.043325000001, 531.4965 4741.303111000001, 531.4965 4741.303111000001, 518.386253 4728.192864000001, 518.386253 4728.192864000001, 531.4965 4659.45265, 531.4965 4659.45265, 488.97677999999996 4553.15335, 488.97677999999996 4553.15335, 531.4965 4446.85405, 531.4965 4446.85405, 488.97677999999996 4340.55475, 488.97677999999996 4340.55475, 531.4965 4234.255450000001, 531.4965 4234.255450000001, 488.97677999999996 4127.95615, 488.97677999999996 4127.95615, 531.4965 4021.65685, 531.4965 4021.65685, 488.97677999999996 3915.3575499999997, 488.97677999999996 3915.3575499999997, 531.4965 3809.05825, 531.4965 3809.05825, 488.97677999999996 3702.75895, 488.97677999999996 3702.75895, 531.4965 3596.45965, 531.4965 3596.45965, 488.97677999999996 3490.16035, 488.97677999999996 3490.16035, 531.4965 3383.86105, 531.4965 3383.86105, 488.97677999999996 3277.56175, 488.97677999999996 3277.56175, 531.4965 3171.2624499999997, 531.4965 3171.2624499999997, 488.97677999999996 3064.96315, 488.97677999999996 3064.96315, 531.4965 2958.66385, 531.4965 2958.66385, 488.97677999999996 2852.36455, 488.97677999999996 2852.36455, 531.4965 2746.06525, 531.4965 2746.06525, 488.97677999999996 2639.76595, 488.97677999999996 2639.76595, 531.4965 2533.46665, 531.4965 2533.46665, 488.97677999999996 2427.1673499999997, 488.97677999999996 2427.1673499999997, 531.4965 2320.86805, 531.4965 2320.86805, 488.97677999999996 2214.56875, 488.97677999999996 2214.56875, 531.4965 2108.26945, 531.4965 2108.26945, 488.97677999999996 2001.97015, 488.97677999999996 2001.97015, 531.4965 1895.6708500000002, 531.4965 1895.6708500000002, 488.97677999999996 1789.37155, 488.97677999999996 1789.37155, 531.4965 1683.0722500000002, 531.4965 1683.0722500000002, 488.97677999999996 1576.77295, 488.97677999999996 1576.77295, 531.4965 1470.4736500000001, 531.4965 1470.4736500000001, 488.97677999999996 1364.17435, 488.97677999999996 1364.17435, 531.4965 1257.87505, 531.4965 1257.87505, 488.97677999999996 1151.57575, 488.97677999999996 1151.57575, 531.4965 1045.27645, 531.4965 1045.27645, 488.97677999999996 938.9771499999999, 488.97677999999996 938.9771499999999, 531.4965 832.67785, 531.4965 832.67785, 488.97677999999996 726.37855, 488.97677999999996 726.37855, 531.4965 620.07925, 531.4965 620.07925, 488.97677999999996 513.77995, 488.97677999999996 513.77995, 531.4965 407.48065, 531.4965 407.48065, 488.97677999999996 301.18135, 488.97677999999996 301.18135, 531.4965 232.441136, 531.4965 232.441136, 518.386253 219.33088899999998, 518.386253 219.33088899999998, 531.4965 150.590675, 531.4965 150.590675, 488.97677999999996 0, 488.97677999999996 0, 425.1972 42.51972, 425.1972 42.51972, 318.8979 0, 318.8979 0, 272.30337349999996 13.110247000000001, 272.30337349999996 13.110247000000001, 259.1931265 0, 259.1931265 0, 212.5986 42.51972, 212.5986 42.51972, 106.2993 0, 106.2993 "/> 
</g>
<!-- Right--> 
<g transform="translate(8526.4440185, 553.9965185) " > 
<polygon style="stroke:#FF0000; fill:none; stroke-width:0.354331" points="0, 42.51972 150.590675, 42.51972 150.590675, 0 219.33088899999998, 0 219.33088899999998, 13.110247000000001 232.441136, 13.110247000000001 232.441136, 0 301.18135, 0 301.18135, 42.51972 407.48065, 42.51972 407.48065, 0 513.77995, 0 513.77995, 42.51972 620.07925, 42.51972 620.07925, 0 726.37855, 0 726.37855, 42.51972 832.67785, 42.51972 832.67785, 0 938.9771499999999, 0 938.9771499999999, 42.51972 1045.27645, 42.51972 1045.27645, 0 1151.57575, 0 1151.57575, 42.51972 1257.87505, 42.51972 1257.87505, 0 1364.17435, 0 1364.17435, 42.51972 1470.4736500000001, 42.51972 1470.4736500000001, 0 1576.77295, 0 1576.77295, 42.51972 1683.0722500000002, 42.51972 1683.0722500000002, 0 1789.37155, 0 1789.37155, 42.51972 1895.6708500000002, 42.51972 1895.6708500000002, 0 2001.97015, 0 2001.97015, 42.51972 2108.26945, 42.51972 2108.26945, 0 2214.56875, 0 2214.56875, 42.51972 2320.86805, 42.51972 2320.86805, 0 2427.1673499999997, 0 2427.1673499999997, 42.51972 2533.46665, 42.51972 2533.46665, 0 2639.76595, 0 2639.76595, 42.51972 2746.06525, 42.51972 2746.06525, 0 2852.36455, 0 2852.36455, 42.51972 2958.66385, 42.51972 2958.66385, 0 3064.96315, 0 3064.96315, 42.51972 3171.2624499999997, 42.51972 3171.2624499999997, 0 3277.56175, 0 3277.56175, 42.51972 3383.86105, 42.51972 3383.86105, 0 3490.16035, 0 3490.16035, 42.51972 3596.45965, 42.51972 3596.45965, 0 3702.75895, 0 3702.75895, 42.51972 3809.05825, 42.51972 3809.05825, 0 3915.3575499999997, 0 3915.3575499999997, 42.51972 4021.65685, 42.51972 4021.65685, 0 4127.95615, 0 4127.95615, 42.51972 4234.255450000001, 42.51972 4234.255450000001, 0 4340.55475, 0 4340.55475, 42.51972 4446.85405, 42.51972 4446.85405, 0 4553.15335, 0 4553.15335, 42.51972 4659.45265, 42.51972 4659.45265, 0 4728.192864000001, 0 4728.192864000001, 13.110247000000001 4741.303111000001, 13.110247000000001 4741.303111000001, 0 4810.043325000001, 0 4810.043325000001, 42.51972 4960.634, 42.51972 4960.634, 106.2993 4918.11428, 106.2993 4918.11428, 212.5986 4960.634, 212.5986 4960.634, 259.1931265 4947.523753, 259.1931265 4947.523753, 272.30337349999996 4960.634, 272.30337349999996 4960.634, 318.8979 4918.11428, 318.8979 4918.11428, 425.1972 4960.634, 425.1972 4960.634, 488.97677999999996 4810.043325000001, 488.97677999999996 4810.043325000001, 531.4965 4741.303111000001, 531.4965 4741.303111000001, 518.386253 4728.192864000001, 518.386253 4728.192864000001, 531.4965 4659.45265, 531.4965 4659.45265, 488.97677999999996 4553.15335, 488.97677999999996 4553.15335, 531.4965 4446.85405, 531.4965 4446.85405, 488.97677999999996 4340.55475, 488.97677999999996 4340.55475, 531.4965 4234.255450000001, 531.4965 4234.255450000001, 488.97677999999996 4127.95615, 488.97677999999996 4127.95615, 531.4965 4021.65685, 531.4965 4021.65685, 488.97677999999996 3915.3575499999997, 488.97677999999996 3915.3575499999997, 531.4965 3809.05825, 531.4965 3809.05825, 488.97677999999996 3702.75895, 488.97677999999996 3702.75895, 531.4965 3596.45965, 531.4965 3596.45965, 488.97677999999996 3490.16035, 488.97677999999996 3490.16035, 531.4965 3383.86105, 531.4965 3383.86105, 488.97677999999996 3277.56175, 488.97677999999996 3277.56175, 531.4965 3171.2624499999997, 531.4965 3171.2624499999997, 488.97677999999996 3064.96315, 488.97677999999996 3064.96315, 531.4965 2958.66385, 531.4965 2958.66385, 488.97677999999996 2852.36455, 488.97677999999996 2852.36455, 531.4965 2746.06525, 531.4965 2746.06525, 488.97677999999996 2639.76595, 488.97677999999996 2639.76595, 531.4965 2533.46665, 531.4965 2533.46665, 488.97677999999996 2427.1673499999997, 488.97677999999996 2427.1673499999997, 531.4965 2320.86805, 531.4965 2320.86805, 488.97677999999996 2214.56875, 488.97677999999996 2214.56875, 531.4965 2108.26945, 531.4965 2108.26945, 488.97677999999996 2001.97015, 488.97677999999996 2001.97015, 531.4965 1895.6708500000002, 531.4965 1895.6708500000002, 488.97677999999996 1789.37155, 488.97677999999996 1789.37155, 531.4965 1683.0722500000002, 531.4965 1683.0722500000002, 488.97677999999996 1576.77295, 488.97677999999996 1576.77295, 531.4965 1470.4736500000001, 531.4965 1470.4736500000001, 488.97677999999996 1364.17435, 488.97677999999996 1364.17435, 531.4965 1257.87505, 531.4965 1257.87505, 488.97677999999996 1151.57575, 488.97677999999996 1151.57575, 531.4965 1045.27645, 531.4965 1045.27645, 488.97677999999996 938.9771499999999, 488.97677999999996 938.9771499999999, 531.4965 832.67785, 531.4965 832.67785, 488.97677999999996 726.37855, 488.97677999999996 726.37855, 531.4965 620.07925, 531.4965 620.07925, 488.97677999999996 513.77995, 488.97677999999996 513.77995, 531.4965 407.48065, 531.4965 407.48065, 488.97677999999996 301.18135, 488.97677999999996 301.18135, 531.4965 232.441136, 531.4965 232.441136, 518.386253 219.33088899999998, 518.386253 219.33088899999998, 531.4965 150.590675, 531.4965 150.590675, 488.97677999999996 0, 488.97677999999996 0, 425.1972 42.51972, 425.1972 42.51972, 318.8979 0, 318.8979 0, 272.30337349999996 13.110247000000001, 272.30337349999996 13.110247000000001, 259.1931265 0, 259.1931265 0, 212.5986 42.51972, 212.5986 42.51972, 106.2993 0, 106.2993 "/> 
</g>
<!-- Top--> 
<g transform="translate(22.5000185, 553.9965185) " > 
<polygon style="stroke:#FF0000; fill:none; stroke-width:0.354331" points="0, 42.51972 132.874125, 42.51972 132.874125, 0 192.75606399999998, 0 192.75606399999998, 13.110247000000001 205.866311, 13.110247000000001 205.866311, 0 265.74825, 0 265.74825, 42.51972 372.04755, 42.51972 372.04755, 0 478.34685, 0 478.34685, 42.51972 584.64615, 42.51972 584.64615, 0 690.9454499999999, 0 690.9454499999999, 42.51972 797.24475, 42.51972 797.24475, 0 903.54405, 0 903.54405, 42.51972 1009.84335, 42.51972 1009.84335, 0 1116.14265, 0 1116.14265, 42.51972 1222.44195, 42.51972 1222.44195, 0 1328.74125, 0 1328.74125, 42.51972 1435.0405500000002, 42.51972 1435.0405500000002, 0 1541.3398499999998, 0 1541.3398499999998, 42.51972 1647.63915, 42.51972 1647.63915, 0 1753.93845, 0 1753.93845, 42.51972 1860.2377500000002, 42.51972 1860.2377500000002, 0 1966.53705, 0 1966.53705, 42.51972 2072.83635, 42.51972 2072.83635, 0 2179.13565, 0 2179.13565, 42.51972 2285.43495, 42.51972 2285.43495, 0 2391.73425, 0 2391.73425, 42.51972 2498.03355, 42.51972 2498.03355, 0 2604.3328500000002, 0 2604.3328500000002, 42.51972 2710.6321500000004, 42.51972 2710.6321500000004, 0 2816.93145, 0 2816.93145, 42.51972 2923.23075, 42.51972 2923.23075, 0 3029.5300500000003, 0 3029.5300500000003, 42.51972 3135.82935, 42.51972 3135.82935, 0 3242.12865, 0 3242.12865, 42.51972 3348.4279500000002, 42.51972 3348.4279500000002, 0 3454.7272500000004, 0 3454.7272500000004, 42.51972 3561.02655, 42.51972 3561.02655, 0 3667.32585, 0 3667.32585, 42.51972 3773.6251500000003, 42.51972 3773.6251500000003, 0 3879.92445, 0 3879.92445, 42.51972 3986.22375, 42.51972 3986.22375, 0 4046.1056890000004, 0 4046.1056890000004, 13.110247000000001 4059.215936, 13.110247000000001 4059.215936, 0 4119.097875, 0 4119.097875, 42.51972 4251.972, 42.51972 4251.972, 150.590675 4209.4522799999995, 150.590675 4209.4522799999995, 220.393882 4180.751469, 220.393882 4180.751469, 215.9647445 4171.893193999999, 215.9647445 4171.893193999999, 220.393882 4163.034919, 220.393882 4163.034919, 231.378143 4171.893193999999, 231.378143 4171.893193999999, 235.8072805 4180.751469, 235.8072805 4180.751469, 231.378143 4209.4522799999995, 231.378143 4209.4522799999995, 301.18135 4251.972, 301.18135 4251.972, 407.48065 4209.4522799999995, 407.48065 4209.4522799999995, 513.77995 4251.972, 513.77995 4251.972, 620.07925 4209.4522799999995, 620.07925 4209.4522799999995, 726.37855 4251.972, 726.37855 4251.972, 832.67785 4209.4522799999995, 832.67785 4209.4522799999995, 938.9771499999999 4251.972, 938.9771499999999 4251.972, 1045.27645 4209.4522799999995, 1045.27645 4209.4522799999995, 1151.57575 4251.972, 1151.57575 4251.972, 1257.87505 4209.4522799999995, 1257.87505 4209.4522799999995, 1364.17435 4251.972, 1364.17435 4251.972, 1470.4736500000001 4209.4522799999995, 1470.4736500000001 4209.4522799999995, 1576.77295 4251.972, 1576.77295 4251.972, 1683.0722500000002 4209.4522799999995, 1683.0722500000002 4209.4522799999995, 1789.37155 4251.972, 1789.37155 4251.972, 1895.6708500000002 4209.4522799999995, 1895.6708500000002 4209.4522799999995, 2001.97015 4251.972, 2001.97015 4251.972, 2108.26945 4209.4522799999995, 2108.26945 4209.4522799999995, 2214.56875 4251.972, 2214.56875 4251.972, 2320.86805 4209.4522799999995, 2320.86805 4209.4522799999995, 2427.1673499999997 4251.972, 2427.1673499999997 4251.972, 2533.46665 4209.4522799999995, 2533.46665 4209.4522799999995, 2639.76595 4251.972, 2639.76595 4251.972, 2746.06525 4209.4522799999995, 2746.06525 4209.4522799999995, 2852.36455 4251.972, 2852.36455 4251.972, 2958.66385 4209.4522799999995, 2958.66385 4209.4522799999995, 3064.96315 4251.972, 3064.96315 4251.972, 3171.2624499999997 4209.4522799999995, 3171.2624499999997 4209.4522799999995, 3277.56175 4251.972, 3277.56175 4251.972, 3383.86105 4209.4522799999995, 3383.86105 4209.4522799999995, 3490.16035 4251.972, 3490.16035 4251.972, 3596.45965 4209.4522799999995, 3596.45965 4209.4522799999995, 3702.75895 4251.972, 3702.75895 4251.972, 3809.05825 4209.4522799999995, 3809.05825 4209.4522799999995, 3915.3575499999997 4251.972, 3915.3575499999997 4251.972, 4021.65685 4209.4522799999995, 4021.65685 4209.4522799999995, 4127.95615 4251.972, 4127.95615 4251.972, 4234.255450000001 4209.4522799999995, 4234.255450000001 4209.4522799999995, 4340.55475 4251.972, 4340.55475 4251.972, 4446.85405 4209.4522799999995, 4446.85405 4209.4522799999995, 4553.15335 4251.972, 4553.15335 4251.972, 4659.45265 4209.4522799999995, 4659.45265 4209.4522799999995, 4729.255857000001 4180.751469, 4729.255857000001 4180.751469, 4724.826719500001 4171.893193999999, 4724.826719500001 4171.893193999999, 4729.255857000001 4163.034919, 4729.255857000001 4163.034919, 4740.240118000001 4171.893193999999, 4740.240118000001 4171.893193999999, 4744.669255500001 4180.751469, 4744.669255500001 4180.751469, 4740.240118000001 4209.4522799999995, 4740.240118000001 4209.4522799999995, 4810.043325000001 4251.972, 4810.043325000001 4251.972, 4918.11428 4119.097875, 4918.11428 4119.097875, 4960.634 4059.215936, 4960.634 4059.215936, 4947.523753 4046.1056890000004, 4947.523753 4046.1056890000004, 4960.634 3986.22375, 4960.634 3986.22375, 4918.11428 3879.92445, 4918.11428 3879.92445, 4960.634 3773.6251500000003, 4960.634 3773.6251500000003, 4918.11428 3667.32585, 4918.11428 3667.32585, 4960.634 3561.02655, 4960.634 3561.02655, 4918.11428 3454.7272500000004, 4918.11428 3454.7272500000004, 4960.634 3348.4279500000002, 4960.634 3348.4279500000002, 4918.11428 3242.12865, 4918.11428 3242.12865, 4960.634 3135.82935, 4960.634 3135.82935, 4918.11428 3029.5300500000003, 4918.11428 3029.5300500000003, 4960.634 2923.23075, 4960.634 2923.23075, 4918.11428 2816.93145, 4918.11428 2816.93145, 4960.634 2710.6321500000004, 4960.634 2710.6321500000004, 4918.11428 2604.3328500000002, 4918.11428 2604.3328500000002, 4960.634 2498.03355, 4960.634 2498.03355, 4918.11428 2391.73425, 4918.11428 2391.73425, 4960.634 2285.43495, 4960.634 2285.43495, 4918.11428 2179.13565, 4918.11428 2179.13565, 4960.634 2072.83635, 4960.634 2072.83635, 4918.11428 1966.53705, 4918.11428 1966.53705, 4960.634 1860.2377500000002, 4960.634 1860.2377500000002, 4918.11428 1753.93845, 4918.11428 1753.93845, 4960.634 1647.63915, 4960.634 1647.63915, 4918.11428 1541.3398499999998, 4918.11428 1541.3398499999998, 4960.634 1435.0405500000002, 4960.634 1435.0405500000002, 4918.11428 1328.74125, 4918.11428 1328.74125, 4960.634 1222.44195, 4960.634 1222.44195, 4918.11428 1116.14265, 4918.11428 1116.14265, 4960.634 1009.84335, 4960.634 1009.84335, 4918.11428 903.54405, 4918.11428 903.54405, 4960.634 797.24475, 4960.634 797.24475, 4918.11428 690.9454499999999, 4918.11428 690.9454499999999, 4960.634 584.64615, 4960.634 584.64615, 4918.11428 478.34685, 4918.11428 478.34685, 4960.634 372.04755, 4960.634 372.04755, 4918.11428 265.74825, 4918.11428 265.74825, 4960.634 205.866311, 4960.634 205.866311, 4947.523753 192.75606399999998, 4947.523753 192.75606399999998, 4960.634 132.874125, 4960.634 132.874125, 4918.11428 0, 4918.11428 0, 4810.043325000001 42.51972, 4810.043325000001 42.51972, 4740.240118000001 71.22053100000001, 4740.240118000001 71.22053100000001, 4744.669255500001 80.07880600000001, 4744.669255500001 80.07880600000001, 4740.240118000001 88.937081, 4740.240118000001 88.937081, 4729.255857000001 80.07880600000001, 4729.255857000001 80.07880600000001, 4724.826719500001 71.22053100000001, 4724.826719500001 71.22053100000001, 4729.255857000001 42.51972, 4729.255857000001 42.51972, 4659.45265 0, 4659.45265 0, 4553.15335 42.51972, 4553.15335 42.51972, 4446.85405 0, 4446.85405 0, 4340.55475 42.51972, 4340.55475 42.51972, 4234.255450000001 0, 4234.255450000001 0, 4127.95615 42.51972, 4127.95615 42.51972, 4021.65685 0, 4021.65685 0, 3915.3575499999997 42.51972, 3915.3575499999997 42.51972, 3809.05825 0, 3809.05825 0, 3702.75895 42.51972, 3702.75895 42.51972, 3596.45965 0, 3596.45965 0, 3490.16035 42.51972, 3490.16035 42.51972, 3383.86105 0, 3383.86105 0, 3277.56175 42.51972, 3277.56175 42.51972, 3171.2624499999997 0, 3171.2624499999997 0, 3064.96315 42.51972, 3064.96315 42.51972, 2958.66385 0, 2958.66385 0, 2852.36455 42.51972, 2852.36455 42.51972, 2746.06525 0, 2746.06525 0, 2639.76595 42.51972, 2639.76595 42.51972, 2533.46665 0, 2533.46665 0, 2427.1673499999997 42.51972, 2427.1673499999997 42.51972, 2320.86805 0, 2320.86805 0, 2214.56875 42.51972, 2214.56875 42.51972, 2108.26945 0, 2108.26945 0, 2001.97015 42.51972, 2001.97015 42.51972, 1895.6708500000002 0, 1895.6708500000002 0, 1789.37155 42.51972, 1789.37155 42.51972, 1683.0722500000002 0, 1683.0722500000002 0, 1576.77295 42.51972, 1576.77295 42.51972, 1470.4736500000001 0, 1470.4736500000001 0, 1364.17435 42.51972, 1364.17435 42.51972, 1257.87505 0, 1257.87505 0, 1151.57575 42.51972, 1151.57575 42.51972, 1045.27645 0, 1045.27645 0, 938.9771499999999 42.51972, 938.9771499999999 42.51972, 832.67785 0, 832.67785 0, 726.37855 42.51972, 726.37855 42.51972, 620.07925 0, 620.07925 0, 513.77995 42.51972, 513.77995 42.51972, 407.48065 0, 407.48065 0, 301.18135 42.51972, 301.18135 42.51972, 231.378143 71.22053100000001, 231.378143 71.22053100000001, 235.8072805 80.07880600000001, 235.8072805 80.07880600000001, 231.378143 88.937081, 231.378143 88.937081, 220.393882 80.07880600000001, 220.393882 80.07880600000001, 215.9647445 71.22053100000001, 215.9647445 71.22053100000001, 220.393882 42.51972, 220.393882 42.51972, 150.590675 0, 150.590675 "/> 
</g>
<!-- Bottom--> 
<g transform="translate(4274.4720185, 553.9965185) " > 
<polygon style="stroke:#FF0000; fill:none; stroke-width:0.354331" points="0, 42.51972 132.874125, 42.51972 132.874125, 0 192.75606399999998, 0 192.75606399999998, 13.110247000000001 205.866311, 13.110247000000001 205.866311, 0 265.74825, 0 265.74825, 42.51972 372.04755, 42.51972 372.04755, 0 478.34685, 0 478.34685, 42.51972 584.64615, 42.51972 584.64615, 0 690.9454499999999, 0 690.9454499999999, 42.51972 797.24475, 42.51972 797.24475, 0 903.54405, 0 903.54405, 42.51972 1009.84335, 42.51972 1009.84335, 0 1116.14265, 0 1116.14265, 42.51972 1222.44195, 42.51972 1222.44195, 0 1328.74125, 0 1328.74125, 42.51972 1435.0405500000002, 42.51972 1435.0405500000002, 0 1541.3398499999998, 0 1541.3398499999998, 42.51972 1647.63915, 42.51972 1647.63915, 0 1753.93845, 0 1753.93845, 42.51972 1860.2377500000002, 42.51972 1860.2377500000002, 0 1966.53705, 0 1966.53705, 42.51972 2072.83635, 42.51972 2072.83635, 0 2179.13565, 0 2179.13565, 42.51972 2285.43495, 42.51972 2285.43495, 0 2391.73425, 0 2391.73425, 42.51972 2498.03355, 42.51972 2498.03355, 0 2604.3328500000002, 0 2604.3328500000002, 42.51972 2710.6321500000004, 42.51972 2710.6321500000004, 0 2816.93145, 0 2816.93145, 42.51972 2923.23075, 42.51972 2923.23075, 0 3029.5300500000003, 0 3029.5300500000003, 42.51972 3135.82935, 42.51972 3135.82935, 0 3242.12865, 0 3242.12865, 42.51972 3348.4279500000002, 42.51972 3348.4279500000002, 0 3454.7272500000004, 0 3454.7272500000004, 42.51972 3561.02655, 42.51972 3561.02655, 0 3667.32585, 0 3667.32585, 42.51972 3773.6251500000003, 42.51972 3773.6251500000003, 0 3879.92445, 0 3879.92445, 42.51972 3986.22375, 42.51972 3986.22375, 0 4046.1056890000004, 0 4046.1056890000004, 13.110247000000001 4059.215936, 13.110247000000001 4059.215936, 0 4119.097875, 0 4119.097875, 42.51972 4251.972, 42.51972 4251.972, 150.590675 4209.4522799999995, 150.590675 4209.4522799999995, 220.393882 4180.751469, 220.393882 4180.751469, 215.9647445 4171.893193999999, 215.9647445 4171.893193999999, 220.393882 4163.034919, 220.393882 4163.034919, 231.378143 4171.893193999999, 231.378143 4171.893193999999, 235.8072805 4180.751469, 235.8072805 4180.751469, 231.378143 4209.4522799999995, 231.378143 4209.4522799999995, 301.18135 4251.972, 301.18135 4251.972, 407.48065 4209.4522799999995, 407.48065 4209.4522799999995, 513.77995 4251.972, 513.77995 4251.972, 620.07925 4209.4522799999995, 620.07925 4209.4522799999995, 726.37855 4251.972, 726.37855 4251.972, 832.67785 4209.4522799999995, 832.67785 4209.4522799999995, 938.9771499999999 4251.972, 938.9771499999999 4251.972, 1045.27645 4209.4522799999995, 1045.27645 4209.4522799999995, 1151.57575 4251.972, 1151.57575 4251.972, 1257.87505 4209.4522799999995, 1257.87505 4209.4522799999995, 1364.17435 4251.972, 1364.17435 4251.972, 1470.4736500000001 4209.4522799999995, 1470.4736500000001 4209.4522799999995, 1576.77295 4251.972, 1576.77295 4251.972, 1683.0722500000002 4209.4522799999995, 1683.0722500000002 4209.4522799999995, 1789.37155 4251.972, 1789.37155 4251.972, 1895.6708500000002 4209.4522799999995, 1895.6708500000002 4209.4522799999995, 2001.97015 4251.972, 2001.97015 4251.972, 2108.26945 4209.4522799999995, 2108.26945 4209.4522799999995, 2214.56875 4251.972, 2214.56875 4251.972, 2320.86805 4209.4522799999995, 2320.86805 4209.4522799999995, 2427.1673499999997 4251.972, 2427.1673499999997 4251.972, 2533.46665 4209.4522799999995, 2533.46665 4209.4522799999995, 2639.76595 4251.972, 2639.76595 4251.972, 2746.06525 4209.4522799999995, 2746.06525 4209.4522799999995, 2852.36455 4251.972, 2852.36455 4251.972, 2958.66385 4209.4522799999995, 2958.66385 4209.4522799999995, 3064.96315 4251.972, 3064.96315 4251.972, 3171.2624499999997 4209.4522799999995, 3171.2624499999997 4209.4522799999995, 3277.56175 4251.972, 3277.56175 4251.972, 3383.86105 4209.4522799999995, 3383.86105 4209.4522799999995, 3490.16035 4251.972, 3490.16035 4251.972, 3596.45965 4209.4522799999995, 3596.45965 4209.4522799999995, 3702.75895 4251.972, 3702.75895 4251.972, 3809.05825 4209.4522799999995, 3809.05825 4209.4522799999995, 3915.3575499999997 4251.972, 3915.3575499999997 4251.972, 4021.65685 4209.4522799999995, 4021.65685 4209.4522799999995, 4127.95615 4251.972, 4127.95615 4251.972, 4234.255450000001 4209.4522799999995, 4234.255450000001 4209.4522799999995, 4340.55475 4251.972, 4340.55475 4251.972, 4446.85405 4209.4522799999995, 4446.85405 4209.4522799999995, 4553.15335 4251.972, 4553.15335 4251.972, 4659.45265 4209.4522799999995, 4659.45265 4209.4522799999995, 4729.255857000001 4180.751469, 4729.255857000001 4180.751469, 4724.826719500001 4171.893193999999, 4724.826719500001 4171.893193999999, 4729.255857000001 4163.034919, 4729.255857000001 4163.034919, 4740.240118000001 4171.893193999999, 4740.240118000001 4171.893193999999, 4744.669255500001 4180.751469, 4744.669255500001 4180.751469, 4740.240118000001 4209.4522799999995, 4740.240118000001 4209.4522799999995, 4810.043325000001 4251.972, 4810.043325000001 4251.972, 4918.11428 4119.097875, 4918.11428 4119.097875, 4960.634 4059.215936, 4960.634 4059.215936, 4947.523753 4046.1056890000004, 4947.523753 4046.1056890000004, 4960.634 3986.22375, 4960.634 3986.22375, 4918.11428 3879.92445, 4918.11428 3879.92445, 4960.634 3773.6251500000003, 4960.634 3773.6251500000003, 4918.11428 3667.32585, 4918.11428 3667.32585, 4960.634 3561.02655, 4960.634 3561.02655, 4918.11428 3454.7272500000004, 4918.11428 3454.7272500000004, 4960.634 3348.4279500000002, 4960.634 3348.4279500000002, 4918.11428 3242.12865, 4918.11428 3242.12865, 4960.634 3135.82935, 4960.634 3135.82935, 4918.11428 3029.5300500000003, 4918.11428 3029.5300500000003, 4960.634 2923.23075, 4960.634 2923.23075, 4918.11428 2816.93145, 4918.11428 2816.93145, 4960.634 2710.6321500000004, 4960.634 2710.6321500000004, 4918.11428 2604.3328500000002, 4918.11428 2604.3328500000002, 4960.634 2498.03355, 4960.634 2498.03355, 4918.11428 2391.73425, 4918.11428 2391.73425, 4960.634 2285.43495, 4960.634 2285.43495, 4918.11428 2179.13565, 4918.11428 2179.13565, 4960.634 2072.83635, 4960.634 2072.83635, 4918.11428 1966.53705, 4918.11428 1966.53705, 4960.634 1860.2377500000002, 4960.634 1860.2377500000002, 4918.11428 1753.93845, 4918.11428 1753.93845, 4960.634 1647.63915, 4960.634 1647.63915, 4918.11428 1541.3398499999998, 4918.11428 1541.3398499999998, 4960.634 1435.0405500000002, 4960.634 1435.0405500000002, 4918.11428 1328.74125, 4918.11428 1328.74125, 4960.634 1222.44195, 4960.634 1222.44195, 4918.11428 1116.14265, 4918.11428 1116.14265, 4960.634 1009.84335, 4960.634 1009.84335, 4918.11428 903.54405, 4918.11428 903.54405, 4960.634 797.24475, 4960.634 797.24475, 4918.11428 690.9454499999999, 4918.11428 690.9454499999999, 4960.634 584.64615, 4960.634 584.64615, 4918.11428 478.34685, 4918.11428 478.34685, 4960.634 372.04755, 4960.634 372.04755, 4918.11428 265.74825, 4918.11428 265.74825, 4960.634 205.866311, 4960.634 205.866311, 4947.523753 192.75606399999998, 4947.523753 192.75606399999998, 4960.634 132.874125, 4960.634 132.874125, 4918.11428 0, 4918.11428 0, 4810.043325000001 42.51972, 4810.043325000001 42.51972, 4740.240118000001 71.22053100000001, 4740.240118000001 71.22053100000001, 4744.669255500001 80.07880600000001, 4744.669255500001 80.07880600000001, 4740.240118000001 88.937081, 4740.240118000001 88.937081, 4729.255857000001 80.07880600000001, 4729.255857000001 80.07880600000001, 4724.826719500001 71.22053100000001, 4724.826719500001 71.22053100000001, 4729.255857000001 42.51972, 4729.255857000001 42.51972, 4659.45265 0, 4659.45265 0, 4553.15335 42.51972, 4553.15335 42.51972, 4446.85405 0, 4446.85405 0, 4340.55475 42.51972, 4340.55475 42.51972, 4234.255450000001 0, 4234.255450000001 0, 4127.95615 42.51972, 4127.95615 42.51972, 4021.65685 0, 4021.65685 0, 3915.3575499999997 42.51972, 3915.3575499999997 42.51972, 3809.05825 0, 3809.05825 0, 3702.75895 42.51972, 3702.75895 42.51972, 3596.45965 0, 3596.45965 0, 3490.16035 42.51972, 3490.16035 42.51972, 3383.86105 0, 3383.86105 0, 3277.56175 42.51972, 3277.56175 42.51972, 3171.2624499999997 0, 3171.2624499999997 0, 3064.96315 42.51972, 3064.96315 42.51972, 2958.66385 0, 2958.66385 0, 2852.36455 42.51972, 2852.36455 42.51972, 2746.06525 0, 2746.06525 0, 2639.76595 42.51972, 2639.76595 42.51972, 2533.46665 0, 2533.46665 0, 2427.1673499999997 42.51972, 2427.1673499999997 42.51972, 2320.86805 0, 2320.86805 0, 2214.56875 42.51972, 2214.56875 42.51972, 2108.26945 0, 2108.26945 0, 2001.97015 42.51972, 2001.97015 42.51972, 1895.6708500000002 0, 1895.6708500000002 0, 1789.37155 42.51972, 1789.37155 42.51972, 1683.0722500000002 0, 1683.0722500000002 0, 1576.77295 42.51972, 1576.77295 42.51972, 1470.4736500000001 0, 1470.4736500000001 0, 1364.17435 42.51972, 1364.17435 42.51972, 1257.87505 0, 1257.87505 0, 1151.57575 42.51972, 1151.57575 42.51972, 1045.27645 0, 1045.27645 0, 938.9771499999999 42.51972, 938.9771499999999 42.51972, 832.67785 0, 832.67785 0, 726.37855 42.51972, 726.37855 42.51972, 620.07925 0, 620.07925 0, 513.77995 42.51972, 513.77995 42.51972, 407.48065 0, 407.48065 0, 301.18135 42.51972, 301.18135 42.51972, 231.378143 71.22053100000001, 231.378143 71.22053100000001, 235.8072805 80.07880600000001, 235.8072805 80.07880600000001, 231.378143 88.937081, 231.378143 88.937081, 220.393882 80.07880600000001, 220.393882 80.07880600000001, 215.9647445 71.22053100000001, 215.9647445 71.22053100000001, 220.393882 42.51972, 220.393882 42.51972, 150.590675 0, 150.590675 "/> 
</g></svg>