<?xml version="1.0" encoding="UTF-8"?>
<!-- 2017-02-08 17:50:13 Generated by QCAD SVG Exporter -->
<svg width="244.4095225512601mm" height="588.9436752580675mm" viewBox="-82.5 -558.9436752580675 244.4095225512601 588.9436752580675" version="1.1" xmlns="http://www.w3.org/2000/svg" style="stroke-linecap:round;stroke-linejoin:round;fill:none">
    <g transform="scale(1,-1)">
        <!-- Polyligne -->
        <path d="M116.5986334188048,500.4629131445342 L121.5986334188048,509.1231671823786 L151.90952255126,491.6231671823786 L161.9095225512601,508.9436752580674 L75.3069821728161,558.9436752580675 L65.3069821728161,541.6231671823786 L95.61787130527163,524.1231671823786 L90.61787130527163,515.4629131445342 L75.46242673904374,524.2129131445342 L72.96242673904374,519.8827861256121 L72.86887815468037,520.0635301873772 C-14.825808481409808,368.5145812094044 -65.00000000000023,192.61669577080903 -65.00000000000023,4.999999999999545 L-65,1.7e-15 L-47.5,1.7e-15 L-47.5,-10 L-82.5,-10 L-82.5,-30.00000000000003 L17.5,-30 L17.5,-10 L-17.5,-10 L-17.5,0 L0,0 L0,5 C0,180.7957500047959 47.01871229557025,345.6096913390413 129.16643429606222,487.55212141208756 L131.7540779850324,491.7129131445342 Z" style="stroke:#000000;stroke-width:0;"/>
    </g>
</svg>
