999
dxflib 3.12.2.0
  0
SECTION
  2
HEADER
  9
$ACADVER
  1
AC1015
  9
$HANDSEED
  5
FFFF
  9
$DIMADEC
 70
0
  9
$DIMASZ
 40
2.5
  9
$DIMAUNIT
 70
0
  9
$DIMAZIN
 70
2
  9
$DIMDEC
 70
4
  9
$DIMEXE
 40
1.25
  9
$DIMEXO
 40
0.625
  9
$DIMGAP
 40
0.625
  9
$DIMLUNIT
 70
2
  9
$DIMSCALE
 40
1.0
  9
$DIMTSZ
 40
0.0
  9
$DIMTXT
 40
2.5
  9
$DIMZIN
 70
8
  9
$DWGCODEPAGE
  3
ANSI_1252
  9
$INSUNITS
 70
4
  9
$LTSCALE
 40
1.0
  9
$MEASUREMENT
 70
1
  9
$PDMODE
 70
0
  9
$PDSIZE
 40
0
  0
ENDSEC
  0
SECTION
  2
TABLES
  0
TABLE
  2
VPORT
  5
8
100
AcDbSymbolTable
 70
1
  0
VPORT
  5
30
100
AcDbSymbolTableRecord
100
AcDbViewportTableRecord
  2
*Active
 70
0
 10
0.0
 20
0.0
 11
1.0
 21
1.0
 12
286.30555555555549
 22
148.5
 13
0.0
 23
0.0
 14
10.0
 24
10.0
 15
10.0
 25
10.0
 16
0.0
 26
0.0
 36
1.0
 17
0.0
 27
0.0
 37
0.0
 40
297.0
 41
1.92798353909465
 42
50.0
 43
0.0
 44
0.0
 50
0.0
 51
0.0
 71
0
 72
100
 73
1
 74
3
 75
1
 76
1
 77
0
 78
0
281
0
 65
1
110
0.0
120
0.0
130
0.0
111
1.0
121
0.0
131
0.0
112
0.0
122
1.0
132
0.0
 79
0
146
0.0
  0
ENDTAB
  0
TABLE
  2
LTYPE
  5
5
100
AcDbSymbolTable
 70
54
  0
LTYPE
  5
16
100
AcDbSymbolTableRecord
100
AcDbLinetypeTableRecord
  2
Continuous
 70
0
  3
Solid line
 72
65
 73
0
 40
0.0
  0
LTYPE
  5
31
100
AcDbSymbolTableRecord
100
AcDbLinetypeTableRecord
  2
ACAD_ISO12W100
 70
0
  3
ISO dash double-dot __ . . __ . . __ . . __ . . 
 72
65
 73
6
 40
21.0
 49
12.0
 74
0
 49
-3.0
 74
0
 49
0.0
 74
0
 49
-3.0
 74
0
 49
0.0
 74
0
 49
-3.0
 74
0
  0
LTYPE
  5
32
100
AcDbSymbolTableRecord
100
AcDbLinetypeTableRecord
  2
DOTX2
 70
0
  3
Dot (2x) .  .  .  .  .  .  .  .  .  .  .  .  .  .
 72
65
 73
2
 40
12.699999999999999
 49
0.0
 74
0
 49
-12.699999999999999
 74
0
  0
LTYPE
  5
33
100
AcDbSymbolTableRecord
100
AcDbLinetypeTableRecord
  2
BATTING
 70
0
  3
Batting SSSSSSSSSSSSSSSSSSSSSSSSSSSSSSSSSSSSSSSSSSSSSSS
 72
65
 73
4
 40
10.16254
 49
0.00254
 74
0
 49
-2.54
 74
0
 49
-5.0800000000000001
 74
0
 49
-2.54
 74
0
  0
LTYPE
  5
34
100
AcDbSymbolTableRecord
100
AcDbLinetypeTableRecord
  2
ACAD_ISO04W100
 70
0
  3
ISO long-dash dot ____ . ____ . ____ . ____ . _
 72
65
 73
4
 40
30.0
 49
24.0
 74
0
 49
-3.0
 74
0
 49
0.0
 74
0
 49
-3.0
 74
0
  0
LTYPE
  5
35
100
AcDbSymbolTableRecord
100
AcDbLinetypeTableRecord
  2
BORDERX2
 70
0
  3
Border (2x) ____  ____  .  ____  ____  .  ___
 72
65
 73
6
 40
88.899999999999991
 49
25.399999999999999
 74
0
 49
-12.699999999999999
 74
0
 49
25.399999999999999
 74
0
 49
-12.699999999999999
 74
0
 49
0.0
 74
0
 49
-12.699999999999999
 74
0
  0
LTYPE
  5
36
100
AcDbSymbolTableRecord
100
AcDbLinetypeTableRecord
  2
CUTRIGHT2
 70
0
  3
G42 reversed----\----\----\----
 72
65
 73
2
 40
10.16
 49
5.0800000000000001
 74
0
 49
5.0800000000000001
 74
0
  0
LTYPE
  5
37
100
AcDbSymbolTableRecord
100
AcDbLinetypeTableRecord
  2
BORDER
 70
0
  3
Border __ __ . __ __ . __ __ . __ __ . __ __ .
 72
65
 73
6
 40
44.449999999999996
 49
12.699999999999999
 74
0
 49
-6.3499999999999996
 74
0
 49
12.699999999999999
 74
0
 49
-6.3499999999999996
 74
0
 49
0.0
 74
0
 49
-6.3499999999999996
 74
0
  0
LTYPE
  5
14
100
AcDbSymbolTableRecord
100
AcDbLinetypeTableRecord
  2
BYBLOCK
 70
0
  3

 72
65
 73
0
 40
0.0
  0
LTYPE
  5
38
100
AcDbSymbolTableRecord
100
AcDbLinetypeTableRecord
  2
ACAD_ISO11W100
 70
0
  3
ISO double-dash dot __ __ . __ __ . __ __ . __ _
 72
65
 73
6
 40
33.0
 49
12.0
 74
0
 49
-3.0
 74
0
 49
12.0
 74
0
 49
-3.0
 74
0
 49
0.0
 74
0
 49
-3.0
 74
0
  0
LTYPE
  5
39
100
AcDbSymbolTableRecord
100
AcDbLinetypeTableRecord
  2
ACAD_ISO03W100
 70
0
  3
ISO dash space __    __    __    __    __    __
 72
65
 73
2
 40
30.0
 49
12.0
 74
0
 49
-18.0
 74
0
  0
LTYPE
  5
3A
100
AcDbSymbolTableRecord
100
AcDbLinetypeTableRecord
  2
CUTRIGHT
 70
0
  3
G42 ----/----/-----/---
 72
65
 73
2
 40
10.16
 49
5.0800000000000001
 74
0
 49
5.0800000000000001
 74
0
  0
LTYPE
  5
3B
100
AcDbSymbolTableRecord
100
AcDbLinetypeTableRecord
  2
HOT_WATER_SUPPLY
 70
0
  3
Hot water supply ---- HW ---- HW ---- HW ----
 72
65
 73
3
 40
22.859999999999999
 49
12.699999999999999
 74
0
 49
-5.0800000000000001
 74
0
 49
-5.0800000000000001
 74
0
  0
LTYPE
  5
3C
100
AcDbSymbolTableRecord
100
AcDbLinetypeTableRecord
  2
ACAD_ISO10W100
 70
0
  3
ISO dash dot __ . __ . __ . __ . __ . __ . __ . 
 72
65
 73
4
 40
18.0
 49
12.0
 74
0
 49
-3.0
 74
0
 49
0.0
 74
0
 49
-3.0
 74
0
  0
LTYPE
  5
3D
100
AcDbSymbolTableRecord
100
AcDbLinetypeTableRecord
  2
HIDDEN
 70
0
  3
Hidden __ __ __ __ __ __ __ __ __ __ __ __ __ __
 72
65
 73
2
 40
9.5249999999999986
 49
6.3499999999999996
 74
0
 49
-3.1749999999999998
 74
0
  0
LTYPE
  5
3E
100
AcDbSymbolTableRecord
100
AcDbLinetypeTableRecord
  2
DRAINAGE2
 70
0
  3
Drainage reversed----<----<----<----
 72
65
 73
2
 40
10.16
 49
5.0800000000000001
 74
0
 49
5.0800000000000001
 74
0
  0
LTYPE
  5
3F
100
AcDbSymbolTableRecord
100
AcDbLinetypeTableRecord
  2
ACAD_ISO02W100
 70
0
  3
ISO dash __ __ __ __ __ __ __ __ __ __ __ __ __
 72
65
 73
2
 40
15.0
 49
12.0
 74
0
 49
-3.0
 74
0
  0
LTYPE
  5
40
100
AcDbSymbolTableRecord
100
AcDbLinetypeTableRecord
  2
DASHED2
 70
0
  3
Dashed (.5x) _ _ _ _ _ _ _ _ _ _ _ _ _ _ _ _ _ 
 72
65
 73
2
 40
9.5249999999999986
 49
6.3499999999999996
 74
0
 49
-3.1749999999999998
 74
0
  0
LTYPE
  5
41
100
AcDbSymbolTableRecord
100
AcDbLinetypeTableRecord
  2
DASHEDX2
 70
0
  3
Dashed (2x) ____  ____  ____  ____  ____  ___
 72
65
 73
2
 40
38.099999999999994
 49
25.399999999999999
 74
0
 49
-12.699999999999999
 74
0
  0
LTYPE
  5
42
100
AcDbSymbolTableRecord
100
AcDbLinetypeTableRecord
  2
DIVIDE2
 70
0
  3
Divide (.5x) __..__..__..__..__..__..__..__.._
 72
65
 73
6
 40
15.875
 49
6.3499999999999996
 74
0
 49
-3.1749999999999998
 74
0
 49
0.0
 74
0
 49
-3.1749999999999998
 74
0
 49
0.0
 74
0
 49
-3.1749999999999998
 74
0
  0
LTYPE
  5
43
100
AcDbSymbolTableRecord
100
AcDbLinetypeTableRecord
  2
CENTERX2
 70
0
  3
Center (2x) ________  __  ________  __  _____
 72
65
 73
4
 40
101.60000000000001
 49
63.5
 74
0
 49
-12.699999999999999
 74
0
 49
12.699999999999999
 74
0
 49
-12.699999999999999
 74
0
  0
LTYPE
  5
15
100
AcDbSymbolTableRecord
100
AcDbLinetypeTableRecord
  2
BYLAYER
 70
0
  3

 72
65
 73
0
 40
0.0
  0
LTYPE
  5
44
100
AcDbSymbolTableRecord
100
AcDbLinetypeTableRecord
  2
ZIGZAG
 70
0
  3
Zig zag /\/\/\/\/\/\/\/\/\/\/\/\/\/\/\/\/\/\/\/\/\/\/\/
 72
65
 73
4
 40
20.32254
 49
0.00254
 74
0
 49
-5.0800000000000001
 74
0
 49
-10.16
 74
0
 49
-5.0800000000000001
 74
0
  0
LTYPE
  5
45
100
AcDbSymbolTableRecord
100
AcDbLinetypeTableRecord
  2
GAS_LINE
 70
0
  3
Gas line ----GAS----GAS----GAS----GAS----GAS----GAS--
 72
65
 73
3
 40
24.130000000000003
 49
12.699999999999999
 74
0
 49
-5.0800000000000001
 74
0
 49
-6.3499999999999996
 74
0
  0
LTYPE
  5
46
100
AcDbSymbolTableRecord
100
AcDbLinetypeTableRecord
  2
CENTER2
 70
0
  3
Center (.5x) ___ _ ___ _ ___ _ ___ _ ___ _ ___
 72
65
 73
4
 40
28.575000000000003
 49
19.050000000000001
 74
0
 49
-3.1749999999999998
 74
0
 49
3.1749999999999998
 74
0
 49
-3.1749999999999998
 74
0
  0
LTYPE
  5
47
100
AcDbSymbolTableRecord
100
AcDbLinetypeTableRecord
  2
ACAD_ISO09W100
 70
0
  3
ISO long-dash double-short-dash ____ __ __ ____
 72
65
 73
6
 40
45.0
 49
24.0
 74
0
 49
-3.0
 74
0
 49
6.0
 74
0
 49
-3.0
 74
0
 49
6.0
 74
0
 49
-3.0
 74
0
  0
LTYPE
  5
48
100
AcDbSymbolTableRecord
100
AcDbLinetypeTableRecord
  2
FENCELINE1
 70
0
  3
Fenceline circle ----0-----0----0-----0----0-----0--
 72
65
 73
4
 40
36.829999999999998
 49
6.3499999999999996
 74
0
 49
-2.54
 74
0
 49
-2.54
 74
0
 49
25.399999999999999
 74
0
  0
LTYPE
  5
49
100
AcDbSymbolTableRecord
100
AcDbLinetypeTableRecord
  2
DASHDOT
 70
0
  3
Dash dot __ . __ . __ . __ . __ . __ . __ . __
 72
65
 73
4
 40
25.399999999999999
 49
12.699999999999999
 74
0
 49
-6.3499999999999996
 74
0
 49
0.0
 74
0
 49
-6.3499999999999996
 74
0
  0
LTYPE
  5
4A
100
AcDbSymbolTableRecord
100
AcDbLinetypeTableRecord
  2
FENCELINE2
 70
0
  3
Fenceline square ----[]-----[]----[]-----[]----[]---
 72
65
 73
4
 40
36.829999999999998
 49
6.3499999999999996
 74
0
 49
-2.54
 74
0
 49
-2.54
 74
0
 49
25.399999999999999
 74
0
  0
LTYPE
  5
4B
100
AcDbSymbolTableRecord
100
AcDbLinetypeTableRecord
  2
DASHDOT2
 70
0
  3
Dash dot (.5x) _._._._._._._._._._._._._._._.
 72
65
 73
4
 40
12.699999999999999
 49
6.3499999999999996
 74
0
 49
-3.1749999999999998
 74
0
 49
0.0
 74
0
 49
-3.1749999999999998
 74
0
  0
LTYPE
  5
4C
100
AcDbSymbolTableRecord
100
AcDbLinetypeTableRecord
  2
DASHDOTX2
 70
0
  3
Dash dot (2x) ____  .  ____  .  ____  .  ___
 72
65
 73
4
 40
50.799999999999997
 49
25.399999999999999
 74
0
 49
-12.699999999999999
 74
0
 49
0.0
 74
0
 49
-12.699999999999999
 74
0
  0
LTYPE
  5
4D
100
AcDbSymbolTableRecord
100
AcDbLinetypeTableRecord
  2
ACAD_ISO08W100
 70
0
  3
ISO long-dash short-dash ____ __ ____ __ ____ _
 72
65
 73
4
 40
36.0
 49
24.0
 74
0
 49
-3.0
 74
0
 49
6.0
 74
0
 49
-3.0
 74
0
  0
LTYPE
  5
4E
100
AcDbSymbolTableRecord
100
AcDbLinetypeTableRecord
  2
PHANTOM2
 70
0
  3
Phantom (.5x) ___ _ _ ___ _ _ ___ _ _ ___ _ _
 72
65
 73
6
 40
31.750000000000004
 49
15.875
 74
0
 49
-3.1749999999999998
 74
0
 49
3.1749999999999998
 74
0
 49
-3.1749999999999998
 74
0
 49
3.1749999999999998
 74
0
 49
-3.1749999999999998
 74
0
  0
LTYPE
  5
4F
100
AcDbSymbolTableRecord
100
AcDbLinetypeTableRecord
  2
ACAD_ISO15W100
 70
0
  3
ISO double-dash triple-dot __ __ . . . __ __ . .
 72
65
 73
10
 40
39.0
 49
12.0
 74
0
 49
-3.0
 74
0
 49
12.0
 74
0
 49
-3.0
 74
0
 49
0.0
 74
0
 49
-3.0
 74
0
 49
0.0
 74
0
 49
-3.0
 74
0
 49
0.0
 74
0
 49
-3.0
 74
0
  0
LTYPE
  5
50
100
AcDbSymbolTableRecord
100
AcDbLinetypeTableRecord
  2
PHANTOM
 70
0
  3
Phantom ______  __  __  ______  __  __  ______ 
 72
65
 73
6
 40
63.500000000000007
 49
31.75
 74
0
 49
-6.3499999999999996
 74
0
 49
6.3499999999999996
 74
0
 49
-6.3499999999999996
 74
0
 49
6.3499999999999996
 74
0
 49
-6.3499999999999996
 74
0
  0
LTYPE
  5
51
100
AcDbSymbolTableRecord
100
AcDbLinetypeTableRecord
  2
ACAD_ISO07W100
 70
0
  3
ISO dot . . . . . . . . . . . . . . . . . . . . 
 72
65
 73
2
 40
3.0
 49
0.0
 74
0
 49
-3.0
 74
0
  0
LTYPE
  5
52
100
AcDbSymbolTableRecord
100
AcDbLinetypeTableRecord
  2
PHANTOMX2
 70
0
  3
Phantom (2x) ____________    ____    ____   _
 72
65
 73
6
 40
127.00000000000001
 49
63.5
 74
0
 49
-12.699999999999999
 74
0
 49
12.699999999999999
 74
0
 49
-12.699999999999999
 74
0
 49
12.699999999999999
 74
0
 49
-12.699999999999999
 74
0
  0
LTYPE
  5
53
100
AcDbSymbolTableRecord
100
AcDbLinetypeTableRecord
  2
HIDDENX2
 70
0
  3
Hidden (2x) ____ ____ ____ ____ ____ ____ ____ 
 72
65
 73
2
 40
19.049999999999997
 49
12.699999999999999
 74
0
 49
-6.3499999999999996
 74
0
  0
LTYPE
  5
54
100
AcDbSymbolTableRecord
100
AcDbLinetypeTableRecord
  2
BORDER2
 70
0
  3
Border (.5x) __.__.__.__.__.__.__.__.__.__.__.
 72
65
 73
6
 40
22.224999999999998
 49
6.3499999999999996
 74
0
 49
-3.1749999999999998
 74
0
 49
6.3499999999999996
 74
0
 49
-3.1749999999999998
 74
0
 49
0.0
 74
0
 49
-3.1749999999999998
 74
0
  0
LTYPE
  5
55
100
AcDbSymbolTableRecord
100
AcDbLinetypeTableRecord
  2
ACAD_ISO14W100
 70
0
  3
ISO dash triple-dot __ . . . __ . . . __ . . . _
 72
65
 73
8
 40
24.0
 49
12.0
 74
0
 49
-3.0
 74
0
 49
0.0
 74
0
 49
-3.0
 74
0
 49
0.0
 74
0
 49
-3.0
 74
0
 49
0.0
 74
0
 49
-3.0
 74
0
  0
LTYPE
  5
56
100
AcDbSymbolTableRecord
100
AcDbLinetypeTableRecord
  2
CENTER
 70
0
  3
Center ____ _ ____ _ ____ _ ____ _ ____ _ ____
 72
65
 73
4
 40
50.800000000000004
 49
31.75
 74
0
 49
-6.3499999999999996
 74
0
 49
6.3499999999999996
 74
0
 49
-6.3499999999999996
 74
0
  0
LTYPE
  5
57
100
AcDbSymbolTableRecord
100
AcDbLinetypeTableRecord
  2
DOT
 70
0
  3
Dot . . . . . . . . . . . . . . . . . . . . . . . .
 72
65
 73
2
 40
6.3499999999999996
 49
0.0
 74
0
 49
-6.3499999999999996
 74
0
  0
LTYPE
  5
58
100
AcDbSymbolTableRecord
100
AcDbLinetypeTableRecord
  2
ACAD_ISO06W100
 70
0
  3
ISO long-dash triple-dot ____ ... ____ ... ____
 72
65
 73
8
 40
36.0
 49
24.0
 74
0
 49
-3.0
 74
0
 49
0.0
 74
0
 49
-3.0
 74
0
 49
0.0
 74
0
 49
-3.0
 74
0
 49
0.0
 74
0
 49
-3.0
 74
0
  0
LTYPE
  5
59
100
AcDbSymbolTableRecord
100
AcDbLinetypeTableRecord
  2
CUTLEFT
 70
0
  3
G41 ----\----\----\----
 72
65
 73
2
 40
10.16
 49
5.0800000000000001
 74
0
 49
5.0800000000000001
 74
0
  0
LTYPE
  5
5A
100
AcDbSymbolTableRecord
100
AcDbLinetypeTableRecord
  2
DOT2
 70
0
  3
Dot (.5x) ........................................
 72
65
 73
2
 40
3.1749999999999998
 49
0.0
 74
0
 49
-3.1749999999999998
 74
0
  0
LTYPE
  5
5B
100
AcDbSymbolTableRecord
100
AcDbLinetypeTableRecord
  2
DIVIDE
 70
0
  3
Divide ____ . . ____ . . ____ . . ____ . . ____
 72
65
 73
6
 40
31.75
 49
12.699999999999999
 74
0
 49
-6.3499999999999996
 74
0
 49
0.0
 74
0
 49
-6.3499999999999996
 74
0
 49
0.0
 74
0
 49
-6.3499999999999996
 74
0
  0
LTYPE
  5
5C
100
AcDbSymbolTableRecord
100
AcDbLinetypeTableRecord
  2
DRAINAGE
 70
0
  3
Drainage ---->---->---->----
 72
65
 73
2
 40
10.16
 49
5.0800000000000001
 74
0
 49
5.0800000000000001
 74
0
  0
LTYPE
  5
5D
100
AcDbSymbolTableRecord
100
AcDbLinetypeTableRecord
  2
DASHED
 70
0
  3
Dashed __ __ __ __ __ __ __ __ __ __ __ __ __ _
 72
65
 73
2
 40
19.049999999999997
 49
12.699999999999999
 74
0
 49
-6.3499999999999996
 74
0
  0
LTYPE
  5
5E
100
AcDbSymbolTableRecord
100
AcDbLinetypeTableRecord
  2
CUTLEFT2
 70
0
  3
G41 reversed----/----/----/----
 72
65
 73
2
 40
10.16
 49
5.0800000000000001
 74
0
 49
5.0800000000000001
 74
0
  0
LTYPE
  5
5F
100
AcDbSymbolTableRecord
100
AcDbLinetypeTableRecord
  2
ACAD_ISO13W100
 70
0
  3
ISO double-dash double-dot __ __ . . __ __ . . _
 72
65
 73
8
 40
36.0
 49
12.0
 74
0
 49
-3.0
 74
0
 49
12.0
 74
0
 49
-3.0
 74
0
 49
0.0
 74
0
 49
-3.0
 74
0
 49
0.0
 74
0
 49
-3.0
 74
0
  0
LTYPE
  5
60
100
AcDbSymbolTableRecord
100
AcDbLinetypeTableRecord
  2
HIDDEN2
 70
0
  3
Hidden (.5x) _ _ _ _ _ _ _ _ _ _ _ _ _ _ _ _ _ 
 72
65
 73
2
 40
4.7624999999999993
 49
3.1749999999999998
 74
0
 49
-1.5874999999999999
 74
0
  0
LTYPE
  5
61
100
AcDbSymbolTableRecord
100
AcDbLinetypeTableRecord
  2
ACAD_ISO05W100
 70
0
  3
ISO long-dash double-dot ____ .. ____ .. ____ . 
 72
65
 73
6
 40
33.0
 49
24.0
 74
0
 49
-3.0
 74
0
 49
0.0
 74
0
 49
-3.0
 74
0
 49
0.0
 74
0
 49
-3.0
 74
0
  0
LTYPE
  5
62
100
AcDbSymbolTableRecord
100
AcDbLinetypeTableRecord
  2
DIVIDEX2
 70
0
  3
Divide (2x) ________  .  .  ________  .  .  _
 72
65
 73
6
 40
63.5
 49
25.399999999999999
 74
0
 49
-12.699999999999999
 74
0
 49
0.0
 74
0
 49
-12.699999999999999
 74
0
 49
0.0
 74
0
 49
-12.699999999999999
 74
0
  0
LTYPE
  5
63
100
AcDbSymbolTableRecord
100
AcDbLinetypeTableRecord
  2
TRACKS
 70
0
  3
Tracks -|-|-|-|-|-|-|-|-|-|-|-|-|-|-|-|-|-|-|-|-|-|-|-|-
 72
65
 73
2
 40
7.6200000000000001
 49
3.8100000000000001
 74
0
 49
3.8100000000000001
 74
0
  0
ENDTAB
  0
TABLE
  2
LAYER
  5
2
100
AcDbSymbolTable
 70
1
  0
LAYER
  5
10
100
AcDbSymbolTableRecord
100
AcDbLayerTableRecord
  2
0
 70
0
 62
7
420
16777215
  6
Continuous
370
25
390
F
  0
ENDTAB
  0
TABLE
  2
STYLE
  5
3
100
AcDbSymbolTable
 70
1
  0
STYLE
  5
64
100
AcDbSymbolTableRecord
100
AcDbTextStyleTableRecord
  2
Standard
 70
0
 40
0.0
 41
1.0
 50
0.0
 71
0
 42
2.5
  3

  4

1001
ACAD
1000
txt
1071
0
  0
ENDTAB
  0
TABLE
  2
VIEW
  5
6
100
AcDbSymbolTable
 70
0
  0
ENDTAB
  0
TABLE
  2
UCS
  5
7
100
AcDbSymbolTable
 70
0
  0
ENDTAB
  0
TABLE
  2
APPID
  5
9
100
AcDbSymbolTable
 70
1
  0
APPID
  5
12
100
AcDbSymbolTableRecord
100
AcDbRegAppTableRecord
  2
ACAD
 70
0
  0
APPID
  5
65
100
AcDbSymbolTableRecord
100
AcDbRegAppTableRecord
  2
QCAD
 70
0
  0
ENDTAB
  0
TABLE
  2
DIMSTYLE
  5
A
100
AcDbSymbolTable
 70
1
100
AcDbDimStyleTable
 71
0
  0
DIMSTYLE
105
27
100
AcDbSymbolTableRecord
100
AcDbDimStyleTableRecord
  2
Standard
 41
2.5
 42
0.625
 43
3.75
 44
1.25
 70
0
 73
0
 74
0
 77
1
 78
8
140
2.5
141
2.5
143
0.03937007874016
147
0.625
171
3
172
1
271
2
272
2
274
3
278
44
283
0
284
8
340
64
  0
ENDTAB
  0
TABLE
  2
BLOCK_RECORD
  5
1
100
AcDbSymbolTable
 70
1
  0
BLOCK_RECORD
  5
1F
100
AcDbSymbolTableRecord
100
AcDbBlockTableRecord
  2
*Model_Space
340
22
  0
BLOCK_RECORD
  5
1B
100
AcDbSymbolTableRecord
100
AcDbBlockTableRecord
  2
*Paper_Space
340
1E
  0
BLOCK_RECORD
  5
23
100
AcDbSymbolTableRecord
100
AcDbBlockTableRecord
  2
*Paper_Space0
340
26
  0
ENDTAB
  0
ENDSEC
  0
SECTION
  2
BLOCKS
  0
BLOCK
  5
20
100
AcDbEntity
  8
0
100
AcDbBlockBegin
  2
*Model_Space
 70
0
 10
0.0
 20
0.0
 30
0.0
  3
*Model_Space
  1

  0
ENDBLK
  5
21
100
AcDbEntity
  8
0
100
AcDbBlockEnd
  0
BLOCK
  5
1C
100
AcDbEntity
 67
1
  8
0
100
AcDbBlockBegin
  2
*Paper_Space
 70
0
 10
0.0
 20
0.0
 30
0.0
  3
*Paper_Space
  1

  0
ENDBLK
  5
1D
100
AcDbEntity
 67
1
  8
0
100
AcDbBlockEnd
  0
BLOCK
  5
24
100
AcDbEntity
  8
0
100
AcDbBlockBegin
  2
*Paper_Space0
 70
0
 10
0.0
 20
0.0
 30
0.0
  3
*Paper_Space0
  1

  0
ENDBLK
  5
25
100
AcDbEntity
  8
0
100
AcDbBlockEnd
  0
ENDSEC
  0
SECTION
  2
ENTITIES
  0
LINE
  5
66
100
AcDbEntity
100
AcDbLine
  8
0
 62
1
420
16711680
370
-1
 48
1.0
  6
BYLAYER
 10
-1014.089399932764
 20
-81.166880515923168
 30
0.0
 11
-970.71340926216396
 21
-69.440930734993202
 31
0.0
  0
LINE
  5
67
100
AcDbEntity
100
AcDbLine
  8
0
 62
1
420
16711680
370
-1
 48
1.0
  6
BYLAYER
 10
-970.71340926216396
 20
-69.440930734993202
 30
0.0
 11
-968.10375673606745
 21
-79.09441283152799
 31
0.0
  0
LINE
  5
68
100
AcDbEntity
100
AcDbLine
  8
0
 62
1
420
16711680
370
-1
 48
1.0
  6
BYLAYER
 10
-968.10375673606745
 20
-79.09441283152799
 30
0.0
 11
-1011.6091040654675
 21
-90.855331950598014
 31
0.0
  0
LINE
  5
69
100
AcDbEntity
100
AcDbLine
  8
0
 62
1
420
16711680
370
-1
 48
1.0
  6
BYLAYER
 10
-1011.6091040654675
 20
-90.855331950598014
 30
0.0
 11
-1011.5911470622905
 21
-98.949263068160604
 31
0.0
  0
LINE
  5
6A
100
AcDbEntity
100
AcDbLine
  8
0
 62
1
420
16711680
370
-1
 48
1.0
  6
BYLAYER
 10
-1011.5911470622905
 20
-98.949263068160604
 30
0.0
 11
-1011.5915937901535
 21
-98.948376942752219
 31
0.0
  0
ELLIPSE
  5
6B
100
AcDbEntity
100
AcDbEllipse
  8
0
 62
1
420
16711680
370
-1
 48
1.0
  6
BYLAYER
 10
-1009.573432874048
 20
-98.940918106158094
 30
0.0
 11
1.6024903007946705
 21
-1.2268064537513936
 31
0.0
 40
0.9999999600000128
 41
3.7986754408274477
 42
4.0585756887603317
  0
ELLIPSE
  5
6C
100
AcDbEntity
100
AcDbEllipse
  8
0
 62
1
420
16711680
370
-1
 48
1.0
  6
BYLAYER
 10
-1009.5905173180403
 20
-98.944603944644285
 30
0.0
 11
1.5886308103898727
 21
-1.2161963663574795
 31
0.0
 40
0.9999999600000056
 41
4.0590220623820326
 42
5.3672245163946135
  0
LINE
  5
6D
100
AcDbEntity
100
AcDbLine
  8
0
 62
1
420
16711680
370
-1
 48
1.0
  6
BYLAYER
 10
-1009.5876191916198
 20
-100.94532202890124
 30
0.0
 11
-27.133755659207239
 21
-98.76128088150594
 31
0.0
  0
LINE
  5
6E
100
AcDbEntity
100
AcDbLine
  8
0
 62
1
420
16711680
370
-1
 48
1.0
  6
BYLAYER
 10
-27.133755659207239
 20
-98.76128088150594
 30
0.0
 11
-27.134626126692638
 21
-98.761785530222056
 31
0.0
  0
ELLIPSE
  5
6F
100
AcDbEntity
100
AcDbEllipse
  8
0
 62
1
420
16711680
370
-1
 48
1.0
  6
BYLAYER
 10
-27.140715433934822
 20
-96.75668859406818
 30
0.0
 11
1.5921129898508042
 21
-1.2188630901078028
 31
0.0
 40
0.9999999599999917
 41
5.3688132344160397
 42
5.6304105704219145
  0
ELLIPSE
  5
70
100
AcDbEntity
100
AcDbEllipse
  8
0
 62
1
420
16711680
370
-1
 48
1.0
  6
BYLAYER
 10
-27.138402454649544
 20
-96.760627321194789
 30
0.0
 11
1.5886142095930289
 21
-1.2161847762909588
 31
0.0
 40
0.9999999599999927
 41
5.629809738584596
 42
0.6548385556587517
  0
LINE
  5
71
100
AcDbEntity
100
AcDbLine
  8
0
 62
1
420
16711680
370
-1
 48
1.0
  6
BYLAYER
 10
-25.137704583952136
 20
-96.757724148378969
 30
0.0
 11
-25.156192300285518
 21
-88.662929609381223
 31
0.0
  0
LINE
  5
72
100
AcDbEntity
100
AcDbLine
  8
0
 62
1
420
16711680
370
-1
 48
1.0
  6
BYLAYER
 10
-25.156192300285518
 20
-88.662929609381223
 30
0.0
 11
-68.713374678279024
 21
-77.095517228860757
 31
0.0
  0
LINE
  5
73
100
AcDbEntity
100
AcDbLine
  8
0
 62
1
420
16711680
370
-1
 48
1.0
  6
BYLAYER
 10
-68.713374678279024
 20
-77.095517228860757
 30
0.0
 11
-66.146660594244025
 21
-67.430524776328809
 31
0.0
  0
LINE
  5
74
100
AcDbEntity
100
AcDbLine
  8
0
 62
1
420
16711680
370
-1
 48
1.0
  6
BYLAYER
 10
-66.146660594244025
 20
-67.430524776328809
 30
0.0
 11
-22.718962193600532
 21
-78.963556622903496
 31
0.0
  0
LINE
  5
75
100
AcDbEntity
100
AcDbLine
  8
0
 62
1
420
16711680
370
-1
 48
1.0
  6
BYLAYER
 10
-22.718962193600532
 20
-78.963556622903496
 30
0.0
 11
-23.3181107798734
 21
190.65218687347772
 31
0.0
  0
LINE
  5
76
100
AcDbEntity
100
AcDbLine
  8
0
 62
1
420
16711680
370
-1
 48
1.0
  6
BYLAYER
 10
-23.3181107798734
 20
190.65218687347772
 30
0.0
 11
-66.694113999999999
 21
178.92623370000001
 31
0.0
  0
LINE
  5
77
100
AcDbEntity
100
AcDbLine
  8
0
 62
1
420
16711680
370
-1
 48
1.0
  6
BYLAYER
 10
-66.694113999999999
 20
178.92623370000001
 30
0.0
 11
-69.303766499999995
 21
188.57971570000001
 31
0.0
  0
LINE
  5
78
100
AcDbEntity
100
AcDbLine
  8
0
 62
1
420
16711680
370
-1
 48
1.0
  6
BYLAYER
 10
-69.303766499999995
 20
188.57971570000001
 30
0.0
 11
-25.798431720126601
 21
200.34063142652226
 31
0.0
  0
LINE
  5
79
100
AcDbEntity
100
AcDbLine
  8
0
 62
1
420
16711680
370
-1
 48
1.0
  6
BYLAYER
 10
-25.798431720126601
 20
200.34063142652226
 30
0.0
 11
-25.816420579794205
 21
208.43455393223294
 31
0.0
  0
LINE
  5
7A
100
AcDbEntity
100
AcDbLine
  8
0
 62
1
420
16711680
370
-1
 48
1.0
  6
BYLAYER
 10
-25.816420579794205
 20
208.43455393223294
 30
0.0
 11
-1010.269422201064
 21
206.24656344101732
 31
0.0
  0
LINE
  5
7B
100
AcDbEntity
100
AcDbLine
  8
0
 62
1
420
16711680
370
-1
 48
1.0
  6
BYLAYER
 10
-1010.269422201064
 20
206.24656344101732
 30
0.0
 11
-1010.2685414011405
 21
206.24706052397312
 31
0.0
  0
ELLIPSE
  5
7C
100
AcDbEntity
100
AcDbEllipse
  8
0
 62
1
420
16711680
370
-1
 48
1.0
  6
BYLAYER
 10
-1010.2624474811561
 20
204.24192932810635
 30
0.0
 11
1.5921402083235989
 21
-1.2188839187496114
 31
0.0
 40
0.9999999600000052
 41
2.2272228258934939
 42
2.4888156647802941
  0
ELLIPSE
  5
7D
100
AcDbEntity
100
AcDbEllipse
  8
0
 62
1
420
16711680
370
-1
 48
1.0
  6
BYLAYER
 10
-1010.2647490536419
 20
204.24588507504947
 30
0.0
 11
1.5886308516080589
 21
-1.2161972934979985
 31
0.0
 40
0.9999999600000032
 41
2.488222476987215
 42
3.7964231408476943
  0
LINE
  5
7E
100
AcDbEntity
100
AcDbLine
  8
0
 62
1
420
16711680
370
-1
 48
1.0
  6
BYLAYER
 10
-1012.265467770622
 20
204.24299783730396
 30
0.0
 11
-1012.2514200342084
 21
198.14819803267625
 31
0.0
  0
LINE
  5
7F
100
AcDbEntity
100
AcDbLine
  8
0
 62
1
420
16711680
370
-1
 48
1.0
  6
BYLAYER
 10
-1012.2514200342084
 20
198.14819803267625
 30
0.0
 11
-968.69424248295604
 21
186.58078434732974
 31
0.0
  0
LINE
  5
80
100
AcDbEntity
100
AcDbLine
  8
0
 62
1
420
16711680
370
-1
 48
1.0
  6
BYLAYER
 10
-968.69424248295604
 20
186.58078434732974
 30
0.0
 11
-971.26095656699101
 21
176.91579189479774
 31
0.0
  0
LINE
  5
81
100
AcDbEntity
100
AcDbLine
  8
0
 62
1
420
16711680
370
-1
 48
1.0
  6
BYLAYER
 10
-971.26095656699101
 20
176.91579189479774
 30
0.0
 11
-1014.6886549676345
 21
188.44882374137245
 31
0.0
  0
LINE
  5
82
100
AcDbEntity
100
AcDbLine
  8
0
 62
1
420
16711680
370
-1
 48
1.0
  6
BYLAYER
 10
-1014.6886549676345
 20
188.44882374137245
 30
0.0
 11
-1014.089399932764
 21
-81.166880515923168
 31
0.0
  0
LINE
  5
83
100
AcDbEntity
100
AcDbLine
  8
0
 62
1
420
16711680
370
-1
 48
1.0
  6
BYLAYER
 10
-510.71933931822042
 20
61.760414491359086
 30
0.0
 11
-510.68377348050956
 21
45.76045506666739
 31
0.0
  0
LINE
  5
84
100
AcDbEntity
100
AcDbLine
  8
0
 62
1
420
16711680
370
-1
 48
1.0
  6
BYLAYER
 10
-510.68377348050956
 20
45.76045506666739
 30
0.0
 11
-526.68374065043474
 21
45.724892977616207
 31
0.0
  0
LINE
  5
85
100
AcDbEntity
100
AcDbLine
  8
0
 62
1
420
16711680
370
-1
 48
1.0
  6
BYLAYER
 10
-526.68374065043474
 20
45.724892977616207
 30
0.0
 11
-526.71929675637398
 21
61.724854722355531
 31
0.0
  0
LINE
  5
86
100
AcDbEntity
100
AcDbLine
  8
0
 62
1
420
16711680
370
-1
 48
1.0
  6
BYLAYER
 10
-526.71929675637398
 20
61.724854722355531
 30
0.0
 11
-510.71933931822042
 21
61.760414491359086
 31
0.0
  0
LINE
  5
87
100
AcDbEntity
100
AcDbLine
  8
0
 62
1
420
16711680
370
-1
 48
1.0
  6
BYLAYER
 10
-776.56415428593607
 20
62.169564713768779
 30
0.0
 11
-776.56464954217427
 21
62.170438756264872
 31
0.0
  0
ELLIPSE
  5
88
100
AcDbEntity
100
AcDbEllipse
  8
0
 62
1
420
16711680
370
-1
 48
1.0
  6
BYLAYER
 10
-774.56379136449539
 20
62.173218355776029
 30
0.0
 11
1.5887423338481312
 21
-1.2162808428868104
 31
0.0
 40
0.9999999599999904
 41
2.488280006663659
 42
3.7963685310849886
  0
ELLIPSE
  5
89
100
AcDbEntity
100
AcDbEllipse
  8
0
 62
1
420
16711680
370
-1
 48
1.0
  6
BYLAYER
 10
-774.56201075154161
 20
62.172130376302157
 30
0.0
 11
1.589945582708765
 21
-1.2172023480376311
 31
0.0
 40
0.9999999600000037
 41
2.2270406155421143
 42
2.4889967282085821
  0
LINE
  5
8A
100
AcDbEntity
100
AcDbLine
  8
0
 62
1
420
16711680
370
-1
 48
1.0
  6
BYLAYER
 10
-774.56773256520955
 20
64.174497867933781
 30
0.0
 11
-758.56863575883006
 21
64.209562587636654
 31
0.0
  0
LINE
  5
8B
100
AcDbEntity
100
AcDbLine
  8
0
 62
1
420
16711680
370
-1
 48
1.0
  6
BYLAYER
 10
-758.56863575883006
 20
64.209562587636654
 30
0.0
 11
-758.56776565624966
 21
64.21006092233317
 31
0.0
  0
ELLIPSE
  5
8C
100
AcDbEntity
100
AcDbEllipse
  8
0
 62
1
420
16711680
370
-1
 48
1.0
  6
BYLAYER
 10
-758.56498907537264
 20
62.20919736256927
 30
0.0
 11
1.5887460794517665
 21
-1.216284831245865
 31
0.0
 40
0.9999999600000126
 41
0.9174838284625703
 42
2.2255710980561711
  0
ELLIPSE
  5
8D
100
AcDbEntity
100
AcDbEllipse
  8
0
 62
1
420
16711680
370
-1
 48
1.0
  6
BYLAYER
 10
-758.56571732776149
 20
62.207464300720289
 30
0.0
 11
1.5896636068414409
 21
-1.2169879352707227
 31
0.0
 40
0.9999999600000031
 41
0.6562215566605257
 42
0.9182247858897567
  0
LINE
  5
8E
100
AcDbEntity
100
AcDbLine
  8
0
 62
1
420
16711680
370
-1
 48
1.0
  6
BYLAYER
 10
-756.56370391541247
 20
62.213138357704878
 30
0.0
 11
-756.52864285693931
 21
46.214049883183094
 31
0.0
  0
LINE
  5
8F
100
AcDbEntity
100
AcDbLine
  8
0
 62
1
420
16711680
370
-1
 48
1.0
  6
BYLAYER
 10
-756.52864285693931
 20
46.214049883183094
 30
0.0
 11
-756.52813820818415
 21
46.213179415687307
 31
0.0
  0
ELLIPSE
  5
90
100
AcDbEntity
100
AcDbEllipse
  8
0
 62
1
420
16711680
370
-1
 48
1.0
  6
BYLAYER
 10
-758.52900022041047
 20
46.210401713650839
 30
0.0
 11
1.5887447277656292
 21
-1.2162840196160332
 31
0.0
 40
0.9999999599999959
 41
5.6298697981976629
 42
0.6547754598782869
  0
ELLIPSE
  5
91
100
AcDbEntity
100
AcDbEllipse
  8
0
 62
1
420
16711680
370
-1
 48
1.0
  6
BYLAYER
 10
-758.53080173800868
 20
46.211598203319056
 30
0.0
 11
1.5900359628452634
 21
-1.2172718710934021
 31
0.0
 40
0.999999960000004
 41
5.3686409016672396
 42
5.6305820121036394
  0
LINE
  5
92
100
AcDbEntity
100
AcDbLine
  8
0
 62
1
420
16711680
370
-1
 48
1.0
  6
BYLAYER
 10
-758.5250645776656
 20
44.20911672901812
 30
0.0
 11
-774.52415199152847
 21
44.174055584315511
 31
0.0
  0
LINE
  5
93
100
AcDbEntity
100
AcDbLine
  8
0
 62
1
420
16711680
370
-1
 48
1.0
  6
BYLAYER
 10
-774.52415199152847
 20
44.174055584315511
 30
0.0
 11
-774.52502209410898
 21
44.173557249618995
 31
0.0
  0
ELLIPSE
  5
94
100
AcDbEntity
100
AcDbEllipse
  8
0
 62
1
420
16711680
370
-1
 48
1.0
  6
BYLAYER
 10
-774.52780739052332
 20
46.174409407637015
 30
0.0
 11
1.5887372480522117
 21
-1.2162776304236402
 31
0.0
 40
0.9999999599999981
 41
4.0590719436945264
 42
5.3671679409128528
  0
ELLIPSE
  5
95
100
AcDbEntity
100
AcDbEllipse
  8
0
 62
1
420
16711680
370
-1
 48
1.0
  6
BYLAYER
 10
-774.52707780430865
 20
46.17615188001929
 30
0.0
 11
1.5896575392954446
 21
-1.2169832834533167
 31
0.0
 40
0.9999999600000006
 41
3.7978137059873163
 42
4.0598174420017532
  0
LINE
  5
96
100
AcDbEntity
100
AcDbLine
  8
0
 62
1
420
16711680
370
-1
 48
1.0
  6
BYLAYER
 10
-776.52908357398076
 20
46.17047884889908
 30
0.0
 11
-776.56415428593607
 21
62.169564713768779
 31
0.0
  0
LINE
  5
97
100
AcDbEntity
100
AcDbLine
  8
0
 62
1
420
16711680
370
-1
 48
1.0
  6
BYLAYER
 10
-280.87887907430201
 20
63.271248158547891
 30
0.0
 11
-280.87938372305706
 21
63.272118626043692
 31
0.0
  0
ELLIPSE
  5
98
100
AcDbEntity
100
AcDbEllipse
  8
0
 62
1
420
16711680
370
-1
 48
1.0
  6
BYLAYER
 10
-278.87852171083068
 20
63.274896328080217
 30
0.0
 11
1.5887446682928612
 21
-1.2162840973009281
 31
0.0
 40
0.9999999599999988
 41
2.4882771935050103
 42
3.7963681623648178
  0
ELLIPSE
  5
99
100
AcDbEntity
100
AcDbEllipse
  8
0
 62
1
420
16711680
370
-1
 48
1.0
  6
BYLAYER
 10
-278.87672019323242
 20
63.273699838411723
 30
0.0
 11
1.5900354813705917
 21
-1.2172725000097202
 31
0.0
 40
0.9999999599999971
 41
2.2270486436133274
 42
2.4889897540497858
  0
LINE
  5
9A
100
AcDbEntity
100
AcDbLine
  8
0
 62
1
420
16711680
370
-1
 48
1.0
  6
BYLAYER
 10
-278.88245735357549
 20
65.276181312712893
 30
0.0
 11
-262.88337020067797
 21
65.311243422763695
 31
0.0
  0
LINE
  5
9B
100
AcDbEntity
100
AcDbLine
  8
0
 62
1
420
16711680
370
-1
 48
1.0
  6
BYLAYER
 10
-262.88337020067797
 20
65.311243422763695
 30
0.0
 11
-262.88249983713223
 21
65.311740792111991
 31
0.0
  0
ELLIPSE
  5
9C
100
AcDbEntity
100
AcDbEllipse
  8
0
 62
1
420
16711680
370
-1
 48
1.0
  6
BYLAYER
 10
-262.87971454071777
 20
63.310888634094212
 30
0.0
 11
1.5887369277643302
 21
-1.216278048792546
 31
0.0
 40
0.9999999599999915
 41
0.9174795534390959
 42
2.2255755506574375
  0
ELLIPSE
  5
9D
100
AcDbEntity
100
AcDbEllipse
  8
0
 62
1
420
16711680
370
-1
 48
1.0
  6
BYLAYER
 10
-262.88044412693898
 20
63.309146161710842
 30
0.0
 11
1.5896575383526965
 21
-1.2169832846953739
 31
0.0
 40
0.9999999600000068
 41
0.6562210531767685
 42
0.9182247891905877
  0
LINE
  5
9E
100
AcDbEntity
100
AcDbLine
  8
0
 62
1
420
16711680
370
-1
 48
1.0
  6
BYLAYER
 10
-260.87843835726051
 20
63.314819192831891
 30
0.0
 11
-260.84337729878723
 21
47.315730718310107
 31
0.0
  0
LINE
  5
9F
100
AcDbEntity
100
AcDbLine
  8
0
 62
1
420
16711680
370
-1
 48
1.0
  6
BYLAYER
 10
-260.84337729878723
 20
47.315730718310107
 30
0.0
 11
-260.84288204254898
 21
47.314856675814013
 31
0.0
  0
ELLIPSE
  5
A0
100
AcDbEntity
100
AcDbEllipse
  8
0
 62
1
420
16711680
370
-1
 48
1.0
  6
BYLAYER
 10
-262.84373136284393
 20
47.312070305698235
 30
0.0
 11
1.5887344971203561
 21
-1.216276523994317
 31
0.0
 40
0.9999999599999937
 41
5.6298699371876753
 42
0.6547799344465842
  0
ELLIPSE
  5
A1
100
AcDbEntity
100
AcDbEllipse
  8
0
 62
1
420
16711680
370
-1
 48
1.0
  6
BYLAYER
 10
-262.84552083318175
 20
47.313165055777411
 30
0.0
 11
1.5899450431198829
 21
-1.2172030528653508
 31
0.0
 40
0.9999999599999935
 41
5.3686337124347636
 42
5.6305898251011568
  0
LINE
  5
A2
100
AcDbEntity
100
AcDbLine
  8
0
 62
1
420
16711680
370
-1
 48
1.0
  6
BYLAYER
 10
-262.83979901951375
 20
45.310797564145076
 30
0.0
 11
-278.83888617241121
 21
45.275735454094303
 31
0.0
  0
LINE
  5
A3
100
AcDbEntity
100
AcDbLine
  8
0
 62
1
420
16711680
370
-1
 48
1.0
  6
BYLAYER
 10
-278.83888617241121
 20
45.275735454094303
 30
0.0
 11
-278.83976592847375
 21
45.275234509745673
 31
0.0
  0
ELLIPSE
  5
A4
100
AcDbEntity
100
AcDbEllipse
  8
0
 62
1
420
16711680
370
-1
 48
1.0
  6
BYLAYER
 10
-278.84254250935061
 20
47.276098069509423
 30
0.0
 11
1.5887460208777497
 21
-1.216284907756787
 31
0.0
 40
0.9999999600000088
 41
4.059076530210465
 42
5.3671637998040245
  0
ELLIPSE
  5
A5
100
AcDbEntity
100
AcDbEllipse
  8
0
 62
1
420
16711680
370
-1
 48
1.0
  6
BYLAYER
 10
-278.84181425695533
 20
47.27783113135942
 30
0.0
 11
1.589663394861816
 21
-1.2169882121748401
 31
0.0
 40
0.9999999599999965
 41
3.7978143844386758
 42
4.059817613667219
  0
LINE
  5
A6
100
AcDbEntity
100
AcDbLine
  8
0
 62
1
420
16711680
370
-1
 48
1.0
  6
BYLAYER
 10
-280.84382766931071
 20
47.272157074374007
 30
0.0
 11
-280.87887907430201
 21
63.271248158547891
 31
0.0
  0
ELLIPSE
  5
A7
100
AcDbEntity
100
AcDbEllipse
  8
0
 62
1
420
16711680
370
-1
 48
1.0
  6
BYLAYER
 10
-548.63481157715921
 20
23.676044892570104
 30
0.0
 11
1.5880590653779336
 21
-1.2157584295079715
 31
0.0
 40
0.9999999600000041
 41
0.0
 42
6.2831853071795862
  0
ELLIPSE
  5
A8
100
AcDbEntity
100
AcDbEllipse
  8
0
 62
1
420
16711680
370
-1
 48
1.0
  6
BYLAYER
 10
-488.63495014878225
 20
23.809402432089684
 30
0.0
 11
1.5880586283056459
 21
-1.2157590004243488
 31
0.0
 40
0.9999999599999894
 41
0.0
 42
6.2831853071795862
  0
ELLIPSE
  5
A9
100
AcDbEntity
100
AcDbEllipse
  8
0
 62
1
420
16711680
370
-1
 48
1.0
  6
BYLAYER
 10
-488.76829696049401
 20
83.809253299426601
 30
0.0
 11
1.5880586588422148
 21
-1.2157589605365757
 31
0.0
 40
0.9999999599999987
 41
0.0
 42
6.2831853071795862
  0
ELLIPSE
  5
AA
100
AcDbEntity
100
AcDbEllipse
  8
0
 62
1
420
16711680
370
-1
 48
1.0
  6
BYLAYER
 10
-548.7681401257679
 20
83.675904840604005
 30
0.0
 11
1.5880586334036479
 21
-1.2157589937651068
 31
0.0
 40
0.999999960000005
 41
0.0
 42
6.2831853071795862
  0
ELLIPSE
  5
AB
100
AcDbEntity
100
AcDbEllipse
  8
0
 62
1
420
16711680
370
-1
 48
1.0
  6
BYLAYER
 10
-295.80550097147426
 20
30.23799033889528
 30
0.0
 11
1.5880586821529619
 21
-1.215758930087393
 31
0.0
 40
0.9999999600000008
 41
0.0
 42
6.2831853071795862
  0
ELLIPSE
  5
AC
100
AcDbEntity
100
AcDbEllipse
  8
0
 62
1
420
16711680
370
-1
 48
1.0
  6
BYLAYER
 10
-245.80562453551724
 20
30.349113220086991
 30
0.0
 11
1.5880586279446902
 21
-1.2157590008957975
 31
0.0
 40
0.9999999600000045
 41
0.0
 42
6.2831853071795862
  0
ELLIPSE
  5
AD
100
AcDbEntity
100
AcDbEllipse
  8
0
 62
1
420
16711680
370
-1
 48
1.0
  6
BYLAYER
 10
-295.91663209853721
 20
80.237866622119213
 30
0.0
 11
1.5880586552012801
 21
-1.2157589652924941
 31
0.0
 40
0.9999999599999884
 41
0.0
 42
6.2831853071795862
  0
ELLIPSE
  5
AE
100
AcDbEntity
100
AcDbEllipse
  8
0
 62
1
420
16711680
370
-1
 48
1.0
  6
BYLAYER
 10
-245.91675644547601
 20
80.348992399355495
 30
0.0
 11
1.5880587392951213
 21
-1.2157588554467367
 31
0.0
 40
0.9999999600000045
 41
0.0
 42
6.2831853071795862
  0
ELLIPSE
  5
AF
100
AcDbEntity
100
AcDbEllipse
  8
0
 62
1
420
16711680
370
-1
 48
1.0
  6
BYLAYER
 10
-791.4907767050388
 20
29.136308824812595
 30
0.0
 11
1.5880586864954012
 21
-1.2157589244151978
 31
0.0
 40
0.999999960000008
 41
0.0
 42
6.2831853071795862
  0
ELLIPSE
  5
B0
100
AcDbEntity
100
AcDbEllipse
  8
0
 62
1
420
16711680
370
-1
 48
1.0
  6
BYLAYER
 10
-741.49086217708418
 20
29.247444075309105
 30
0.0
 11
1.588058632406387
 21
-1.2157589950677483
 31
0.0
 40
0.9999999599999973
 41
0.0
 42
6.2831853071795862
  0
ELLIPSE
  5
B1
100
AcDbEntity
100
AcDbEllipse
  8
0
 62
1
420
16711680
370
-1
 48
1.0
  6
BYLAYER
 10
-741.60202252555837
 20
79.24731349492491
 30
0.0
 11
1.5880586334036479
 21
-1.2157589937651068
 31
0.0
 40
0.999999960000005
 41
0.0
 42
6.2831853071795862
  0
ELLIPSE
  5
B2
100
AcDbEntity
100
AcDbEllipse
  8
0
 62
1
420
16711680
370
-1
 48
1.0
  6
BYLAYER
 10
-791.60187782779485
 20
79.136189075599987
 30
0.0
 11
1.5880586341228309
 21
-1.2157589928257124
 31
0.0
 40
0.9999999599999968
 41
0.0
 42
6.2831853071795862
  0
ELLIPSE
  5
B3
100
AcDbEntity
100
AcDbEllipse
  8
0
 62
1
420
16711680
370
-1
 48
1.0
  6
BYLAYER
 10
-557.54250163008578
 20
-17.843841039886591
 30
0.0
 11
1.1910439987271957
 21
-0.9118192143997099
 31
0.0
 40
0.9999999599999736
 41
0.0
 42
6.2831853071795862
  0
ELLIPSE
  5
B4
100
AcDbEntity
100
AcDbEllipse
  8
0
 62
1
420
16711680
370
-1
 48
1.0
  6
BYLAYER
 10
-557.65141105820123
 20
31.156037302251903
 30
0.0
 11
1.1910440561982796
 21
-0.9118191393293458
 31
0.0
 40
0.9999999599999785
 41
0.0
 42
6.2831853071795862
  0
ELLIPSE
  5
B5
100
AcDbEntity
100
AcDbEllipse
  8
0
 62
1
420
16711680
370
-1
 48
1.0
  6
BYLAYER
 10
-499.65157125762403
 20
31.284939387383702
 30
0.0
 11
1.1910439465636955
 21
-0.9118192825371025
 31
0.0
 40
0.9999999599999975
 41
0.0
 42
6.2831853071795862
  0
ELLIPSE
  5
B6
100
AcDbEntity
100
AcDbEllipse
  8
0
 62
1
420
16711680
370
-1
 48
1.0
  6
BYLAYER
 10
-499.54266182950852
 20
-17.7149389547548
 30
0.0
 11
1.1910440544241965
 21
-0.9118191416466424
 31
0.0
 40
0.999999959999997
 41
0.0
 42
6.2831853071795862
  0
ELLIPSE
  5
B7
100
AcDbEntity
100
AcDbEllipse
  8
0
 62
1
420
16711680
370
-1
 48
1.0
  6
BYLAYER
 10
-557.8647857336415
 20
127.15579520831349
 30
0.0
 11
1.1910439450246031
 21
-0.9118192845473629
 31
0.0
 40
0.9999999600000161
 41
0.0
 42
6.2831853071795862
  0
ELLIPSE
  5
B8
100
AcDbEntity
100
AcDbEllipse
  8
0
 62
1
420
16711680
370
-1
 48
1.0
  6
BYLAYER
 10
-557.7558770884217
 20
78.155919762219611
 30
0.0
 11
1.1910439985848598
 21
-0.911819214585563
 31
0.0
 40
0.9999999600000071
 41
0.0
 42
6.2831853071795862
  0
ELLIPSE
  5
B9
100
AcDbEntity
100
AcDbEllipse
  8
0
 62
1
420
16711680
370
-1
 48
1.0
  6
BYLAYER
 10
-499.75603728784455
 20
78.284821847351395
 30
0.0
 11
1.1910440009018544
 21
-0.9118192115590631
 31
0.0
 40
0.9999999599999921
 41
0.0
 42
6.2831853071795862
  0
ELLIPSE
  5
BA
100
AcDbEntity
100
AcDbEllipse
  8
0
 62
1
420
16711680
370
-1
 48
1.0
  6
BYLAYER
 10
-499.86494671596006
 20
127.2847001894899
 30
0.0
 11
1.1910442680303959
 21
-0.9118188626281523
 31
0.0
 40
0.9999999599999969
 41
0.0
 42
6.2831853071795862
  0
ELLIPSE
  5
BB
100
AcDbEntity
100
AcDbEllipse
  8
0
 62
1
420
16711680
370
-1
 48
1.0
  6
BYLAYER
 10
-518.67819329510394
 20
43.242682261754503
 30
0.0
 11
0.9925368734312769
 21
-0.759849073865702
 31
0.0
 40
0.99999996000002
 41
0.0
 42
6.2831853071795862
  0
ELLIPSE
  5
BC
100
AcDbEntity
100
AcDbEllipse
  8
0
 62
1
420
16711680
370
-1
 48
1.0
  6
BYLAYER
 10
-504.17823314923578
 20
43.274907059026297
 30
0.0
 11
0.9925368727627415
 21
-0.7598490747389732
 31
0.0
 40
0.9999999599999977
 41
0.0
 42
6.2831853071795862
  0
ELLIPSE
  5
BD
100
AcDbEntity
100
AcDbEllipse
  8
0
 62
1
420
16711680
370
-1
 48
1.0
  6
BYLAYER
 10
-504.22489772381601
 20
64.274858412657821
 30
0.0
 11
0.9925366595361425
 21
-0.7598493532616431
 31
0.0
 40
0.9999999600000203
 41
0.0
 42
6.2831853071795862
  0
ELLIPSE
  5
BE
100
AcDbEntity
100
AcDbEllipse
  8
0
 62
1
420
16711680
370
-1
 48
1.0
  6
BYLAYER
 10
-518.72488659526152
 20
64.242624917616354
 30
0.0
 11
0.9925368743265608
 21
-0.7598490726963121
 31
0.0
 40
0.9999999600000256
 41
0.0
 42
6.2831853071795862
  0
ENDSEC
  0
SECTION
  2
OBJECTS
  0
DICTIONARY
  5
C
100
AcDbDictionary
280
0
281
1
  3
ACAD_GROUP
350
D
  3
ACAD_LAYOUT
350
1A
  3
ACAD_MLINESTYLE
350
17
  3
ACAD_PLOTSETTINGS
350
19
  3
ACAD_PLOTSTYLENAME
350
E
  3
AcDbVariableDictionary
350
BF
  3
QCAD_OBJECTS
350
C0
  0
DICTIONARY
  5
D
100
AcDbDictionary
280
0
281
1
  0
ACDBDICTIONARYWDFLT
  5
E
100
AcDbDictionary
281
1
  3
Normal
350
F
100
AcDbDictionaryWithDefault
340
F
  0
ACDBPLACEHOLDER
  5
F
  0
DICTIONARY
  5
17
100
AcDbDictionary
280
0
281
1
  3
Standard
350
18
  0
MLINESTYLE
  5
18
100
AcDbMlineStyle
  2
STANDARD
 70
0
  3

 62
256
 51
90.0
 52
90.0
 71
2
 49
0.5
 62
256
  6
BYLAYER
 49
-0.5
 62
256
  6
BYLAYER
  0
DICTIONARY
  5
19
100
AcDbDictionary
280
0
281
1
  0
DICTIONARY
  5
1A
100
AcDbDictionary
281
1
  3
Layout1
350
1E
  3
Layout2
350
26
  3
Model
350
22
  0
LAYOUT
  5
1E
100
AcDbPlotSettings
  1

  2
none_device
  4

  6

 40
0.0
 41
0.0
 42
0.0
 43
0.0
 44
0.0
 45
0.0
 46
0.0
 47
0.0
 48
0.0
 49
0.0
140
0.0
141
0.0
142
1.0
143
1.0
 70
688
 72
0
 73
0
 74
5
  7

 75
16
147
1.0
148
0.0
149
0.0
100
AcDbLayout
  1
Layout1
 70
1
 71
1
 10
0.0
 20
0.0
 11
420.0
 21
297.0
 12
0.0
 22
0.0
 32
0.0
 14
100000000000000000000.0
 24
100000000000000000000.0
 34
100000000000000000000.0
 15
-100000000000000000000.0
 25
-100000000000000000000.0
 35
-100000000000000000000.0
146
0.0
 13
0.0
 23
0.0
 33
0.0
 16
1.0
 26
0.0
 36
0.0
 17
0.0
 27
1.0
 37
0.0
 76
0
330
1B
  0
LAYOUT
  5
22
100
AcDbPlotSettings
  1

  2
none_device
  4

  6

 40
0.0
 41
0.0
 42
0.0
 43
0.0
 44
0.0
 45
0.0
 46
0.0
 47
0.0
 48
0.0
 49
0.0
140
0.0
141
0.0
142
1.0
143
1.0
 70
1712
 72
0
 73
0
 74
0
  7

 75
0
147
1.0
148
0.0
149
0.0
100
AcDbLayout
  1
Model
 70
1
 71
0
 10
0.0
 20
0.0
 11
12.0
 21
9.0
 12
0.0
 22
0.0
 32
0.0
 14
0.0
 24
0.0
 34
0.0
 15
0.0
 25
0.0
 35
0.0
146
0.0
 13
0.0
 23
0.0
 33
0.0
 16
1.0
 26
0.0
 36
0.0
 17
0.0
 27
1.0
 37
0.0
 76
0
330
1F
  0
LAYOUT
  5
26
100
AcDbPlotSettings
  1

  2
none_device
  4

  6

 40
0.0
 41
0.0
 42
0.0
 43
0.0
 44
0.0
 45
0.0
 46
0.0
 47
0.0
 48
0.0
 49
0.0
140
0.0
141
0.0
142
1.0
143
1.0
 70
688
 72
0
 73
0
 74
5
  7

 75
16
147
1.0
148
0.0
149
0.0
100
AcDbLayout
  1
Layout2
 70
1
 71
2
 10
0.0
 20
0.0
 11
12.0
 21
9.0
 12
0.0
 22
0.0
 32
0.0
 14
0.0
 24
0.0
 34
0.0
 15
0.0
 25
0.0
 35
0.0
146
0.0
 13
0.0
 23
0.0
 33
0.0
 16
1.0
 26
0.0
 36
0.0
 17
0.0
 27
1.0
 37
0.0
 76
0
330
23
  0
DICTIONARY
  5
BF
100
AcDbDictionary
281
1
  3
DIMASSOC
350
C2
  3
HIDETEXT
350
C1
  0
DICTIONARYVAR
  5
C1
100
DictionaryVariables
280
0
  1
2
  0
DICTIONARYVAR
  5
C2
100
DictionaryVariables
280
0
  1
1
  0
DICTIONARY
  5
C0
100
AcDbDictionary
281
1
  3
ColorSettings/BackgroundColor
350
C3
  3
ColorSettings/ColorMode
350
C4
  3
Grid/DisplayGrid00
350
C5
  3
Grid/DisplayGrid01
350
C6
  3
Grid/DisplayGrid02
350
C7
  3
Grid/DisplayGrid03
350
C8
  3
Grid/GridSpacingX00
350
C9
  3
Grid/GridSpacingX01
350
CA
  3
Grid/GridSpacingX02
350
CB
  3
Grid/GridSpacingX03
350
CC
  3
Grid/GridSpacingY00
350
CD
  3
Grid/GridSpacingY01
350
CE
  3
Grid/GridSpacingY02
350
CF
  3
Grid/GridSpacingY03
350
D0
  3
Grid/IsometricGrid00
350
D1
  3
Grid/IsometricGrid01
350
D2
  3
Grid/IsometricGrid02
350
D3
  3
Grid/IsometricGrid03
350
D4
  3
Grid/IsometricProjection00
350
D5
  3
Grid/IsometricProjection01
350
D6
  3
Grid/IsometricProjection02
350
D7
  3
Grid/IsometricProjection03
350
D8
  3
Grid/MetaGridSpacingX00
350
D9
  3
Grid/MetaGridSpacingX01
350
DA
  3
Grid/MetaGridSpacingX02
350
DB
  3
Grid/MetaGridSpacingX03
350
DC
  3
Grid/MetaGridSpacingY00
350
DD
  3
Grid/MetaGridSpacingY01
350
DE
  3
Grid/MetaGridSpacingY02
350
DF
  3
Grid/MetaGridSpacingY03
350
E0
  3
MultiPageSettings/Columns
350
E1
  3
MultiPageSettings/GlueMarginsBottom
350
E2
  3
MultiPageSettings/GlueMarginsLeft
350
E3
  3
MultiPageSettings/GlueMarginsRight
350
E4
  3
MultiPageSettings/GlueMarginsTop
350
E5
  3
MultiPageSettings/PrintCropMarks
350
E6
  3
MultiPageSettings/Rows
350
E7
  3
PageSettings/OffsetX
350
E8
  3
PageSettings/OffsetY
350
E9
  3
PageSettings/PageOrientation
350
EA
  3
PageSettings/PaperHeight
350
EB
  3
PageSettings/PaperWidth
350
EC
  3
PageSettings/Scale
350
ED
  3
PageSettings/ShowPaperBorders
350
EE
  3
UnitSettings/PaperUnit
350
EF
  3
ViewportCenter
350
F0
  3
ViewportHeight
350
F1
  3
ViewportWidth
350
F2
  0
XRECORD
  5
C3
330
C0
100
AcDbXrecord
280
1
1000
Blanc
  0
XRECORD
  5
C4
330
C0
100
AcDbXrecord
280
1
1000
FullColor
  0
XRECORD
  5
C5
330
C0
100
AcDbXrecord
280
1
290
1
  0
XRECORD
  5
C6
330
C0
100
AcDbXrecord
280
1
290
1
  0
XRECORD
  5
C7
330
C0
100
AcDbXrecord
280
1
290
1
  0
XRECORD
  5
C8
330
C0
100
AcDbXrecord
280
1
290
1
  0
XRECORD
  5
C9
330
C0
100
AcDbXrecord
280
1
1000
auto
  0
XRECORD
  5
CA
330
C0
100
AcDbXrecord
280
1
1000
auto
  0
XRECORD
  5
CB
330
C0
100
AcDbXrecord
280
1
1000
auto
  0
XRECORD
  5
CC
330
C0
100
AcDbXrecord
280
1
1000
auto
  0
XRECORD
  5
CD
330
C0
100
AcDbXrecord
280
1
1000
auto
  0
XRECORD
  5
CE
330
C0
100
AcDbXrecord
280
1
1000
auto
  0
XRECORD
  5
CF
330
C0
100
AcDbXrecord
280
1
1000
auto
  0
XRECORD
  5
D0
330
C0
100
AcDbXrecord
280
1
1000
auto
  0
XRECORD
  5
D1
330
C0
100
AcDbXrecord
280
1
290
0
  0
XRECORD
  5
D2
330
C0
100
AcDbXrecord
280
1
290
0
  0
XRECORD
  5
D3
330
C0
100
AcDbXrecord
280
1
290
0
  0
XRECORD
  5
D4
330
C0
100
AcDbXrecord
280
1
290
0
  0
XRECORD
  5
D5
330
C0
100
AcDbXrecord
280
1
 90
0
  0
XRECORD
  5
D6
330
C0
100
AcDbXrecord
280
1
 90
0
  0
XRECORD
  5
D7
330
C0
100
AcDbXrecord
280
1
 90
0
  0
XRECORD
  5
D8
330
C0
100
AcDbXrecord
280
1
 90
0
  0
XRECORD
  5
D9
330
C0
100
AcDbXrecord
280
1
1000
auto
  0
XRECORD
  5
DA
330
C0
100
AcDbXrecord
280
1
1000
auto
  0
XRECORD
  5
DB
330
C0
100
AcDbXrecord
280
1
1000
auto
  0
XRECORD
  5
DC
330
C0
100
AcDbXrecord
280
1
1000
auto
  0
XRECORD
  5
DD
330
C0
100
AcDbXrecord
280
1
1000
auto
  0
XRECORD
  5
DE
330
C0
100
AcDbXrecord
280
1
1000
auto
  0
XRECORD
  5
DF
330
C0
100
AcDbXrecord
280
1
1000
auto
  0
XRECORD
  5
E0
330
C0
100
AcDbXrecord
280
1
1000
auto
  0
XRECORD
  5
E1
330
C0
100
AcDbXrecord
280
1
 90
1
  0
XRECORD
  5
E2
330
C0
100
AcDbXrecord
280
1
 40
10.0
  0
XRECORD
  5
E3
330
C0
100
AcDbXrecord
280
1
 40
10.0
  0
XRECORD
  5
E4
330
C0
100
AcDbXrecord
280
1
 40
10.0
  0
XRECORD
  5
E5
330
C0
100
AcDbXrecord
280
1
 40
10.0
  0
XRECORD
  5
E6
330
C0
100
AcDbXrecord
280
1
290
0
  0
XRECORD
  5
E7
330
C0
100
AcDbXrecord
280
1
 90
1
  0
XRECORD
  5
E8
330
C0
100
AcDbXrecord
280
1
 40
0.0
  0
XRECORD
  5
E9
330
C0
100
AcDbXrecord
280
1
 40
0.0
  0
XRECORD
  5
EA
330
C0
100
AcDbXrecord
280
1
1000
Portrait
  0
XRECORD
  5
EB
330
C0
100
AcDbXrecord
280
1
 40
297.0
  0
XRECORD
  5
EC
330
C0
100
AcDbXrecord
280
1
 40
210.0
  0
XRECORD
  5
ED
330
C0
100
AcDbXrecord
280
1
1000
1:1
  0
XRECORD
  5
EE
330
C0
100
AcDbXrecord
280
1
290
1
  0
XRECORD
  5
EF
330
C0
100
AcDbXrecord
280
1
 90
4
  0
XRECORD
  5
F1
330
C0
100
AcDbXrecord
280
1
 40
446.49886174831528
  0
XRECORD
  5
F2
330
C0
100
AcDbXrecord
280
1
 40
1047.343009039258
  0
ENDSEC
  0
EOF
