<?xml version="1.0" encoding="UTF-8" standalone="no"?>
<!-- Created with Inkscape (http://www.inkscape.org/) -->

<svg
   xmlns:dc="http://purl.org/dc/elements/1.1/"
   xmlns:cc="http://creativecommons.org/ns#"
   xmlns:rdf="http://www.w3.org/1999/02/22-rdf-syntax-ns#"
   xmlns:svg="http://www.w3.org/2000/svg"
   xmlns="http://www.w3.org/2000/svg"
   xmlns:sodipodi="http://sodipodi.sourceforge.net/DTD/sodipodi-0.dtd"
   xmlns:inkscape="http://www.inkscape.org/namespaces/inkscape"
   width="1000mm"
   height="600mm"
   id="svg6521"
   version="1.1"
   inkscape:version="0.91 r13725"
   sodipodi:docname="metabot_logo1.svg">
  <defs
     id="defs6523" />
  <sodipodi:namedview
     id="base"
     pagecolor="#ffffff"
     bordercolor="#666666"
     borderopacity="1.0"
     inkscape:pageopacity="0.0"
     inkscape:pageshadow="2"
     inkscape:zoom="0.70000036"
     inkscape:cx="74.481772"
     inkscape:cy="2113.5723"
     inkscape:document-units="px"
     inkscape:current-layer="layer1"
     showgrid="false"
     units="mm"
     inkscape:window-width="1366"
     inkscape:window-height="706"
     inkscape:window-x="-8"
     inkscape:window-y="-8"
     inkscape:window-maximized="1" />
  <metadata
     id="metadata6526">
    <rdf:RDF>
      <cc:Work
         rdf:about="">
        <dc:format>image/svg+xml</dc:format>
        <dc:type
           rdf:resource="http://purl.org/dc/dcmitype/StillImage" />
        <dc:title></dc:title>
      </cc:Work>
    </rdf:RDF>
  </metadata>
  <g
     inkscape:label="Layer 1"
     inkscape:groupmode="layer"
     id="layer1"
     transform="translate(0,1073.6344)">
    <g
       id="g6135"
       transform="matrix(1.3961624,0,0,-1.4641159,276.9666,-1029.7402)"
       style="fill:#000000;fill-opacity:1;stroke:none;stroke-width:0.20353416;stroke-miterlimit:4;stroke-dasharray:none;stroke-opacity:1">
      <path
         inkscape:connector-curvature="0"
         d="m 0,0 -21.547,0 0,0.88 4.5,4.5 L 0,5.38 0,0 Z m 10.774,16.16 -32.321,0 -10.773,-10.78 0,-32.32 10.773,0 0,16.16 21.547,0 0,-16.16 10.773,0 10e-4,43.1"
         style="fill:#000000;fill-opacity:1;fill-rule:nonzero;stroke:none;stroke-width:0.20353416;stroke-miterlimit:4;stroke-dasharray:none;stroke-opacity:1"
         id="path6137" />
    </g>
    <g
       id="g6139"
       transform="matrix(1.3961624,0,0,-1.4641159,27.845436,-1053.4003)"
       style="fill:#000000;fill-opacity:1;stroke:none;stroke-width:0.20353416;stroke-miterlimit:4;stroke-dasharray:none;stroke-opacity:1">
      <path
         inkscape:connector-curvature="0"
         d="M 0,0 -0.001,0 0,-43.1 l 10.773,0 0,32.32 5.387,0 0,-32.32 10.773,0 0,32.32 5.387,0 0,-32.32 10.773,0 0,43.1 L 0,0"
         style="fill:#000000;fill-opacity:1;fill-rule:nonzero;stroke:none;stroke-width:0.20353416;stroke-miterlimit:4;stroke-dasharray:none;stroke-opacity:1"
         id="path6141" />
    </g>
    <g
       id="g6143"
       transform="matrix(1.3961624,0,0,-1.4641159,95.529154,-990.29105)"
       style="fill:#000000;fill-opacity:1;stroke:none;stroke-width:0.20353416;stroke-miterlimit:4;stroke-dasharray:none;stroke-opacity:1">
      <path
         inkscape:connector-curvature="0"
         d="m 0,0 43.094,0 0,10.78 -32.32,0 0,5.38 32.32,0 0,10.78 -32.32,0 0,5.38 32.32,0 0,10.78 -43.093,0 L 0,0"
         style="fill:#000000;fill-opacity:1;fill-rule:nonzero;stroke:none;stroke-width:0.20353416;stroke-miterlimit:4;stroke-dasharray:none;stroke-opacity:1"
         id="path6145" />
    </g>
    <g
       id="g6147"
       transform="matrix(1.3961624,0,0,-1.4641159,164.15556,-1053.4003)"
       style="fill:#000000;fill-opacity:1;stroke:none;stroke-width:0.20353416;stroke-miterlimit:4;stroke-dasharray:none;stroke-opacity:1">
      <path
         inkscape:connector-curvature="0"
         d="m 0,0 0,-10.78 -0.001,0 16.161,0 0,-32.32 10.773,0 0,32.32 16.16,0 0,10.78 L 0,0"
         style="fill:#000000;fill-opacity:1;fill-rule:nonzero;stroke:none;stroke-width:0.20353416;stroke-miterlimit:4;stroke-dasharray:none;stroke-opacity:1"
         id="path6149" />
    </g>
    <g
       id="g6151"
       transform="matrix(1.3961624,0,0,-1.4641159,447.05271,-1053.3886)"
       style="fill:#000000;fill-opacity:1;stroke:none;stroke-width:0.20353416;stroke-miterlimit:4;stroke-dasharray:none;stroke-opacity:1">
      <path
         inkscape:connector-curvature="0"
         d="m 0,0 -10.839,-10.84 16.258,0 0,-32.51 10.84,0 0,32.51 16.258,0 0,10.84 L 0,0"
         style="fill:#000000;fill-opacity:1;fill-rule:nonzero;stroke:none;stroke-width:0.20353416;stroke-miterlimit:4;stroke-dasharray:none;stroke-opacity:1"
         id="path6153" />
    </g>
    <g
       id="g6155"
       transform="matrix(1.3961624,0,0,-1.4641159,411.02502,-1011.7257)"
       style="fill:#000000;fill-opacity:1;stroke:none;stroke-width:0.20353416;stroke-miterlimit:4;stroke-dasharray:none;stroke-opacity:1">
      <path
         inkscape:connector-curvature="0"
         d="m 0,0 -4.064,-4.06 -17.614,0 0,16.93 4.742,4.75 L 0,17.62 0,0 Z m -21.678,28.46 -10.838,-10.84 0,0 0,-32.52 32.517,0 10.839,10.84 0,32.52 -32.517,0"
         style="fill:#000000;fill-opacity:1;fill-rule:nonzero;stroke:none;stroke-width:0.20353416;stroke-miterlimit:4;stroke-dasharray:none;stroke-opacity:1"
         id="path6157" />
    </g>
    <g
       id="g6159"
       transform="matrix(1.3961624,0,0,-1.4641159,344.54423,-1029.5879)"
       style="fill:#000000;fill-opacity:1;stroke:none;stroke-width:0.20353416;stroke-miterlimit:4;stroke-dasharray:none;stroke-opacity:1">
      <path
         inkscape:connector-curvature="0"
         d="m 0,0 -21.677,0 0,0.67 4.741,4.75 L 0,5.42 0,0 Z m 0.001,-12.2 -4.064,-4.06 -17.614,0 0,5.42 21.678,0 0,-1.36 z m 5.419,6.78 5.419,5.42 0,16.26 -32.517,0 -10.838,-10.84 0,-32.52 32.517,0 10.838,10.84 0,5.42 -5.419,5.42"
         style="fill:#000000;fill-opacity:1;fill-rule:nonzero;stroke:none;stroke-width:0.20353416;stroke-miterlimit:4;stroke-dasharray:none;stroke-opacity:1"
         id="path6161" />
    </g>
    <g
       style="fill:#0000ff;fill-opacity:1;stroke:none;stroke-width:0.20353416;stroke-miterlimit:4;stroke-dasharray:none;stroke-opacity:1"
       id="g6163"
       transform="matrix(1.3961624,0,0,-1.4641159,276.9666,-1029.7402)">
      <path
         inkscape:connector-curvature="0"
         d="m 0,0 -21.547,0 0,0.88 4.5,4.5 L 0,5.38 0,0 Z m 10.774,16.16 -32.321,0 -10.773,-10.78 0,-32.32 10.773,0 0,16.16 21.547,0 0,-16.16 10.773,0 10e-4,43.1"
         style="fill:#0000ff;fill-opacity:1;stroke:none;stroke-width:0.20353416;stroke-miterlimit:4;stroke-dasharray:none;stroke-opacity:1"
         id="path6165" />
    </g>
    <g
       style="fill:#000000;fill-opacity:1;stroke:none;stroke-width:0.20353416;stroke-miterlimit:4;stroke-dasharray:none;stroke-opacity:1"
       id="g6167"
       transform="matrix(1.3961624,0,0,-1.4641159,27.845436,-1053.4003)">
      <path
         inkscape:connector-curvature="0"
         d="M 0,0 -0.001,0 0,-43.1 l 10.773,0 0,32.32 5.387,0 0,-32.32 10.773,0 0,32.32 5.387,0 0,-32.32 10.773,0 0,43.1 L 0,0"
         style="fill:#000000;fill-opacity:1;stroke:none;stroke-width:0.20353416;stroke-miterlimit:4;stroke-dasharray:none;stroke-opacity:1"
         id="path6169" />
    </g>
    <g
       style="fill:#000000;fill-opacity:1;stroke:none;stroke-width:0.20353416;stroke-miterlimit:4;stroke-dasharray:none;stroke-opacity:1"
       id="g6171"
       transform="matrix(1.3961624,0,0,-1.4641159,95.529154,-990.29105)">
      <path
         inkscape:connector-curvature="0"
         d="m 0,0 43.094,0 0,10.78 -32.32,0 0,5.38 32.32,0 0,10.78 -32.32,0 0,5.38 32.32,0 0,10.78 -43.093,0 L 0,0"
         style="fill:#000000;fill-opacity:1;stroke:none;stroke-width:0.20353416;stroke-miterlimit:4;stroke-dasharray:none;stroke-opacity:1"
         id="path6173" />
    </g>
    <g
       style="fill:#0000ff;fill-opacity:1;stroke:none;stroke-width:0.20353416;stroke-miterlimit:4;stroke-dasharray:none;stroke-opacity:1"
       id="g6175"
       transform="matrix(1.3961624,0,0,-1.4641159,164.15556,-1053.4003)">
      <path
         inkscape:connector-curvature="0"
         d="m 0,0 0,-10.78 -0.001,0 16.161,0 0,-32.32 10.773,0 0,32.32 16.16,0 0,10.78 L 0,0"
         style="fill:#0000ff;fill-opacity:1;stroke:none;stroke-width:0.20353416;stroke-miterlimit:4;stroke-dasharray:none;stroke-opacity:1"
         id="path6177" />
    </g>
    <g
       style="fill:#000000;fill-opacity:1;stroke:none;stroke-width:0.20353416;stroke-miterlimit:4;stroke-dasharray:none;stroke-opacity:1"
       id="g6179"
       transform="matrix(1.3961624,0,0,-1.4641159,447.05271,-1053.3886)">
      <path
         inkscape:connector-curvature="0"
         d="m 0,0 -10.839,-10.84 16.258,0 0,-32.51 10.84,0 0,32.51 16.258,0 0,10.84 L 0,0"
         style="fill:#00ff00;fill-opacity:1;stroke:none;stroke-width:0.20353416;stroke-miterlimit:4;stroke-dasharray:none;stroke-opacity:1"
         id="path6181" />
    </g>
    <g
       style="fill:#00ff00;fill-opacity:1;stroke:none;stroke-width:0.20353416;stroke-miterlimit:4;stroke-dasharray:none;stroke-opacity:1"
       id="g6183"
       transform="matrix(1.3961624,0,0,-1.4641159,411.02502,-1011.7257)">
      <path
         inkscape:connector-curvature="0"
         d="m 0,0 -4.064,-4.06 -17.614,0 0,16.93 4.742,4.75 L 0,17.62 0,0 Z m -21.678,28.46 -10.838,-10.84 0,0 0,-32.52 32.517,0 10.839,10.84 0,32.52 -32.517,0"
         style="fill:#00ff00;fill-opacity:1;stroke:none;stroke-width:0.20353416;stroke-miterlimit:4;stroke-dasharray:none;stroke-opacity:1"
         id="path6185" />
    </g>
    <g
       style="fill:#00ff00;fill-opacity:1;stroke:none;stroke-width:0.20353416;stroke-miterlimit:4;stroke-dasharray:none;stroke-opacity:1"
       id="g6187"
       transform="matrix(1.3961624,0,0,-1.4641159,344.54423,-1029.5879)">
      <path
         inkscape:connector-curvature="0"
         d="m 0,0 -21.677,0 0,0.67 4.741,4.75 L 0,5.42 0,0 Z m 0.001,-12.2 -4.064,-4.06 -17.614,0 0,5.42 21.678,0 0,-1.36 z m 5.419,6.78 5.419,5.42 0,16.26 -32.517,0 -10.838,-10.84 0,-32.52 32.517,0 10.838,10.84 0,5.42 -5.419,5.42"
         style="fill:#00ff00;fill-opacity:1;stroke:none;stroke-width:0.20353416;stroke-miterlimit:4;stroke-dasharray:none;stroke-opacity:1"
         id="path6189" />
    </g>
    <text
       transform="scale(0.97651796,1.0240467)"
       style="font-size:17.15669823px;fill:#0000ff;fill-opacity:1;stroke:none;stroke-width:0.29100001;stroke-miterlimit:4;stroke-dasharray:none;stroke-opacity:1;"
       y="-927.92102"
       x="29.218452"
       id="text6191">
      <tspan
         style="font-variant:normal;font-weight:normal;font-stretch:normal;font-size:40.98206329px;font-family:'Gochi Hand';-inkscape-font-specification:GochiHand-Regular;writing-mode:lr-tb;fill:#0000ff;fill-opacity:1;stroke:none;stroke-width:0.29100001;stroke-miterlimit:4;stroke-dasharray:none;stroke-opacity:1;"
         x="29.218452 58.889446 91.757095 120.89528 153.76294 177.73747 204.94954 240.76787 258.7999 293.75763 329.57593 361.95175 392.3605 416.33496 434.36713 467.23468"
         y="-927.92102"
         sodipodi:role="line"
         id="tspan6193">ROBOTS IN ACTION</tspan>
    </text>
  </g>
</svg>
