<?xml version="1.0" encoding="UTF-8" standalone="no"?>
<!-- 2017-02-23 15:56:08 Generated by QCAD SVG Exporter -->

<svg
   xmlns:dc="http://purl.org/dc/elements/1.1/"
   xmlns:cc="http://creativecommons.org/ns#"
   xmlns:rdf="http://www.w3.org/1999/02/22-rdf-syntax-ns#"
   xmlns:svg="http://www.w3.org/2000/svg"
   xmlns="http://www.w3.org/2000/svg"
   xmlns:sodipodi="http://sodipodi.sourceforge.net/DTD/sodipodi-0.dtd"
   xmlns:inkscape="http://www.inkscape.org/namespaces/inkscape"
   width="1000mm"
   height="600mm"
   viewBox="-199.8 -175 1000 600.00001"
   version="1.1"
   style="fill:none;stroke-linecap:round;stroke-linejoin:round"
   id="svg2"
   inkscape:version="0.91 r13725"
   sodipodi:docname="eq.svg">
  <metadata
     id="metadata14">
    <rdf:RDF>
      <cc:Work
         rdf:about="">
        <dc:format>image/svg+xml</dc:format>
        <dc:type
           rdf:resource="http://purl.org/dc/dcmitype/StillImage" />
        <dc:title></dc:title>
      </cc:Work>
    </rdf:RDF>
  </metadata>
  <defs
     id="defs12" />
  <sodipodi:namedview
     pagecolor="#ffffff"
     bordercolor="#666666"
     borderopacity="1"
     objecttolerance="10"
     gridtolerance="10"
     guidetolerance="10"
     inkscape:pageopacity="0"
     inkscape:pageshadow="2"
     inkscape:window-width="1366"
     inkscape:window-height="706"
     id="namedview10"
     showgrid="false"
     inkscape:document-units="mm"
     inkscape:zoom="0.17858032"
     inkscape:cx="1332.2207"
     inkscape:cy="346.36985"
     inkscape:window-x="-8"
     inkscape:window-y="-8"
     inkscape:window-maximized="1"
     inkscape:current-layer="svg2" />
  <g
     transform="matrix(1,0,0,-1,0,355.10001)"
     id="g4"
     style="stroke:#ff0000;stroke-opacity:1;stroke-width:0.99991341;stroke-miterlimit:4;stroke-dasharray:none">
    <!-- Polyligne -->
    <path
       d="m -34.9,-49.9 c 0,-11.045695 8.954305,-20 20,-20 l 15.1,0 0,70 9.8,0 0,-70 15.1,0 c 11.045695,0 20,8.954305 20,20 l 0,204.9 c 0,11.04569 -8.954305,20 -20,20 l -204.9,0 c -11.04569,0 -20,-8.95431 -20,-20 l 0,-15.1 70,0 0,-9.8 -70,0 0,-15.1 c 0,-11.04569 8.95431,-20 20,-20 l 124.9,0 c 11.045695,0 20,-8.954305 20,-20 z"
       style="stroke:#ff0000;stroke-width:0.99991341;stroke-opacity:1;stroke-miterlimit:4;stroke-dasharray:none"
       id="path6"
       inkscape:connector-curvature="0" />
    <!-- Polyligne -->
    <path
       d="m -59.8,130.1 0,9.8 69.8,0 0,-69.8 -9.8,0 0,60 z"
       style="stroke:#ff0000;stroke-width:0.99991341;stroke-opacity:1;stroke-miterlimit:4;stroke-dasharray:none"
       id="path8"
       inkscape:connector-curvature="0" />
  </g>
</svg>
