<?xml version="1.0" encoding="UTF-8" standalone="no"?>
<!-- 2017-02-23 10:39:13 Generated by QCAD SVG Exporter -->

<svg
   xmlns:dc="http://purl.org/dc/elements/1.1/"
   xmlns:cc="http://creativecommons.org/ns#"
   xmlns:rdf="http://www.w3.org/1999/02/22-rdf-syntax-ns#"
   xmlns:svg="http://www.w3.org/2000/svg"
   xmlns="http://www.w3.org/2000/svg"
   xmlns:sodipodi="http://sodipodi.sourceforge.net/DTD/sodipodi-0.dtd"
   xmlns:inkscape="http://www.inkscape.org/namespaces/inkscape"
   width="1000mm"
   height="600mm"
   viewBox="-144.76228 -552.51621 1000 599.99998"
   version="1.1"
   style="fill:none;stroke-linecap:round;stroke-linejoin:round"
   id="svg2"
   inkscape:version="0.91 r13725"
   sodipodi:docname="sol.svg">
  <metadata
     id="metadata12">
    <rdf:RDF>
      <cc:Work
         rdf:about="">
        <dc:format>image/svg+xml</dc:format>
        <dc:type
           rdf:resource="http://purl.org/dc/dcmitype/StillImage" />
        <dc:title></dc:title>
      </cc:Work>
    </rdf:RDF>
  </metadata>
  <defs
     id="defs10" />
  <sodipodi:namedview
     pagecolor="#ffffff"
     bordercolor="#666666"
     borderopacity="1"
     objecttolerance="10"
     gridtolerance="10"
     guidetolerance="10"
     inkscape:pageopacity="0"
     inkscape:pageshadow="2"
     inkscape:window-width="1366"
     inkscape:window-height="706"
     id="namedview8"
     showgrid="false"
     inkscape:document-units="mm"
     inkscape:zoom="0.10462544"
     inkscape:cx="-319.28287"
     inkscape:cy="767.49948"
     inkscape:window-x="-8"
     inkscape:window-y="-8"
     inkscape:window-maximized="1"
     inkscape:current-layer="svg2" />
  <g
     transform="matrix(1,0,0,-1,0,8.8467408)"
     id="g4"
     style="stroke:#ff0000;stroke-opacity:1;stroke-width:0.99991341;stroke-miterlimit:4;stroke-dasharray:none">
    <!-- Polyligne -->
    <path
       d="M 35,10 35,0 0,0 l 10.352762,-38.637033 0.965926,0.258819 0.08136,-0.06863 c 31.569303,8.452462 61.309409,21.134686 88.639242,37.4067771 L 100,0 65,0 l 0,10 17.5,0 0,5 0,0 c 0,187.63979 -50.186545,363.55789 -137.836502,515.00758 l -2.625925,4.20533 -15.155444,-8.75 -5,8.66026 30.310889,17.5 -0.5,0.86602 0.02276,2.8e-4 c -1.47407,0.0179 -2.928217,0.0267 -4.384428,0.0267 -31.576224,0 -62.18162,-4.15664 -91.20907,-11.92856 l -0.88456,-0.32745 10.35276,-38.63703 30.31089,17.5 4.999998,-8.66026 -15.155448,-8.75 2.5,-4.33012 0.11798,0.11692 C -29.507138,355.56912 17.5,190.77411 17.5,15 l 0,-5 z"
       style="stroke:#ff0000;stroke-width:0.99991341;stroke-opacity:1;stroke-miterlimit:4;stroke-dasharray:none"
       id="path6"
       inkscape:connector-curvature="0" />
  </g>
</svg>
