<?xml version="1.0" encoding="UTF-8" standalone="no"?>
<!-- Created with Inkscape (http://www.inkscape.org/) -->

<svg
   xmlns:dc="http://purl.org/dc/elements/1.1/"
   xmlns:cc="http://creativecommons.org/ns#"
   xmlns:rdf="http://www.w3.org/1999/02/22-rdf-syntax-ns#"
   xmlns:svg="http://www.w3.org/2000/svg"
   xmlns="http://www.w3.org/2000/svg"
   xmlns:sodipodi="http://sodipodi.sourceforge.net/DTD/sodipodi-0.dtd"
   xmlns:inkscape="http://www.inkscape.org/namespaces/inkscape"
   id="svg3355"
   version="1.1"
   inkscape:version="0.91 r13725"
   xml:space="preserve"
   width="1000mm"
   height="600mm"
   viewBox="0 0 3543.3072 2125.9842"
   sodipodi:docname="FFROB_trophy.svg"><metadata
     id="metadata3361"><rdf:RDF><cc:Work
         rdf:about=""><dc:format>image/svg+xml</dc:format><dc:type
           rdf:resource="http://purl.org/dc/dcmitype/StillImage" /><dc:title /></cc:Work></rdf:RDF></metadata><defs
     id="defs3359" /><sodipodi:namedview
     pagecolor="#ffffff"
     bordercolor="#666666"
     borderopacity="1"
     objecttolerance="10"
     gridtolerance="10"
     guidetolerance="10"
     inkscape:pageopacity="0"
     inkscape:pageshadow="2"
     inkscape:window-width="1366"
     inkscape:window-height="706"
     id="namedview3357"
     showgrid="false"
     inkscape:zoom="0.70986892"
     inkscape:cx="775.24119"
     inkscape:cy="536.72873"
     inkscape:window-x="-8"
     inkscape:window-y="-8"
     inkscape:window-maximized="1"
     inkscape:current-layer="g3365"
     inkscape:document-units="mm"
     units="mm" /><g
     id="g3363"
     inkscape:groupmode="layer"
     inkscape:label="ink_ext_XXXXXX"
     transform="matrix(1.25,0,0,-1.25,0,2125.9842)"><g
       id="g3365"
       transform="scale(0.1,0.1)"><flowRoot
         xml:space="preserve"
         id="flowRoot4353"
         style="fill:black;stroke:none;stroke-opacity:1;stroke-width:1px;stroke-linejoin:miter;stroke-linecap:butt;fill-opacity:1;font-family:sans-serif;font-style:normal;font-weight:normal;font-size:40px;line-height:125%;letter-spacing:0px;word-spacing:0px"><flowRegion
           id="flowRegion4355"><rect
             id="rect4357"
             width="270"
             height="213"
             x="731"
             y="1666.9843" /></flowRegion><flowPara
           id="flowPara4359" /></flowRoot><g
         id="g4388"><path
           inkscape:connector-curvature="0"
           id="path3437"
           style="fill:#000000;fill-opacity:1;fill-rule:nonzero;stroke:none"
           d="m 6252.0617,4003.136 c -72.2174,-69.7677 -145.4845,-124.6147 -220.0401,-164.8432 -423.9348,306.6213 -538.8939,413.9293 -613.0519,479.4657 18.118,25.3397 33.659,52.6518 46.0346,81.666 89.6831,-47.0208 238.1899,-126.7144 787.0574,-396.2885" /><path
           inkscape:connector-curvature="0"
           id="path3439"
           style="fill:#000000;fill-opacity:1;fill-rule:nonzero;stroke:none"
           d="m 6238.6999,4478.7363 c 29.1255,-116.0249 47.7366,-245.1094 62.2596,-384.8197 -467.965,187.256 -697.0085,281.3771 -824.9158,334.3789 13.489,39.1151 21.5538,80.7434 23.24,124.0261 122.4672,-11.7552 330.943,-32.2433 739.4162,-73.5853" /><path
           inkscape:connector-curvature="0"
           id="path3441"
           style="fill:#000000;fill-opacity:1;fill-rule:nonzero;stroke:none"
           d="m 6100.628,4794.6472 c 44.762,-67.4611 81.841,-146.6774 111.3165,-238.0149 -391.596,13.2505 -592.9296,17.4658 -712.3745,19.0088 -0.5568,40.658 -6.6968,79.964 -17.7044,117.1702 106.3535,23.065 281.3294,55.7219 618.7624,101.8359" /><path
           inkscape:connector-curvature="0"
           id="path3443"
           style="fill:#000000;fill-opacity:1;fill-rule:nonzero;stroke:none"
           d="m 5929.0085,4974.8247 c 47.5298,-34.1999 92.4032,-76.1623 132.9021,-126.9053 -322.0669,-57.0898 -488.3417,-96.9525 -590.13,-125.0918 -10.5621,27.9484 -23.9717,54.497 -39.8149,79.3595 86.7403,38.956 224.7644,93.6916 497.0428,172.6376" /><path
           inkscape:connector-curvature="0"
           id="path3445"
           style="fill:#000000;fill-opacity:1;fill-rule:nonzero;stroke:none"
           d="m 5764.2448,5061.39 c 41.9147,-15.1275 83.9248,-34.8361 124.7101,-59.9054 -257.4372,-82.3818 -387.2375,-139.5989 -469.6829,-180.4637 -12.2165,17.1476 -25.6579,33.3727 -40.1968,48.5319 69.7041,44.2371 174.7214,105.1923 385.1696,191.8372" /><path
           inkscape:connector-curvature="0"
           id="path3447"
           style="fill:#000000;fill-opacity:1;fill-rule:nonzero;stroke:none"
           d="m 4632.334,4093.7576 c 17.3671,17.3703 18.1243,45.0006 1.9883,61.9573 l -2.6914,2.8155 c -16.1487,16.9568 -15.1736,44.0303 1.9645,60.2554 16.8629,15.9705 17.628,42.1373 1.9072,58.6487 -15.7398,16.4954 -42.3266,17.4499 -59.6317,1.9247 l -507.5175,-455.4622 269.9082,-61.0506 c 0,0 294.0724,330.8952 294.0724,330.9112" /><path
           inkscape:connector-curvature="0"
           id="path3449"
           style="fill:#000000;fill-opacity:1;fill-rule:nonzero;stroke:none"
           d="m 4551.6192,4476.9388 c 22.9155,8.8283 34.8266,33.7703 26.9352,55.8173 l -1.3171,3.6745 c -7.8978,22.0629 3.9894,46.4004 26.2145,54.2743 21.9229,7.7626 33.2502,31.3684 25.5576,52.8268 -7.7053,21.4743 -31.6086,33.1341 -53.7287,25.976 l -762.1519,-231.6999 217.5268,-181.7363 c 0,0 520.9509,220.8514 520.9636,220.8673" /><path
           inkscape:connector-curvature="0"
           id="path3451"
           style="fill:#000000;fill-opacity:1;fill-rule:nonzero;stroke:none"
           d="m 4830.6913,4736.5394 c 24.3265,-3.4359 46.8824,12.5346 50.7287,35.6473 l 0.6395,3.8177 c 3.8701,23.1127 26.0968,38.5901 49.3479,34.6452 22.9171,-3.9131 44.2848,11.1984 48.0548,33.6908 3.7222,22.4764 -11.4848,44.3325 -34.2842,48.8342 l -869.9704,167.9132 87.8602,-239.8124 667.6235,-84.736" /><path
           inkscape:connector-curvature="0"
           id="path3453"
           style="fill:#454951;fill-opacity:1;fill-rule:nonzero;stroke:none"
           d="m 4925.9593,4859.9928 c -3.0143,-8.9556 1.8134,-18.6747 10.7801,-21.6811 8.9668,-3.0064 18.6525,1.8134 21.6859,10.7849 2.9953,8.9555 -1.8213,18.6587 -10.7817,21.6811 -8.9588,3.0064 -18.6524,-1.8134 -21.6843,-10.7849" /><path
           inkscape:connector-curvature="0"
           id="path3455"
           style="fill:#ffffff;fill-opacity:1;fill-rule:nonzero;stroke:none"
           d="m 4925.9593,4856.6205 c -3.0334,-8.9715 1.8134,-18.6747 10.761,-21.697 8.9859,-3.0064 18.6716,1.8134 21.6923,10.7849 2.9953,8.9556 -1.8214,18.6747 -10.769,21.6811 -8.9778,3.0064 -18.6715,-1.8134 -21.6843,-10.769" /><path
           inkscape:connector-curvature="0"
           id="path3457"
           style="fill:#ffffff;fill-opacity:1;fill-rule:nonzero;stroke:none"
           d="m 4575.5289,4634.7352 c -2.5976,-9.0987 2.6835,-18.5633 11.787,-21.1403 9.1035,-2.5769 18.5665,2.7042 21.145,11.803 2.5785,9.0987 -2.7026,18.5633 -11.7934,21.1402 -9.1226,2.5769 -18.5601,-2.7041 -21.1386,-11.8029" /><path
           inkscape:connector-curvature="0"
           id="path3459"
           style="fill:#ffffff;fill-opacity:1;fill-rule:nonzero;stroke:none"
           d="m 4590.7645,4256.8828 c -2.5785,-9.0988 2.7026,-18.5634 11.8061,-21.1403 9.1019,-2.5769 18.5665,2.7042 21.145,11.8029 2.5785,9.0988 -2.7026,18.5634 -11.8061,21.1403 -9.1099,2.5769 -18.5665,-2.7042 -21.145,-11.8029" /><path
           inkscape:connector-curvature="0"
           id="path3461"
           style="fill:#000000;fill-opacity:1;fill-rule:nonzero;stroke:none"
           d="m 5594.3115,3057.8209 -52.3655,-29.6648 c 0,0 55.4355,-102.3132 79.9162,-155.0604 14.2844,6.3627 13.5368,26.6249 10.4668,41.948 -10.2282,50.9769 -38.0175,142.7772 -38.0175,142.7772" /><path
           inkscape:connector-curvature="0"
           id="path3463"
           style="fill:#ffffff;fill-opacity:1;fill-rule:nonzero;stroke:none"
           d="m 4900.4399,3328.4608 c -0.517,-3.9767 2.2604,-7.6194 6.2371,-8.1443 2.5356,-0.3022 4.2567,0.5885 5.3511,1.4316 1.1182,0.8431 2.4783,2.3383 2.7964,4.788 0.5281,3.9767 -2.2683,7.6353 -6.2323,8.1602 -0.3293,0.048 -0.6411,0.064 -0.964,0.064 -3.5727,0 -6.6984,-2.6564 -7.1883,-6.2991 z m -2.1633,-71.2152 c -38.7413,5.138 -66.0502,40.8489 -60.9123,79.6141 l 0,0.016 c 5.1761,38.7174 40.8234,65.9977 79.6347,60.8916 38.7221,-5.1539 66.0263,-40.8808 60.8884,-79.6459 -2.4974,-18.7701 -12.1688,-35.4246 -27.1992,-46.9253 -12.5076,-9.576 -27.4442,-14.5866 -42.8739,-14.5866 -3.1877,0 -6.3564,0.2068 -9.5377,0.6362 z m -36.5859,130.3252 c -16.0437,-12.2642 -26.3386,-30.0322 -29.011,-50.059 l 0,-0.016 c -5.5181,-41.342 23.6233,-79.439 64.9447,-84.9587 20.0888,-2.6246 39.8913,2.6246 55.9541,14.9048 16.0373,12.2642 26.3291,30.0481 29.0014,50.0749 2.6724,20.0268 -2.6087,39.8786 -14.8888,55.9286 -12.2611,16.0342 -30.0386,26.3418 -50.0781,29.0142 -3.385,0.4454 -6.7843,0.684 -10.1407,0.684 -16.497,0 -32.4659,-5.3765 -45.7816,-15.5729 z m 27.546,-198.1029 c -76.0986,10.1471 -129.7716,80.3283 -119.6262,156.4269 0,0 0,0 0,0.016 4.9216,36.8563 23.8857,69.6086 53.4503,92.1964 29.5152,22.6037 66.0391,32.3387 102.9717,27.4234 76.1129,-10.1486 129.7669,-80.3298 119.6342,-156.3966 -4.9312,-36.904 -23.8763,-69.6245 -53.4631,-92.2441 -24.5284,-18.7701 -53.9117,-28.6642 -84.2954,-28.6642 -6.2021,0 -12.4392,0.3977 -18.6715,1.2423" /><path
           inkscape:connector-curvature="0"
           id="path3465"
           style="fill:#000000;fill-opacity:1;fill-rule:nonzero;stroke:none"
           d="m 5276.1576,3055.7816 c 21.5698,-0.6824 38.4788,-18.7208 37.7948,-40.2699 -0.684,-21.5729 -18.7224,-38.4995 -40.2763,-37.8155 -21.5697,0.6824 -38.4787,18.74 -37.7947,40.2954 0.684,21.5666 18.7224,38.4804 40.2762,37.79 z m -4.6766,-146.4166 c 59.3168,-1.877 108.9304,44.6634 110.8233,103.9468 1.8771,59.3025 -44.6665,108.9193 -103.9515,110.8074 -59.3168,1.8961 -108.9305,-44.6506 -110.8234,-103.9468 -1.877,-59.3041 44.6666,-108.9193 103.9516,-110.8074" /><path
           inkscape:connector-curvature="0"
           id="path3467"
           style="fill:#000000;fill-opacity:1;fill-rule:nonzero;stroke:none"
           d="m 4914.4825,4771.789 c 2.0122,-0.2386 4.0388,-0.3976 6.0399,-0.509 36.3918,-1.7338 68.8975,18.802 84.1363,49.9795 l 299.8927,-589.2074 c -14.173,1.7975 -28.521,3.0382 -43.1872,3.0382 -34.9315,0 -68.5905,-5.297 -100.293,-15.0797 -83.3203,121.4651 -314.193,458.1982 -314.193,458.1982 -3.8717,6.5695 -6.0033,13.6481 -6.7604,20.7744 37.1998,6.665 67.4182,35.0111 74.3647,72.8058" /><path
           inkscape:connector-curvature="0"
           id="path3469"
           style="fill:#000000;fill-opacity:1;fill-rule:nonzero;stroke:none"
           d="m 4599.526,4547.47 c 20.5978,8.542 37.0138,24.0989 46.6024,44.2371 6.63,13.9662 9.0399,29.0619 8.0028,44.0621 l 476.6056,-426.7821 c -41.5329,-17.3067 -78.8823,-42.5668 -110.1394,-73.9511 -71.8467,47.9115 -451.0209,300.7994 -451.0209,300.7994 -2.4433,1.9406 -4.5796,4.1199 -6.587,6.3786 33.8212,22.8583 49.876,66.0455 36.5365,105.256" /><path
           inkscape:connector-curvature="0"
           id="path3471"
           style="fill:#000000;fill-opacity:1;fill-rule:nonzero;stroke:none"
           d="m 4649.7504,4077.4212 c 25.7867,26.3736 26.6568,68.7178 1.8262,94.7574 l -2.7154,2.8314 c -3.2736,3.4518 -5.0329,8.0648 -4.8961,12.98 0.1432,5.1379 2.2747,9.9259 6.0271,13.4572 12.8623,12.2006 20.2002,28.5688 20.6488,46.1141 0.167,7.1104 -1.069,13.9981 -3.0955,20.6154 l 326.4874,-163.5865 c -20.0586,-25.5624 -36.4777,-54.0199 -48.6067,-84.7202 l -17.0442,-24.942 -284.8957,61.512 c -3.0557,1.1453 -5.903,2.6246 -8.6056,4.263 l 14.8697,16.7182" /><path
           inkscape:connector-curvature="0"
           id="path3473"
           style="fill:#000000;fill-opacity:1;fill-rule:nonzero;stroke:none"
           d="m 4926.4874,3839.7244 c 21.5793,-130.8979 117.7318,-236.4083 243.5871,-271.483 l -217.9992,-279.9614 -107.4845,46.8935 81.8966,504.5509" /><path
           inkscape:connector-curvature="0"
           id="path3475"
           style="fill:#000000;fill-opacity:1;fill-rule:nonzero;stroke:none"
           d="m 5332.1499,4227.5982 c 26.1509,20.3767 50.059,43.4894 70.9607,69.2427 69.7676,-69.2427 174.8486,-180.6546 566.9059,-488.6281 -62.3869,-26.8826 -124.4556,-43.5053 -185.1881,-51.6337 -71.6606,69.8312 -133.2521,129.2276 -186.4766,180.4796 -17.7362,144.4187 -125.8553,260.7936 -266.2019,290.5395" /><path
           inkscape:connector-curvature="0"
           id="path3477"
           style="fill:#000000;fill-opacity:1;fill-rule:nonzero;stroke:none"
           d="m 5601.0878,3893.4738 c 38.2402,-42.0101 82.3182,-88.9354 133.6338,-141.7941 -49.9794,-3.0223 -98.4636,-0.5249 -144.6573,6.2037 -4.1676,5.0425 -8.0011,9.8146 -12.0574,14.7457 14.5707,37.5721 22.8423,78.2142 23.0809,120.8447" /><path
           inkscape:connector-curvature="0"
           id="path3479"
           style="fill:#000000;fill-opacity:1;fill-rule:nonzero;stroke:none"
           d="m 4958.8914,3895.2872 c 0,-167.0542 135.4186,-302.4697 302.4728,-302.4697 167.0542,0 302.4697,135.4155 302.4697,302.4697 0,167.0542 -135.4155,302.4696 -302.4697,302.4696 -167.0542,0 -302.4728,-135.4154 -302.4728,-302.4696" /><path
           inkscape:connector-curvature="0"
           id="path3481"
           style="fill:#ffffff;fill-opacity:1;fill-rule:nonzero;stroke:none"
           d="m 5161.7393,3895.2872 c 0,-55.0379 44.587,-99.6567 99.6249,-99.6567 55.0379,0 99.6408,44.6188 99.6408,99.6567 0,55.022 -44.6029,99.6408 -99.6408,99.6408 -55.0379,0 -99.6249,-44.6188 -99.6249,-99.6408" /><path
           inkscape:connector-curvature="0"
           id="path3483"
           style="fill:#000000;fill-opacity:1;fill-rule:nonzero;stroke:none"
           d="m 5518.4992,3150.7824 c 15.9228,6.5059 34.1044,-1.1612 40.5944,-17.0872 6.49,-15.9387 -1.1612,-34.1187 -17.0999,-40.6056 -15.9228,-6.4932 -34.1044,1.174 -40.5944,17.1 -6.49,15.9371 1.1612,34.1187 17.0999,40.5928 z m -152.229,-42.6814 36.9994,-90.8427 113.6707,22.4303 c 62.3392,15.9514 96.2049,63.2617 77.7529,108.5153 -18.4202,45.2233 -75.6691,55.4196 -131.4387,23.2892 l -96.9843,-63.3921" /><path
           inkscape:connector-curvature="0"
           id="path3485"
           style="fill:#000000;fill-opacity:1;fill-rule:nonzero;stroke:none"
           d="m 4967.6911,2997.0565 46.2572,-38.4931 -78.93,-91.4026 c 0,0 -12.5696,18.2007 -2.8775,43.1538 18.8719,48.4238 35.5503,86.7419 35.5503,86.7419" /><path
           inkscape:connector-curvature="0"
           id="path3487"
           style="fill:#000000;fill-opacity:1;fill-rule:nonzero;stroke:none"
           d="m 4999.4412,3030.2065 c 2.7042,16.9695 18.6906,28.5529 35.6951,25.8487 16.9568,-2.7328 28.5529,-18.7081 25.8328,-35.6967 -2.7201,-16.9885 -18.7065,-28.5513 -35.6792,-25.8487 -17.0044,2.7217 -28.5528,18.6906 -25.8487,35.6967 z m 54.7993,-63.5958 91.926,3.0701 12.3119,76.9114 -86.4063,31.5895 c -48.8819,14.8761 -91.3533,-3.323 -97.4933,-41.6299 -6.1242,-38.3023 28.5687,-68.8101 79.6617,-69.9411" /><path
           inkscape:connector-curvature="0"
           id="path3489"
           style="fill:#000000;fill-opacity:1;fill-rule:nonzero;stroke:none"
           d="m 5225.4942,3041.7517 26.2145,31.1187 -523.3559,440.699 -38.9592,-46.1777 536.1006,-425.64" /><path
           inkscape:connector-curvature="0"
           id="path3491"
           style="fill:#000000;fill-opacity:1;fill-rule:nonzero;stroke:none"
           d="m 4670.528,3446.0764 75.658,89.6672 -123.1226,103.8402 -75.6388,-89.6672 123.1034,-103.8402" /><path
           id="path4470"
           d="m 5822.858,5880.6412 0.072,-0.9536 3.6194,-46.1128 c 1.861,-23.7328 32.7681,-31.5912 45.7322,-11.612 l 34.2794,52.8112 c 24.0512,-27.6624 45.4301,-57.504 63.9934,-89.1104 l -37.4766,-115.2296 c 0,0 -508.1618,-189.372 -563.0724,-212.4208 0,0 -333.7108,-146.6616 -441.1172,81.7456 l -61.5152,-13.1072 c 1.3234,18.452 3.3865,36.9832 6.4502,55.5784 2.9634,17.9272 6.8352,35.4568 11.297,52.6992 l 111.6936,56.8672 c 21.2197,10.8008 16.6226,42.36 -6.7764,46.7032 l -62.0306,11.4688 c 16.4654,33.1024 35.9274,64.216 57.879,93.2144 l 125.044,9.7984 c 15.0864,1.1816 23.756,14.0688 22.9689,26.64 -0.024,0.344 -0.048,0.68 -0.086,1.0224"
           style="fill:#000000;fill-opacity:1;fill-rule:nonzero;stroke:none"
           inkscape:connector-curvature="0" /><path
           id="path3493"
           d="m 5133.8164,5880.6436 c -0.128,1.2328 -0.348,2.4592 -0.6632,3.668 -1.4426,5.5344 -4.8759,10.7 -10.5768,14.4024 l -52.8268,34.2792 c 27.6621,24.0352 57.5194,45.4456 89.0786,64.0248 l 119.2541,-38.7968 c 22.6355,-7.3648 41.7237,18.1816 28.2347,37.8112 l -35.6951,51.888 c 34.4225,11.564 70.0699,20.1224 106.624,25.1968 l 95.5051,-81.6344 c 18.102,-15.4616 45.5254,0.8432 40.5624,24.1464 l -13.0912,61.512 c 18.436,-1.304 36.9676,-3.388 55.5786,-6.4584 17.9111,-2.9584 35.4724,-6.824 52.6995,-11.2776 l 56.8513,-111.6824 c 10.8167,-21.22 42.3759,-16.6544 46.7026,6.76 l 11.4848,62.0376 c 33.0863,-16.464 64.2002,-35.9496 93.1985,-57.9016 l 5.8345,-74.3344 0.2856,-3.6432"
           style="fill:none;fill-opacity:1;fill-rule:nonzero;stroke:#ff0000;stroke-width:8;stroke-opacity:1"
           inkscape:connector-curvature="0" /><path
           inkscape:connector-curvature="0"
           id="path3495"
           style="fill:#000000;fill-opacity:1;fill-rule:nonzero;stroke:none"
           d="m 6252.6979,5649.7384 -360.1321,-108.2623 c 0,0 -54.1312,134.111 45.7641,155.9035 82.0955,17.9111 314.368,-47.6412 314.368,-47.6412" /><path
           inkscape:connector-curvature="0"
           id="path3497"
           style="fill:#000000;fill-opacity:1;fill-rule:nonzero;stroke:none"
           d="m 6164.5101,5591.0897 -285.6242,-59.969 c 0,0 12.8686,-111.4915 89.0468,-89.2536 62.6254,18.2929 196.5774,149.2226 196.5774,149.2226" /><path
           inkscape:connector-curvature="0"
           id="path3499"
           style="fill:#ffffff;fill-opacity:1;fill-rule:nonzero;stroke:none"
           d="m 5704.8644,5300.407 c -2.3383,-13.8549 9.3374,-22.2855 24.1467,-32.9431 2.7678,-1.9884 6.7922,-4.8835 9.5282,-7.0945 0.1114,-3.5154 0.35,-7.0309 0.7158,-10.5304 -2.4178,-2.5769 -6.0923,-6.0764 -8.5738,-8.4465 -13.2027,-12.6142 -23.6217,-22.5719 -19.3587,-35.9974 2.2111,-6.9831 4.8516,-13.5208 8.0807,-19.979 3.2291,-6.4582 6.8559,-12.4869 11.1348,-18.4997 8.1444,-11.5166 22.381,-9.1624 40.3717,-6.2355 3.3564,0.5726 8.2557,1.3361 11.7711,1.7338 2.3225,-2.1792 4.7403,-4.2471 7.19,-6.2514 0.2704,-0.2227 0.4772,-0.4772 0.7317,-0.6999 0.1431,-3.4995 0,-8.6215 -0.08,-12.0574 -0.4135,-18.2612 -0.7476,-32.6887 11.7871,-39.131 6.4582,-3.3564 12.98,-6.1082 19.8359,-8.4147 3.8971,-1.2885 7.8261,-2.4179 11.8188,-3.3723 2.9746,-0.6999 5.981,-1.3203 9.0987,-1.8452 13.8867,-2.3383 22.3174,9.3532 32.9591,24.1467 1.9725,2.7519 4.8834,6.7445 7.0627,9.4964 3.5472,0.1113 7.0945,0.3181 10.6258,0.684 2.561,-2.4179 6.0287,-6.0446 8.3988,-8.5102 9.1783,-9.6078 16.9568,-17.7521 25.6897,-19.82 3.2609,-0.7794 6.649,-0.6999 10.2917,0.4454 7.015,2.2429 13.5527,4.8993 20.0268,8.1284 6.4423,3.2132 12.471,6.84 18.452,11.0871 11.4848,8.1603 9.1783,22.3969 6.2355,40.4035 -0.5249,3.3723 -1.3362,8.3193 -1.7338,11.8507 2.2428,2.386 4.438,4.8198 6.5218,7.3649 0.1272,0.159 0.2863,0.3022 0.4136,0.4613 3.5313,0.1272 8.6056,0 12.0574,-0.08 18.2611,-0.4136 32.7205,-0.7476 39.1787,11.787 3.3404,6.4582 6.0923,12.9642 8.3829,19.8359 2.2906,6.8718 4.0086,13.7118 5.2334,20.9653 2.3542,13.8549 -9.3692,22.2697 -24.1467,32.9273 -2.7996,1.9884 -6.8559,4.9311 -9.6237,7.1422 -0.08,3.1655 -0.2863,6.315 -0.6044,9.4805 -0.032,0.3341 0,0.6681 -0.032,0.9862 2.4019,2.577 6.0923,6.0765 8.5738,8.4625 13.2027,12.6142 23.6535,22.5719 19.3746,36.0132 -2.227,6.9832 -4.8834,13.5209 -8.1125,19.995 -3.2609,6.49 -6.8559,12.5187 -11.103,18.4679 -8.1444,11.453 -22.3333,9.1624 -40.3399,6.2355 -3.3723,-0.5249 -8.2875,-1.3521 -11.787,-1.7338 -2.577,2.4178 -5.2175,4.7243 -7.9376,6.9354 -0.1113,3.5313 0,8.6056 0.064,12.0415 0.4295,18.2611 0.7477,32.6727 -11.7552,39.1787 -6.5218,3.3722 -13.0277,6.1241 -19.8995,8.3988 -6.824,2.2906 -13.6958,3.9767 -20.9016,5.2175 -13.839,2.3542 -22.3015,-9.3533 -32.9591,-24.1626 -1.9884,-2.7519 -4.8835,-6.7922 -7.0945,-9.5441 -3.4518,-0.096 -6.8718,-0.3341 -10.3236,-0.684 -0.048,0 -0.1113,0 -0.175,0 -2.5769,2.4019 -6.0764,6.0605 -8.4465,8.5579 -12.646,13.2345 -22.5878,23.6535 -36.061,19.3587 -6.9195,-2.2111 -13.4572,-4.8516 -19.9472,-8.0807 -6.4741,-3.245 -12.5187,-6.8718 -18.4997,-11.119 -11.4689,-8.1602 -9.1465,-22.3651 -6.2196,-40.3717 0.5567,-3.3722 1.3362,-8.2556 1.7179,-11.7711 -2.4019,-2.561 -4.7243,-5.2015 -6.9354,-7.9375 -3.5313,-0.095 -8.6056,0.016 -12.0415,0.079 -18.2611,0.4295 -32.6887,0.7636 -39.131,-11.7552 -3.4359,-6.6172 -6.1878,-13.1232 -8.4465,-19.8995 -2.2588,-6.84 -3.9927,-13.6799 -5.2016,-20.9017" /><path
           inkscape:connector-curvature="0"
           id="path3501"
           style="fill:#ffffff;fill-opacity:1;fill-rule:nonzero;stroke:none"
           d="m 5477.2526,5592.4418 -0.016,0 c -1.1771,-10.6099 -1.5111,-20.9017 -1.0498,-31.4798 0.4931,-10.6735 1.7497,-20.9176 3.8653,-31.3684 5.7583,-28.5211 32.291,-35.5519 58.0602,-42.2805 2.0997,-0.5409 4.7084,-1.2408 7.3013,-1.9248 -1.1453,-2.5292 -2.3543,-5.0743 -3.2928,-7.0785 -11.3575,-24.0672 -23.0968,-48.9774 -4.8516,-71.7719 6.6968,-8.3353 13.7277,-15.891 21.5539,-23.0173 7.7785,-7.1104 15.9069,-13.4254 24.8306,-19.3746 24.3694,-16.2092 48.0389,-2.3065 70.9925,11.0871 1.8611,1.0976 4.2313,2.4656 6.5378,3.8017 0.9862,-2.6087 1.9247,-5.2492 2.6723,-7.333 7.9376,-22.1106 16.1137,-44.8575 37.8584,-52.111 2.911,-0.9704 6.0447,-1.6544 9.4646,-2.052 10.6258,-1.1612 20.9176,-1.5112 31.4798,-1.034 10.5622,0.4931 20.8062,1.7339 31.3525,3.8654 28.537,5.7583 35.5201,32.3546 42.2805,58.0443 0.5409,2.0997 1.2408,4.7084 1.9407,7.3012 2.5132,-1.1453 5.0743,-2.3383 7.0944,-3.2927 24.099,-11.3416 48.9774,-23.0809 71.756,-4.8198 8.3671,6.6968 15.9069,13.7436 23.0332,21.5379 7.0627,7.7308 13.4095,15.8592 19.3587,24.8307 16.1455,24.2898 2.2906,48.0229 -11.103,71.0084 -1.0657,1.8452 -2.4496,4.1994 -3.7858,6.5218 2.5928,0.9704 5.2492,1.9248 7.349,2.6724 25.0215,9.0192 50.9338,18.3088 54.1311,47.3071 1.1771,10.6576 1.543,20.9494 1.0499,31.5116 -0.4931,10.6099 -1.7498,20.838 -3.8813,31.3366 -5.7424,28.5051 -32.291,35.5201 -58.0125,42.2805 -2.0997,0.5408 -4.7243,1.2407 -7.333,1.9565 1.1453,2.4974 2.3383,5.0584 3.2927,7.0786 11.3575,24.0512 23.1127,48.9614 4.8516,71.756 -6.7286,8.3829 -13.7913,15.9228 -21.5857,23.0332 -7.6671,7.0308 -15.8273,13.3936 -24.7988,19.3587 -24.4171,16.1614 -48.0707,2.2588 -70.9766,-11.103 -1.8929,-1.0817 -4.2312,-2.4656 -6.5536,-3.8018 -0.9863,2.5929 -1.9407,5.2652 -2.6883,7.349 -9.0033,25.0534 -18.3884,50.8862 -47.3071,54.163 -10.6735,1.1612 -20.9812,1.5112 -31.5434,1.018 -10.5781,-0.4772 -20.8062,-1.7338 -31.2888,-3.8494 -28.537,-5.7583 -35.5361,-32.3547 -42.2806,-58.0602 -0.5567,-2.0838 -1.2566,-4.6925 -1.9565,-7.3013 -2.5133,1.1612 -5.0584,2.3383 -7.0786,3.2928 -24.0671,11.3734 -48.9773,23.1127 -71.7719,4.8357 -8.4148,-6.7605 -15.9387,-13.8231 -23.0173,-21.5698 -7.0308,-7.683 -13.4095,-15.8274 -19.3746,-24.7829 -16.1296,-24.2899 -2.2747,-48.0548 11.1348,-71.0402 1.0817,-1.8452 2.4497,-4.1836 3.77,-6.506 -2.5929,-0.9703 -5.2334,-1.9247 -7.3172,-2.6723 -25.0534,-9.0033 -50.9657,-18.3089 -54.1471,-47.323" /><path
           inkscape:connector-curvature="0"
           id="path3503"
           style="fill:#ffffff;fill-opacity:1;fill-rule:nonzero;stroke:none"
           d="m 5764.9129,5535.4792 c 2.1952,4.9629 6.2196,8.7806 11.3098,10.7212 2.3702,0.9226 4.8357,1.368 7.3013,1.368 2.8155,0 5.6311,-0.5726 8.2875,-1.7816 4.9789,-2.2269 8.7965,-6.2514 10.7372,-11.3257 1.9565,-5.0902 1.7974,-10.6258 -0.4136,-15.5887 -2.227,-4.9789 -6.2514,-8.7966 -11.3257,-10.7372 -5.0902,-1.9565 -10.6417,-1.8293 -15.6047,0.4295 -4.963,2.1951 -8.7965,6.2196 -10.7372,11.2939 -1.9565,5.0902 -1.7974,10.6417 0.4454,15.6206" /><path
           inkscape:connector-curvature="0"
           id="path3505"
           style="fill:#000000;fill-opacity:1;fill-rule:nonzero;stroke:none"
           d="m 5572.0736,5615.4909 c 2.2906,8.4306 5.3447,16.559 8.8761,24.4011 0.079,0.175 0.159,0.35 0.2386,0.5568 0.2068,0.4295 0.3817,0.9226 0.5885,1.3839 1.5589,9.4487 -29.4436,49.1841 -24.8465,56.1195 4.7402,7.1422 9.8622,13.7118 15.6205,20.0109 5.7583,6.315 11.8507,11.9938 18.5316,17.3385 6.6809,5.3447 51.1565,-23.7331 58.8078,-19.645 8.1125,4.6289 16.575,8.7011 25.4987,11.9143 7.6353,6.6649 13.7595,55.3878 21.8084,57.0103 8.3988,1.702 16.6863,2.736 25.1965,3.1177 8.5261,0.3818 16.8454,0.095 25.3715,-0.843 8.3988,-0.9226 19.136,-51.777 27.4076,-55.3083 8.4306,-2.2747 16.5591,-5.3447 24.4171,-8.892 0.175,-0.079 0.3499,-0.1431 0.5249,-0.2227 0.4613,-0.2068 0.9385,-0.3817 1.3839,-0.6044 9.4805,-1.5271 49.2,29.4436 56.1354,24.8465 7.1422,-4.7402 13.7118,-9.8463 20.0268,-15.6205 6.2992,-5.7583 11.962,-11.8507 17.3226,-18.5316 5.3448,-6.665 -23.7331,-51.1247 -19.645,-58.8078 4.6289,-8.0966 8.7011,-16.5591 11.9143,-25.4828 6.665,-7.6353 55.3878,-13.7754 57.0103,-21.8243 1.702,-8.367 2.736,-16.6545 3.1178,-25.1806 0.3976,-8.542 0.095,-16.8613 -0.8272,-25.3715 -0.9385,-8.3988 -51.7929,-19.136 -55.3242,-27.4076 -2.2906,-8.4465 -5.3447,-16.5591 -8.8919,-24.4171 -0.064,-0.1749 -0.1273,-0.3499 -0.2227,-0.5249 -0.2068,-0.4613 -0.3818,-0.9385 -0.5886,-1.3998 -1.543,-9.4487 29.4278,-49.1841 24.8307,-56.1195 -4.7403,-7.1422 -9.8464,-13.7118 -15.6047,-20.0268 -5.7742,-6.2992 -11.8347,-11.9779 -18.5315,-17.3385 -6.6809,-5.3448 -51.1407,23.749 -58.8237,19.6609 -8.0807,-4.6289 -16.5591,-8.7011 -25.4829,-11.9143 -7.6353,-6.665 -13.7595,-55.4037 -21.8083,-57.0262 -8.3989,-1.702 -16.6705,-2.736 -25.1966,-3.1178 -8.5261,-0.3658 -16.8613,-0.079 -25.3715,0.859 -8.3829,0.9226 -19.136,51.7611 -27.4076,55.2924 -8.4465,2.3065 -16.559,5.3447 -24.4329,8.9078 -0.1591,0.064 -0.3341,0.1432 -0.5091,0.2068 -0.4454,0.2386 -0.9226,0.3977 -1.3998,0.6045 -9.4487,1.543 -49.2,-29.4437 -56.1195,-24.8307 -7.1422,4.7244 -13.7118,9.8623 -20.0268,15.6047 -6.2991,5.7583 -11.9779,11.8506 -17.3385,18.5315 -5.3447,6.665 23.7331,51.1407 19.6609,58.8078 -4.6289,8.1126 -8.6851,16.575 -11.9142,25.4829 -6.6491,7.6512 -55.4038,13.7754 -57.0104,21.8242 -1.7179,8.3989 -2.736,16.6546 -3.1336,25.1966 -0.3659,8.5261 -0.095,16.8454 0.843,25.3556 0.9545,8.3988 51.7929,19.1519 55.3242,27.4235" /><path
           inkscape:connector-curvature="0"
           id="path3507"
           style="fill:#000000;fill-opacity:1;fill-rule:nonzero;stroke:none"
           d="m 4893.4297,3221.0256 c 58.8317,-7.858 112.8515,33.4681 120.6936,92.2759 7.8421,58.8078 -33.484,112.8436 -92.2966,120.6857 -58.8126,7.8421 -112.8515,-33.484 -120.6808,-92.2918 -7.8485,-58.8238 33.4728,-112.8436 92.2838,-120.6698" /><path
           inkscape:connector-curvature="0"
           id="path3509"
           style="fill:#ffffff;fill-opacity:1;fill-rule:nonzero;stroke:none"
           d="m 4868.9172,3332.6602 c -2.8457,-21.3788 12.1783,-41.0398 33.5731,-43.8712 21.3868,-2.8632 41.0223,12.1529 43.8808,33.5477 2.8568,21.3788 -12.1799,41.0398 -33.554,43.903 -21.3869,2.8314 -41.0414,-12.2006 -43.8999,-33.5795" /><path
           inkscape:connector-curvature="0"
           id="path3511"
           style="fill:#000000;fill-opacity:1;fill-rule:nonzero;stroke:none"
           d="m 5862.12,5298.2755 c 18.5633,9.2419 41.1352,1.6861 50.3771,-16.8931 9.2419,-18.5793 1.6703,-41.1352 -16.909,-50.3772 -18.5634,-9.2578 -41.1193,-1.6861 -50.3771,16.8932 -9.242,18.5633 -1.6703,41.1352 16.909,50.3771 z m -114.9433,-6.0446 c -0.8589,-5.122 26.8986,-19.9473 28.4257,-25.7374 0,-0.3181 0.016,-0.6362 0.016,-0.9544 0,-0.1113 0,-0.2068 0,-0.3499 -0.032,-5.3447 0.2863,-10.7213 1.0976,-16.0819 0.4454,-5.472 -26.2146,-24.7193 -24.5921,-29.7777 1.6225,-5.1061 3.5631,-9.9259 5.9492,-14.698 2.3701,-4.7721 5.0584,-9.226 8.1761,-13.5845 3.0223,-4.2789 33.5318,5.0266 38.3197,1.7657 4.0404,-4.1676 8.3989,-7.9057 13.0119,-11.278 4.2789,-3.3405 -1.034,-36.1087 3.7063,-38.5583 4.7402,-2.4656 9.5282,-4.5017 14.6025,-6.1719 5.0584,-1.702 10.1009,-2.9587 15.3661,-3.8495 5.1379,-0.843 19.9472,26.8986 25.7532,28.4257 0.3023,-0.016 0.6204,0.016 0.9385,0 0.1273,0 0.2546,0.016 0.3977,0.016 5.3288,-0.032 10.6895,0.2863 16.0342,1.0975 5.4879,0.4613 24.7352,-26.2145 29.7936,-24.592 5.122,1.6225 9.91,3.5631 14.698,5.9492 4.772,2.386 9.226,5.0743 13.5845,8.1761 4.263,3.0223 -5.0266,33.5317 -1.7816,38.3197 4.1835,4.0563 7.9057,8.4148 11.2939,13.0119 3.3245,4.2789 36.1086,-1.034 38.5583,3.7063 2.4497,4.7561 4.4857,9.5441 6.1719,14.5866 1.6861,5.0743 2.9427,10.1168 3.8335,15.3979 0.8749,5.122 -26.8826,19.9472 -28.4097,25.7214 0,0.3182 -0.016,0.6363 -0.016,0.9544 0,0.1273 0,0.2386 0,0.35 0.032,5.3606 -0.3022,10.7212 -1.0976,16.0978 -0.4613,5.456 26.1987,24.7193 24.5921,29.7777 -1.6225,5.1061 -3.5631,9.9259 -5.9492,14.698 -2.386,4.772 -5.0743,9.226 -8.1761,13.6003 -3.0382,4.2631 -33.5477,-5.0424 -38.3197,-1.7815 -4.0404,4.1676 -8.4307,7.8898 -13.0278,11.278 -4.263,3.3404 1.0499,36.1086 -3.6904,38.5583 -4.7562,2.4496 -9.5441,4.4857 -14.6025,6.1719 -5.0584,1.702 -10.1168,2.9427 -15.382,3.8335 -5.122,0.8749 -19.9472,-26.8826 -25.7374,-28.4097 -0.3181,0 -0.6362,-0.016 -0.9544,-0.016 -0.1113,0 -0.2227,0 -0.3499,0 -5.3447,0.032 -10.7213,-0.2863 -16.0819,-1.0976 -5.4879,-0.4613 -24.7352,26.1987 -29.7936,24.5921 -5.0902,-1.6225 -9.91,-3.5632 -14.698,-5.9492 -4.772,-2.386 -9.226,-5.0743 -13.5686,-8.1761 -4.2948,-3.0224 5.0107,-33.5477 1.7657,-38.3198 -4.1835,-4.0403 -7.9057,-8.4147 -11.2939,-13.0118 -3.3404,-4.263 -36.0927,1.0499 -38.5583,-3.7063 -2.4497,-4.7562 -4.4858,-9.5441 -6.156,-14.6025 -1.702,-5.0584 -2.9587,-10.1009 -3.8495,-15.382" /><path
           inkscape:connector-curvature="0"
           id="path3513"
           style="fill:#000000;fill-opacity:1;fill-rule:nonzero;stroke:none"
           d="m 5433.6359,5377.3328 c 13.8708,5.7901 55.7537,21.9038 110.8074,42.7577 l 195.7503,-315.1633 -373.9234,-191.8213 -47.3548,427.5456 c 43.4894,9.5759 83.2408,22.8741 114.7205,36.6813" /><path
           inkscape:connector-curvature="0"
           id="path3515"
           style="fill:#3d73c2;fill-opacity:1;fill-rule:nonzero;stroke:none"
           d="m 5731.6516,5499.3546 c -29.8731,0 -57.1216,18.7542 -67.7952,46.6549 -6.9354,18.1021 -6.4105,37.8425 1.4953,55.5469 7.8898,17.7044 22.2219,31.273 40.324,38.2084 8.3352,3.1973 17.084,4.8198 25.96,4.8198 29.8732,0 57.1217,-18.7384 67.7952,-46.655 6.9354,-18.102 6.4105,-37.8266 -1.4952,-55.5309 -7.8899,-17.7203 -22.2379,-31.2889 -40.3399,-38.2243 -8.3352,-3.1814 -17.0681,-4.8198 -25.9442,-4.8198" /><path
           inkscape:connector-curvature="0"
           id="path3517"
           style="fill:#ffffff;fill-opacity:1;fill-rule:nonzero;stroke:none"
           d="m 5731.6357,5665.184 c -11.4052,0 -22.6196,-2.0679 -33.3249,-6.156 -47.9911,-18.4042 -72.0901,-72.4082 -53.7176,-120.3993 13.7117,-35.8223 48.7387,-59.8894 87.0584,-59.8894 11.4212,0 22.6514,2.0838 33.3409,6.1877 23.24,8.892 41.6601,26.326 51.7769,49.0569 10.1486,22.731 10.8326,48.0707 1.9407,71.3265 -13.7436,35.8224 -48.7229,59.8736 -87.0744,59.8736" /><path
           inkscape:connector-curvature="0"
           id="path3519"
           style="fill:#000000;fill-opacity:1;fill-rule:nonzero;stroke:none"
           d="m 5758.6774,5624.9873 c 15.7797,0 30.6685,-9.5919 36.6654,-25.2284 7.7308,-20.2176 -2.386,-42.9168 -22.6196,-50.6793 -4.613,-1.7498 -9.3691,-2.5929 -14.0299,-2.5929 -15.7796,0 -30.6685,9.5919 -36.6654,25.2125 -7.7466,20.2335 2.3861,42.9327 22.6197,50.6793 4.613,1.7657 9.3691,2.6088 14.0298,2.6088" /><path
           style="fill:none;fill-opacity:1;stroke:#ff0000;stroke-width:4.66189623;stroke-miterlimit:4;stroke-dasharray:none;stroke-opacity:1"
           d="m 7589.5331,5212.0681 0,669.9709 -1766.8456,0 m -688.9597,0 -1791.5027,0 0,-669.9709"
           id="rect5435"
           inkscape:connector-curvature="0"
           sodipodi:nodetypes="cccccc" /><path
           sodipodi:nodetypes="cccc"
           inkscape:connector-curvature="0"
           id="path5643"
           d="m 6311.2969,2137.202 c 774.8428,532.0096 1276.2741,1739.844 1276.6875,3075.2504 m -4244.2188,0 C 3344.846,3875.5916 3847.959,2667.3588 4624.3125,2137.202"
           style="fill:none;fill-opacity:1;stroke:#ff0000;stroke-width:4.71801376;stroke-miterlimit:4;stroke-dasharray:none;stroke-opacity:1" /><path
           inkscape:connector-curvature="0"
           id="path4553"
           style="font-style:normal;font-variant:normal;font-weight:bold;font-stretch:normal;font-size:30px;line-height:125%;font-family:sans-serif;-inkscape-font-specification:'sans-serif Bold';text-align:center;letter-spacing:0px;word-spacing:0px;text-anchor:middle;fill:#000000;fill-opacity:1;stroke:none;stroke-width:2.48031497;stroke-linecap:butt;stroke-linejoin:miter;stroke-miterlimit:4;stroke-dasharray:none;stroke-opacity:1"
           d="m 3631.961,5618.162 q 14.1796,0 20.2734,5.2736 6.2109,5.2736 6.2109,17.344 0,11.9528 -6.2109,17.1088 -6.0938,5.1568 -20.2734,5.1568 l -18.9844,0 0,-44.8832 18.9844,0 z m -18.9844,-31.172 0,-66.2104 -45.1172,0 0,174.9608 68.9062,0 q 34.5703,0 50.625,-11.6016 16.1719,-11.6016 16.1719,-36.68 0,-17.344 -8.4375,-28.4768 -8.3203,-11.1328 -25.1953,-16.4056 9.2578,-2.1096 16.5234,-9.6096 7.3828,-7.3832 14.8828,-22.5 l 24.4923,-49.6872 -48.0469,0 -21.3282,43.476 q -6.4453,13.1248 -13.1249,17.9296 -6.5626,4.8048 -17.5782,4.8048 l -12.7734,0 z" /><path
           inkscape:connector-curvature="0"
           id="path4555"
           style="font-style:normal;font-variant:normal;font-weight:bold;font-stretch:normal;font-size:30px;line-height:125%;font-family:sans-serif;-inkscape-font-specification:'sans-serif Bold';text-align:center;letter-spacing:0px;word-spacing:0px;text-anchor:middle;fill:#000000;fill-opacity:1;stroke:none;stroke-width:2.48031497;stroke-linecap:butt;stroke-linejoin:miter;stroke-miterlimit:4;stroke-dasharray:none;stroke-opacity:1"
           d="m 3813.1328,5625.1932 q -13.9453,0 -21.3281,-10.0784 -7.2657,-9.9608 -7.2657,-28.828 0,-18.8672 7.2657,-28.9448 7.3828,-9.9616 21.3281,-9.9616 13.711,0 20.9766,9.9616 7.2656,10.0776 7.2656,28.9448 0,18.8672 -7.2656,28.828 -7.2656,10.0784 -20.9766,10.0784 z m 0,30 q 33.8672,0 52.8516,-18.2808 19.1015,-18.2816 19.1015,-50.6256 0,-32.3432 -19.1015,-50.6248 -18.9844,-18.2816 -52.8516,-18.2816 -33.9844,0 -53.2031,18.2816 -19.1015,18.2816 -19.1015,50.6248 0,32.344 19.1015,50.6256 19.2187,18.2808 53.2031,18.2808 z" /><path
           inkscape:connector-curvature="0"
           id="path4557"
           style="font-style:normal;font-variant:normal;font-weight:bold;font-stretch:normal;font-size:30px;line-height:125%;font-family:sans-serif;-inkscape-font-specification:'sans-serif Bold';text-align:center;letter-spacing:0px;word-spacing:0px;text-anchor:middle;fill:#000000;fill-opacity:1;stroke:none;stroke-width:2.48031497;stroke-linecap:butt;stroke-linejoin:miter;stroke-miterlimit:4;stroke-dasharray:none;stroke-opacity:1"
           d="m 3985.5156,5547.8492 q 13.4766,0 20.5078,9.844 7.1484,9.844 7.1484,28.5936 0,18.7504 -7.1484,28.5936 -7.0312,9.844 -20.5078,9.844 -13.4766,0 -20.7422,-9.9608 -7.1484,-9.844 -7.1484,-28.4768 0,-18.6328 7.1484,-28.5936 7.2656,-9.844 20.7422,-9.844 z m -27.8906,84.9616 q 8.6719,11.484 19.2188,16.8744 10.5468,5.508 24.2578,5.508 24.2578,0 39.8437,-19.336 15.586,-19.2184 15.586,-49.5704 0,-30.3512 -15.586,-49.6872 -15.5859,-19.2192 -39.8437,-19.2192 -13.711,0 -24.2578,5.3912 -10.5469,5.508 -19.2188,16.992 l 0,-18.984 -41.9532,0 0,182.3432 41.9532,0 0,-70.312 z" /><path
           inkscape:connector-curvature="0"
           id="path4559"
           style="font-style:normal;font-variant:normal;font-weight:bold;font-stretch:normal;font-size:30px;line-height:125%;font-family:sans-serif;-inkscape-font-specification:'sans-serif Bold';text-align:center;letter-spacing:0px;word-spacing:0px;text-anchor:middle;fill:#000000;fill-opacity:1;stroke:none;stroke-width:2.48031497;stroke-linecap:butt;stroke-linejoin:miter;stroke-miterlimit:4;stroke-dasharray:none;stroke-opacity:1"
           d="m 4150.1641,5625.1932 q -13.9454,0 -21.3282,-10.0784 -7.2656,-9.9608 -7.2656,-28.828 0,-18.8672 7.2656,-28.9448 7.3828,-9.9616 21.3282,-9.9616 13.7109,0 20.9765,9.9616 7.2656,10.0776 7.2656,28.9448 0,18.8672 -7.2656,28.828 -7.2656,10.0784 -20.9765,10.0784 z m 0,30 q 33.8672,0 52.8515,-18.2808 19.1016,-18.2816 19.1016,-50.6256 0,-32.3432 -19.1016,-50.6248 -18.9843,-18.2816 -52.8515,-18.2816 -33.9844,0 -53.2031,18.2816 -19.1016,18.2816 -19.1016,50.6248 0,32.344 19.1016,50.6256 19.2187,18.2808 53.2031,18.2808 z" /><path
           inkscape:connector-curvature="0"
           id="path4561"
           style="font-style:normal;font-variant:normal;font-weight:bold;font-stretch:normal;font-size:30px;line-height:125%;font-family:sans-serif;-inkscape-font-specification:'sans-serif Bold';text-align:center;letter-spacing:0px;word-spacing:0px;text-anchor:middle;fill:#000000;fill-opacity:1;stroke:none;stroke-width:2.48031497;stroke-linecap:butt;stroke-linejoin:miter;stroke-miterlimit:4;stroke-dasharray:none;stroke-opacity:1"
           d="m 4358.7578,5647.9276 0,-34.2184 q -8.5547,5.8592 -17.2265,8.6712 -8.5547,2.8128 -17.8126,2.8128 -17.5781,0 -27.4218,-10.3128 -9.7266,-10.1952 -9.7266,-28.5936 0,-18.3984 9.7266,-28.7104 9.8437,-10.196 27.4218,-10.196 9.8438,0 18.6329,2.9304 8.9062,2.9296 16.4062,8.6712 l 0,-34.336 q -9.8437,-3.6328 -20.0391,-5.3904 -10.0781,-1.8752 -20.2734,-1.8752 -35.5078,0 -55.5469,18.1648 -20.039,18.2808 -20.039,50.7416 0,32.4608 20.039,50.6256 20.0391,18.2808 55.5469,18.2808 10.3125,0 20.2734,-1.8752 10.0782,-1.7576 20.0391,-5.3904 z" /><path
           inkscape:connector-curvature="0"
           id="path4563"
           style="font-style:normal;font-variant:normal;font-weight:bold;font-stretch:normal;font-size:30px;line-height:125%;font-family:sans-serif;-inkscape-font-specification:'sans-serif Bold';text-align:center;letter-spacing:0px;word-spacing:0px;text-anchor:middle;fill:#000000;fill-opacity:1;stroke:none;stroke-width:2.48031497;stroke-linecap:butt;stroke-linejoin:miter;stroke-miterlimit:4;stroke-dasharray:none;stroke-opacity:1"
           d="m 4393.7969,5571.8732 0,80.156 42.1875,0 0,-13.1248 q 0,-10.664 -0.1176,-26.836 -0.1168,-16.0552 -0.1168,-21.4456 0,-15.82 0.8203,-22.8512 0.8203,-6.9144 2.8125,-10.0784 2.5782,-4.1016 6.6797,-6.328 4.2188,-2.2264 9.6093,-2.2264 13.1251,0 20.6251,10.0776 7.5,10.0784 7.5,28.008 l 0,64.8048 41.9531,0 0,-131.2496 -41.9531,0 0,18.984 q -9.4922,-11.484 -20.1563,-16.992 -10.5468,-5.3912 -23.3203,-5.3912 -22.7344,0 -34.6875,13.9456 -11.8359,13.9456 -11.8359,40.5472 z" /><path
           inkscape:connector-curvature="0"
           id="path4565"
           style="font-style:normal;font-variant:normal;font-weight:bold;font-stretch:normal;font-size:30px;line-height:125%;font-family:sans-serif;-inkscape-font-specification:'sans-serif Bold';text-align:center;letter-spacing:0px;word-spacing:0px;text-anchor:middle;fill:#000000;fill-opacity:1;stroke:none;stroke-width:2.48031497;stroke-linecap:butt;stroke-linejoin:miter;stroke-miterlimit:4;stroke-dasharray:none;stroke-opacity:1"
           d="m 4608.25,5539.7636 0,-68.9064 -41.9531,0 0,181.172 41.9531,0 0,-19.2184 q 8.6718,11.484 19.2187,16.8744 10.5469,5.508 24.2579,5.508 24.2578,0 39.8437,-19.336 15.5859,-19.2184 15.5859,-49.5704 0,-30.3512 -15.5859,-49.6872 -15.5859,-19.2192 -39.8437,-19.2192 -13.711,0 -24.2579,5.3912 -10.5469,5.508 -19.2187,16.992 z m 27.8906,84.9608 q -13.4765,0 -20.7422,-9.9608 -7.1484,-9.844 -7.1484,-28.4768 0,-18.6328 7.1484,-28.5936 7.2657,-9.844 20.7422,-9.844 13.4766,0 20.5078,9.844 7.1485,9.844 7.1485,28.5936 0,18.7504 -7.1485,28.5936 -7.0312,9.844 -20.5078,9.844 z" /><path
           inkscape:connector-curvature="0"
           id="path4567"
           style="font-style:normal;font-variant:normal;font-weight:bold;font-stretch:normal;font-size:30px;line-height:125%;font-family:sans-serif;-inkscape-font-specification:'sans-serif Bold';text-align:center;letter-spacing:0px;word-spacing:0px;text-anchor:middle;fill:#000000;fill-opacity:1;stroke:none;stroke-width:2.48031497;stroke-linecap:butt;stroke-linejoin:miter;stroke-miterlimit:4;stroke-dasharray:none;stroke-opacity:1"
           d="m 3755.125,5395.7404 45.1172,0 0,-157.9688 q 0,-32.6952 -17.8125,-48.8672 -17.6953,-16.172 -53.6719,-16.172 l -9.1406,0 0,34.1016 7.0312,0 q 14.0626,0 21.211,7.8512 7.2656,7.852 7.2656,23.0864 l 0,157.9688 z" /><path
           inkscape:connector-curvature="0"
           id="path4569"
           style="font-style:normal;font-variant:normal;font-weight:bold;font-stretch:normal;font-size:30px;line-height:125%;font-family:sans-serif;-inkscape-font-specification:'sans-serif Bold';text-align:center;letter-spacing:0px;word-spacing:0px;text-anchor:middle;fill:#000000;fill-opacity:1;stroke:none;stroke-width:2.48031497;stroke-linecap:butt;stroke-linejoin:miter;stroke-miterlimit:4;stroke-dasharray:none;stroke-opacity:1"
           d="m 3841.375,5271.8732 0,80.156 42.1875,0 0,-13.1248 q 0,-10.664 -0.1168,-26.836 -0.1168,-16.0552 -0.1168,-21.4456 0,-15.82 0.8202,-22.8512 0.8203,-6.9144 2.8126,-10.0784 2.5781,-4.1016 6.6797,-6.328 4.2187,-2.2264 9.6093,-2.2264 13.125,0 20.625,10.0776 7.5,10.0784 7.5,28.008 l 0,64.8048 41.9532,0 0,-131.2496 -41.9532,0 0,18.984 q -9.4922,-11.484 -20.1563,-16.992 -10.5468,-5.3912 -23.3203,-5.3912 -22.7343,0 -34.6874,13.9456 -11.836,13.9456 -11.836,40.5472 z" /><path
           inkscape:connector-curvature="0"
           id="path4571"
           style="font-style:normal;font-variant:normal;font-weight:bold;font-stretch:normal;font-size:30px;line-height:125%;font-family:sans-serif;-inkscape-font-specification:'sans-serif Bold';text-align:center;letter-spacing:0px;word-spacing:0px;text-anchor:middle;fill:#000000;fill-opacity:1;stroke:none;stroke-width:2.48031497;stroke-linecap:butt;stroke-linejoin:miter;stroke-miterlimit:4;stroke-dasharray:none;stroke-opacity:1"
           d="m 4145.8282,5300.7012 0,-79.9216 -42.1876,0 0,13.0072 0,48.164 q 0,16.9928 -0.8203,23.4376 -0.7032,6.4456 -2.5781,9.492 -2.4609,4.1016 -6.6797,6.3288 -4.2187,2.3432 -9.6094,2.3432 -13.1249,0 -20.6249,-10.1952 -7.5,-10.0776 -7.5,-28.008 l 0,-64.5696 -41.9532,0 0,131.2496 41.9532,0 0,-19.2184 q 9.4921,11.484 20.1562,16.8744 10.664,5.508 23.5546,5.508 22.7344,0 34.4532,-13.9456 11.836,-13.9448 11.836,-40.5464 z" /><path
           inkscape:connector-curvature="0"
           id="path4573"
           style="font-style:normal;font-variant:normal;font-weight:bold;font-stretch:normal;font-size:30px;line-height:125%;font-family:sans-serif;-inkscape-font-specification:'sans-serif Bold';text-align:center;letter-spacing:0px;word-spacing:0px;text-anchor:middle;fill:#000000;fill-opacity:1;stroke:none;stroke-width:2.48031497;stroke-linecap:butt;stroke-linejoin:miter;stroke-miterlimit:4;stroke-dasharray:none;stroke-opacity:1"
           d="m 4184.9687,5352.0292 41.9531,0 0,-131.2496 -41.9531,0 0,131.2496 z m 0,51.0936 41.9531,0 0,-34.2184 -41.9531,0 0,34.2184 z" /><path
           inkscape:connector-curvature="0"
           id="path4575"
           style="font-style:normal;font-variant:normal;font-weight:bold;font-stretch:normal;font-size:30px;line-height:125%;font-family:sans-serif;-inkscape-font-specification:'sans-serif Bold';text-align:center;letter-spacing:0px;word-spacing:0px;text-anchor:middle;fill:#000000;fill-opacity:1;stroke:none;stroke-width:2.48031497;stroke-linecap:butt;stroke-linejoin:miter;stroke-miterlimit:4;stroke-dasharray:none;stroke-opacity:1"
           d="m 4329.9297,5325.1932 q -13.9453,0 -21.3281,-10.0784 -7.2657,-9.9608 -7.2657,-28.828 0,-18.8672 7.2657,-28.9448 7.3828,-9.9616 21.3281,-9.9616 13.7109,0 20.9765,9.9616 7.2656,10.0776 7.2656,28.9448 0,18.8672 -7.2656,28.828 -7.2656,10.0784 -20.9765,10.0784 z m 0,30 q 33.8672,0 52.8516,-18.2808 19.1015,-18.2816 19.1015,-50.6256 0,-32.3432 -19.1015,-50.6248 -18.9844,-18.2816 -52.8516,-18.2816 -33.9844,0 -53.2031,18.2816 -19.1016,18.2816 -19.1016,50.6248 0,32.344 19.1016,50.6256 19.2187,18.2808 53.2031,18.2808 z" /><path
           inkscape:connector-curvature="0"
           id="path4577"
           style="font-style:normal;font-variant:normal;font-weight:bold;font-stretch:normal;font-size:30px;line-height:125%;font-family:sans-serif;-inkscape-font-specification:'sans-serif Bold';text-align:center;letter-spacing:0px;word-spacing:0px;text-anchor:middle;fill:#000000;fill-opacity:1;stroke:none;stroke-width:2.48031497;stroke-linecap:butt;stroke-linejoin:miter;stroke-miterlimit:4;stroke-dasharray:none;stroke-opacity:1"
           d="m 4529.9687,5316.2868 q -5.5077,2.5784 -11.0156,3.7504 -5.3906,1.2888 -10.8984,1.2888 -16.1719,0 -24.9609,-10.4296 -8.672,-10.3128 -8.672,-29.6488 l 0,-60.468 -41.9531,0 0,131.2496 41.9531,0 0,-21.5624 q 8.086,12.8904 18.5157,18.7496 10.5469,5.9768 25.1953,5.9768 2.1094,0 4.5703,-0.232 2.461,-0.12 7.1485,-0.704 l 0.1168,-37.9688 z" /><path
           inkscape:connector-curvature="0"
           id="path4580"
           style="font-style:normal;font-variant:normal;font-weight:bold;font-stretch:normal;font-size:30px;line-height:125%;font-family:sans-serif;-inkscape-font-specification:'sans-serif Bold';text-align:center;letter-spacing:0px;word-spacing:0px;text-anchor:middle;fill:#000000;fill-opacity:1;stroke:none;stroke-width:2.48031497;stroke-linecap:butt;stroke-linejoin:miter;stroke-miterlimit:4;stroke-dasharray:none;stroke-opacity:1"
           d="m 6235.5782,5372.006 q 10.664,0 16.1718,4.6872 5.5078,4.6872 5.5078,13.828 0,9.024 -5.5078,13.7112 -5.5078,4.8048 -16.1718,4.8048 l -24.961,0 0,-37.0312 24.961,0 z m 1.5234,-76.524 q 13.5937,0 20.3906,5.7424 6.914,5.7424 6.914,17.344 0,11.3672 -6.7968,16.992 -6.7969,5.7424 -20.5078,5.7424 l -26.4844,0 0,-45.8208 26.4844,0 z m 41.9531,62.9304 q 14.5312,-4.2192 22.5,-15.5864 7.9687,-11.3672 7.9687,-27.8904 0,-25.3128 -17.1093,-37.7344 -17.1094,-12.4216 -52.0313,-12.4216 l -74.8828,0 0,174.9608 67.7344,0 q 36.4453,0 52.7343,-11.016 16.4063,-11.0152 16.4063,-35.2736 0,-12.7728 -5.9766,-21.7968 -5.9766,-8.9064 -17.3437,-13.2416 z" /><path
           inkscape:connector-curvature="0"
           id="path4582"
           style="font-style:normal;font-variant:normal;font-weight:bold;font-stretch:normal;font-size:30px;line-height:125%;font-family:sans-serif;-inkscape-font-specification:'sans-serif Bold';text-align:center;letter-spacing:0px;word-spacing:0px;text-anchor:middle;fill:#000000;fill-opacity:1;stroke:none;stroke-width:2.48031497;stroke-linecap:butt;stroke-linejoin:miter;stroke-miterlimit:4;stroke-dasharray:none;stroke-opacity:1"
           d="m 6408.8984,5369.1932 q -13.9453,0 -21.3281,-10.0784 -7.2656,-9.9608 -7.2656,-28.828 0,-18.8672 7.2656,-28.9448 7.3828,-9.9616 21.3281,-9.9616 13.711,0 20.9766,9.9616 7.2656,10.0776 7.2656,28.9448 0,18.8672 -7.2656,28.828 -7.2656,10.0784 -20.9766,10.0784 z m 0,30 q 33.8672,0 52.8516,-18.2808 19.1016,-18.2816 19.1016,-50.6256 0,-32.3432 -19.1016,-50.6248 -18.9844,-18.2816 -52.8516,-18.2816 -33.9843,0 -53.2031,18.2816 -19.1015,18.2816 -19.1015,50.6248 0,32.344 19.1015,50.6256 19.2188,18.2808 53.2031,18.2808 z" /><path
           inkscape:connector-curvature="0"
           id="path4584"
           style="font-style:normal;font-variant:normal;font-weight:bold;font-stretch:normal;font-size:30px;line-height:125%;font-family:sans-serif;-inkscape-font-specification:'sans-serif Bold';text-align:center;letter-spacing:0px;word-spacing:0px;text-anchor:middle;fill:#000000;fill-opacity:1;stroke:none;stroke-width:2.48031497;stroke-linecap:butt;stroke-linejoin:miter;stroke-miterlimit:4;stroke-dasharray:none;stroke-opacity:1"
           d="m 6608.9375,5360.2868 q -5.5078,2.5784 -11.0157,3.7504 -5.3905,1.2888 -10.8984,1.2888 -16.1718,0 -24.9609,-10.4296 -8.6719,-10.3128 -8.6719,-29.6488 l 0,-60.468 -41.9531,0 0,131.2496 41.9531,0 0,-21.5624 q 8.086,12.8904 18.5156,18.7496 10.5469,5.9768 25.1954,5.9768 2.1094,0 4.5702,-0.232 2.461,-0.12 7.1485,-0.704 l 0.1176,-37.9688 z" /><path
           inkscape:connector-curvature="0"
           id="path4586"
           style="font-style:normal;font-variant:normal;font-weight:bold;font-stretch:normal;font-size:30px;line-height:125%;font-family:sans-serif;-inkscape-font-specification:'sans-serif Bold';text-align:center;letter-spacing:0px;word-spacing:0px;text-anchor:middle;fill:#000000;fill-opacity:1;stroke:none;stroke-width:2.48031497;stroke-linecap:butt;stroke-linejoin:miter;stroke-miterlimit:4;stroke-dasharray:none;stroke-opacity:1"
           d="m 6719.3282,5376.8108 0,70.312 42.1874,0 0,-182.3432 -42.1874,0 0,18.984 q -8.672,-11.6016 -19.1016,-16.992 -10.4297,-5.3912 -24.1407,-5.3912 -24.2577,0 -39.8437,19.2192 -15.586,19.336 -15.586,49.6872 0,30.352 15.586,49.5704 15.586,19.336 39.8437,19.336 13.5938,0 24.0235,-5.508 10.5468,-5.3904 19.2188,-16.8744 z m -27.6564,-84.9616 q 13.4766,0 20.5079,9.844 7.1485,9.844 7.1485,28.5936 0,18.7504 -7.1485,28.5936 -7.0313,9.844 -20.5079,9.844 -13.3593,0 -20.5077,-9.844 -7.0313,-9.8432 -7.0313,-28.5936 0,-18.7496 7.0313,-28.5936 7.1484,-9.844 20.5077,-9.844 z" /><path
           inkscape:connector-curvature="0"
           id="path4588"
           style="font-style:normal;font-variant:normal;font-weight:bold;font-stretch:normal;font-size:30px;line-height:125%;font-family:sans-serif;-inkscape-font-specification:'sans-serif Bold';text-align:center;letter-spacing:0px;word-spacing:0px;text-anchor:middle;fill:#000000;fill-opacity:1;stroke:none;stroke-width:2.48031497;stroke-linecap:butt;stroke-linejoin:miter;stroke-miterlimit:4;stroke-dasharray:none;stroke-opacity:1"
           d="m 6933.0782,5330.7556 0,-11.9528 -98.086,0 q 1.5234,-14.7656 10.664,-22.1488 9.1407,-7.3824 25.5469,-7.3824 13.2422,0 27.0703,3.8672 13.9453,3.984 28.5938,11.9528 l 0,-32.344 q -14.8828,-5.6248 -29.7656,-8.4368 -14.8829,-2.9304 -29.7657,-2.9304 -35.6249,0 -55.4297,18.0472 -19.6875,18.164 -19.6875,50.8592 0,32.1096 19.336,50.508 19.4531,18.3984 53.4375,18.3984 30.9375,0 49.4531,-18.6328 18.6329,-18.6328 18.6329,-49.8048 z m -43.1251,13.9456 q 0,11.9528 -7.0313,19.2184 -6.914,7.3832 -18.164,7.3832 -12.1875,0 -19.8047,-6.9144 -7.6172,-6.7968 -9.4921,-19.6872 l 54.4921,0 z" /><path
           inkscape:connector-curvature="0"
           id="path4590"
           style="font-style:normal;font-variant:normal;font-weight:bold;font-stretch:normal;font-size:30px;line-height:125%;font-family:sans-serif;-inkscape-font-specification:'sans-serif Bold';text-align:center;letter-spacing:0px;word-spacing:0px;text-anchor:middle;fill:#000000;fill-opacity:1;stroke:none;stroke-width:2.48031497;stroke-linecap:butt;stroke-linejoin:miter;stroke-miterlimit:4;stroke-dasharray:none;stroke-opacity:1"
           d="m 7023.5469,5323.842 q -13.1251,0 -19.8047,-4.4536 -6.5625,-4.4528 -6.5625,-13.1248 0,-7.9688 5.2734,-12.5392 5.3907,-4.4528 14.8828,-4.4528 11.8359,0 19.9219,8.4376 8.086,8.5544 8.086,21.328 l 0,4.8048 -21.7969,0 z m 64.1015,15.82 0,-74.8824 -42.3046,0 0,19.4528 q -8.4376,-11.9528 -18.9844,-17.4608 -10.5469,-5.3912 -25.6641,-5.3912 -20.3906,0 -33.164,11.836 -12.6563,11.9536 -12.6563,30.9376 0,23.0864 15.8203,33.8672 15.9375,10.7816 49.9219,10.7816 l 24.7266,0 0,3.2808 q 0,9.9616 -7.8516,14.5312 -7.8516,4.688 -24.4922,4.688 -13.4766,0 -25.0782,-2.6952 -11.6015,-2.6952 -21.5624,-8.0864 l 0,31.992 q 13.4765,3.2816 27.0703,4.9224 13.5937,1.7576 27.1875,1.7576 35.5078,0 51.211,-14.0624 15.8202,-13.9456 15.8202,-45.4688 z" /><path
           inkscape:connector-curvature="0"
           id="path4592"
           style="font-style:normal;font-variant:normal;font-weight:bold;font-stretch:normal;font-size:30px;line-height:125%;font-family:sans-serif;-inkscape-font-specification:'sans-serif Bold';text-align:center;letter-spacing:0px;word-spacing:0px;text-anchor:middle;fill:#000000;fill-opacity:1;stroke:none;stroke-width:2.48031497;stroke-linecap:butt;stroke-linejoin:miter;stroke-miterlimit:4;stroke-dasharray:none;stroke-opacity:1"
           d="m 7125.5,5315.8732 0,80.156 42.1875,0 0,-13.1248 q 0,-10.664 -0.1176,-26.836 -0.1168,-16.0552 -0.1168,-21.4456 0,-15.82 0.8203,-22.8512 0.8204,-6.9144 2.8125,-10.0784 2.5782,-4.1016 6.6797,-6.328 4.2188,-2.2264 9.6094,-2.2264 13.125,0 20.625,10.0776 7.5,10.0784 7.5,28.008 l 0,64.8048 41.9531,0 0,-131.2496 -41.9531,0 0,18.984 q -9.4922,-11.484 -20.1562,-16.992 -10.5469,-5.3912 -23.3204,-5.3912 -22.7344,0 -34.6875,13.9456 -11.8359,13.9456 -11.8359,40.5472 z" /><path
           inkscape:connector-curvature="0"
           id="path4594"
           style="font-style:normal;font-variant:normal;font-weight:bold;font-stretch:normal;font-size:30px;line-height:125%;font-family:sans-serif;-inkscape-font-specification:'sans-serif Bold';text-align:center;letter-spacing:0px;word-spacing:0px;text-anchor:middle;fill:#000000;fill-opacity:1;stroke:none;stroke-width:2.48031497;stroke-linecap:butt;stroke-linejoin:miter;stroke-miterlimit:4;stroke-dasharray:none;stroke-opacity:1"
           d="m 7331.1641,5331.9276 -47.3438,64.1016 44.4141,0 26.8359,-38.9064 27.1875,38.9064 44.414,0 -47.3436,-63.8672 49.6874,-67.3824 -44.414,0 -29.5313,41.484 -29.1797,-41.484 -44.414,0 49.6875,67.148 z" /><path
           inkscape:connector-curvature="0"
           id="path4596"
           style="font-style:normal;font-variant:normal;font-weight:bold;font-stretch:normal;font-size:30px;line-height:125%;font-family:sans-serif;-inkscape-font-specification:'sans-serif Bold';text-align:center;letter-spacing:0px;word-spacing:0px;text-anchor:middle;fill:#000000;fill-opacity:1;stroke:none;stroke-width:2.48031497;stroke-linecap:butt;stroke-linejoin:miter;stroke-miterlimit:4;stroke-dasharray:none;stroke-opacity:1"
           d="m 6159.6406,5110.2092 q -20.625,0 -31.9922,-15.2344 -11.3671,-15.2344 -11.3671,-42.8912 0,-27.5384 11.3671,-42.7728 11.3672,-15.2344 31.9922,-15.2344 20.7422,0 32.1094,15.2344 11.3672,15.2344 11.3672,42.7728 0,27.6568 -11.3672,42.8912 -11.3672,15.2344 -32.1094,15.2344 z m 0,32.6952 q 42.1876,0 66.0938,-24.1408 23.9062,-24.1408 23.9062,-66.68 0,-42.4216 -23.9062,-66.5624 -23.9062,-24.1408 -66.0938,-24.1408 -42.0703,0 -66.0937,24.1408 -23.9063,24.1408 -23.9063,66.5624 0,42.5392 23.9063,66.68 24.0234,24.1408 66.0937,24.1408 z" /><path
           inkscape:connector-curvature="0"
           id="path4598"
           style="font-style:normal;font-variant:normal;font-weight:bold;font-stretch:normal;font-size:30px;line-height:125%;font-family:sans-serif;-inkscape-font-specification:'sans-serif Bold';text-align:center;letter-spacing:0px;word-spacing:0px;text-anchor:middle;fill:#000000;fill-opacity:1;stroke:none;stroke-width:2.48031497;stroke-linecap:butt;stroke-linejoin:miter;stroke-miterlimit:4;stroke-dasharray:none;stroke-opacity:1"
           d="m 6323.7031,4983.7636 0,-68.9064 -41.9531,0 0,181.172 41.9531,0 0,-19.2184 q 8.6719,11.484 19.2187,16.8744 10.5469,5.508 24.2579,5.508 24.2578,0 39.8437,-19.336 15.586,-19.2184 15.586,-49.5704 0,-30.3512 -15.586,-49.6872 -15.5859,-19.2192 -39.8437,-19.2192 -13.711,0 -24.2579,5.3912 -10.5468,5.508 -19.2187,16.992 z m 27.8907,84.9608 q -13.4766,0 -20.7422,-9.9608 -7.1485,-9.844 -7.1485,-28.4768 0,-18.6328 7.1485,-28.5936 7.2656,-9.844 20.7422,-9.844 13.4765,0 20.5078,9.844 7.1484,9.844 7.1484,28.5936 0,18.7504 -7.1484,28.5936 -7.0313,9.844 -20.5078,9.844 z" /><path
           inkscape:connector-curvature="0"
           id="path4600"
           style="font-style:normal;font-variant:normal;font-weight:bold;font-stretch:normal;font-size:30px;line-height:125%;font-family:sans-serif;-inkscape-font-specification:'sans-serif Bold';text-align:center;letter-spacing:0px;word-spacing:0px;text-anchor:middle;fill:#000000;fill-opacity:1;stroke:none;stroke-width:2.48031497;stroke-linecap:butt;stroke-linejoin:miter;stroke-miterlimit:4;stroke-dasharray:none;stroke-opacity:1"
           d="m 6584.7969,5030.7556 0,-11.9528 -98.0859,0 q 1.5234,-14.7656 10.664,-22.1488 9.1406,-7.3824 25.5468,-7.3824 13.2423,0 27.0704,3.8672 13.9453,3.984 28.5937,11.9528 l 0,-32.344 q -14.8828,-5.6248 -29.7656,-8.4368 -14.8828,-2.9304 -29.7656,-2.9304 -35.625,0 -55.4297,18.0472 -19.6875,18.164 -19.6875,50.8592 0,32.1096 19.3359,50.508 19.4532,18.3984 53.4376,18.3984 30.9374,0 49.4531,-18.6328 18.6328,-18.6328 18.6328,-49.8048 z m -43.1251,13.9456 q 0,11.9528 -7.0312,19.2184 -6.914,7.3832 -18.164,7.3832 -12.1876,0 -19.8048,-6.9144 -7.6171,-6.7968 -9.4921,-19.6872 l 54.4921,0 z" /><path
           inkscape:connector-curvature="0"
           id="path4602"
           style="font-style:normal;font-variant:normal;font-weight:bold;font-stretch:normal;font-size:30px;line-height:125%;font-family:sans-serif;-inkscape-font-specification:'sans-serif Bold';text-align:center;letter-spacing:0px;word-spacing:0px;text-anchor:middle;fill:#000000;fill-opacity:1;stroke:none;stroke-width:2.48031497;stroke-linecap:butt;stroke-linejoin:miter;stroke-miterlimit:4;stroke-dasharray:none;stroke-opacity:1"
           d="m 6748.3906,5044.7012 0,-79.9216 -42.1875,0 0,13.0072 0,48.164 q 0,16.9928 -0.8203,23.4376 -0.7032,6.4456 -2.5781,9.492 -2.4609,4.1016 -6.6797,6.3288 -4.2188,2.3432 -9.6094,2.3432 -13.125,0 -20.625,-10.1952 -7.5,-10.0776 -7.5,-28.008 l 0,-64.5696 -41.9531,0 0,131.2496 41.9531,0 0,-19.2184 q 9.4922,11.484 20.1563,16.8744 10.6641,5.508 23.5547,5.508 22.7343,0 34.4531,-13.9456 11.8359,-13.9448 11.8359,-40.5464 z" /><path
           inkscape:connector-curvature="0"
           id="path4604"
           style="font-style:normal;font-variant:normal;font-weight:bold;font-stretch:normal;font-size:30px;line-height:125%;font-family:sans-serif;-inkscape-font-specification:'sans-serif Bold';text-align:center;letter-spacing:0px;word-spacing:0px;text-anchor:middle;fill:#000000;fill-opacity:1;stroke:none;stroke-width:2.48031497;stroke-linecap:butt;stroke-linejoin:miter;stroke-miterlimit:4;stroke-dasharray:none;stroke-opacity:1"
           d="m 6919.9531,4997.9436 76.9922,0 0,-33.164 -127.1484,0 0,33.164 63.8672,56.3672 q 8.5546,7.7344 12.6562,15.1168 4.1015,7.3832 4.1015,15.352 0,12.304 -8.3202,19.804 -8.2032,7.5 -21.9141,7.5 -10.5469,0 -23.0859,-4.5704 -12.5391,-4.4528 -26.836,-13.3592 l 0,38.4376 q 15.2344,5.0392 30.1172,7.6176 14.8828,2.6952 29.1797,2.6952 31.4062,0 48.75,-13.828 17.4609,-13.8288 17.4609,-38.5552 0,-14.2968 -7.3828,-26.7184 -7.3828,-12.3048 -31.0547,-33.0472 l -37.3828,-32.812 z" /><path
           inkscape:connector-curvature="0"
           id="path4606"
           style="font-style:normal;font-variant:normal;font-weight:bold;font-stretch:normal;font-size:30px;line-height:125%;font-family:sans-serif;-inkscape-font-specification:'sans-serif Bold';text-align:center;letter-spacing:0px;word-spacing:0px;text-anchor:middle;fill:#000000;fill-opacity:1;stroke:none;stroke-width:2.48031497;stroke-linecap:butt;stroke-linejoin:miter;stroke-miterlimit:4;stroke-dasharray:none;stroke-opacity:1"
           d="m 7128.0782,5052.4356 q 0,32.812 -6.211,46.172 -6.0938,13.476 -20.625,13.476 -14.5312,0 -20.7422,-13.476 -6.211,-13.36 -6.211,-46.172 0,-33.164 6.211,-46.7576 6.211,-13.5944 20.7422,-13.5944 14.414,0 20.625,13.5944 6.211,13.5936 6.211,46.7576 z m 45.1171,-0.352 q 0,-43.476 -18.75,-67.148 -18.75,-23.5552 -53.2031,-23.5552 -34.5704,0 -53.3204,23.5552 -18.75,23.672 -18.75,67.148 0,43.5944 18.75,67.1488 18.75,23.672 53.3204,23.672 34.4531,0 53.2031,-23.672 18.75,-23.5544 18.75,-67.1488 z" /><path
           inkscape:connector-curvature="0"
           id="path4608"
           style="font-style:normal;font-variant:normal;font-weight:bold;font-stretch:normal;font-size:30px;line-height:125%;font-family:sans-serif;-inkscape-font-specification:'sans-serif Bold';text-align:center;letter-spacing:0px;word-spacing:0px;text-anchor:middle;fill:#000000;fill-opacity:1;stroke:none;stroke-width:2.48031497;stroke-linecap:butt;stroke-linejoin:miter;stroke-miterlimit:4;stroke-dasharray:none;stroke-opacity:1"
           d="m 7212.6875,4995.9508 39.8438,0 0,113.0864 -40.8985,-8.4376 0,30.7032 40.6641,8.4376 42.8906,0 0,-143.7896 39.8438,0 0,-31.1712 -122.3438,0 0,31.1712 z" /><path
           inkscape:connector-curvature="0"
           id="path4610"
           style="font-style:normal;font-variant:normal;font-weight:bold;font-stretch:normal;font-size:30px;line-height:125%;font-family:sans-serif;-inkscape-font-specification:'sans-serif Bold';text-align:center;letter-spacing:0px;word-spacing:0px;text-anchor:middle;fill:#000000;fill-opacity:1;stroke:none;stroke-width:2.48031497;stroke-linecap:butt;stroke-linejoin:miter;stroke-miterlimit:4;stroke-dasharray:none;stroke-opacity:1"
           d="m 7367.4922,5139.7404 131.836,0 0,-25.4296 -68.2032,-149.5312 -43.9453,0 64.5703,141.7968 -84.2578,0 0,33.164 z" /><path
           d="m 5796.0234,2950.169 161.1328,0 0,556.152 -175.2929,-35.156 0,89.8432 174.3164,35.1568 98.6328,0 0,-645.996 161.1328,0 0,-83.008 -419.9219,0 0,83.008 z"
           id="path4613"
           inkscape:connector-curvature="0"
           style="font-style:normal;font-variant:normal;font-weight:normal;font-stretch:normal;font-size:medium;line-height:125%;font-family:sans-serif;-inkscape-font-specification:sans-serif;letter-spacing:0px;word-spacing:0px;fill:#000000;fill-opacity:1;stroke:none;stroke-width:1px;stroke-linecap:butt;stroke-linejoin:miter;stroke-opacity:1" /><path
           d="m 6333.7187,3546.7938 0,-27.1872 q -12.1874,6.2496 -25.3125,9.3752 -13.1249,3.1248 -27.1875,3.1248 -21.4062,0 -32.1874,-6.5624 -10.6251,-6.5624 -10.6251,-19.688 0,-10 7.6563,-15.7808 7.6562,-5.6248 30.7813,-10.7816 l 9.8437,-2.1872 q 30.625,-6.5624 43.4375,-18.5936 12.9688,-11.8752 12.9688,-33.2816 0,-24.3752 -19.3751,-38.5936 -19.2187,-14.2184 -52.9687,-14.2184 -14.0625,0 -29.375,2.812 -15.1563,2.656 -32.0312,8.1248 l 0,29.688 q 15.9375,-8.2816 31.4062,-12.5 15.4687,-4.0624 30.625,-4.0624 20.3125,0 31.25,6.8744 10.9375,7.0312 10.9375,19.688 0,11.7184 -7.9687,17.9688 -7.8125,6.2496 -34.5313,12.0312 l -10,2.3432 q -26.7187,5.6256 -38.5938,17.188 -11.8749,11.7184 -11.8749,32.0312 0,24.6872 17.5,38.1248 17.5,13.4376 49.6875,13.4376 15.9374,0 30,-2.344 14.0625,-2.3432 25.9374,-7.0312 z"
           id="path4616"
           inkscape:connector-curvature="0"
           style="font-style:normal;font-weight:normal;font-size:medium;line-height:125%;font-family:sans-serif;letter-spacing:0px;word-spacing:0px;fill:#000000;fill-opacity:1;stroke:none;stroke-width:1px;stroke-linecap:butt;stroke-linejoin:miter;stroke-opacity:1" /><path
           d="m 6417.4687,3601.6378 0,-49.6872 59.2188,0 0,-22.344 -59.2188,0 0,-95 q 0,-21.4064 5.7813,-27.5 5.9375,-6.0936 23.9062,-6.0936 l 29.5313,0 0,-24.0624 -29.5313,0 q -33.2812,0 -45.9375,12.3432 -12.6562,12.5 -12.6562,45.3128 l 0,95 -21.0938,0 0,22.344 21.0938,0 0,49.6872 28.9062,0 z"
           id="path4618"
           inkscape:connector-curvature="0"
           style="font-style:normal;font-weight:normal;font-size:medium;line-height:125%;font-family:sans-serif;letter-spacing:0px;word-spacing:0px;fill:#000000;fill-opacity:1;stroke:none;stroke-width:1px;stroke-linecap:butt;stroke-linejoin:miter;stroke-opacity:1" /><path
           d="m 6354.3594,3015.794 62.4023,0 q 27.8321,0 42.6758,-12.4024 14.9414,-12.3048 14.9414,-35.156 0,-22.9496 -14.9414,-35.352 -14.8437,-12.3048 -42.6758,-12.3048 l -24.8047,0 0,-50.5856 -37.5976,0 0,145.8008 z m 37.5976,-27.2464 0,-40.7224 20.8008,0 q 10.9375,0 16.8945,5.2736 5.9571,5.3712 5.9571,15.1368 0,9.7656 -5.9571,15.0392 -5.957,5.2728 -16.8945,5.2728 l -20.8008,0 z"
           id="path4621"
           inkscape:connector-curvature="0"
           style="font-style:normal;font-variant:normal;font-weight:bold;font-stretch:normal;font-size:medium;line-height:125%;font-family:sans-serif;-inkscape-font-specification:'sans-serif Bold';letter-spacing:0px;word-spacing:0px;fill:#000000;fill-opacity:1;stroke:none;stroke-width:1px;stroke-linecap:butt;stroke-linejoin:miter;stroke-opacity:1" /><path
           d="m 6499.2813,3021.946 34.9609,0 0,-151.9528 -34.9609,0 0,151.9528 z"
           id="path4623"
           inkscape:connector-curvature="0"
           style="font-style:normal;font-variant:normal;font-weight:bold;font-stretch:normal;font-size:medium;line-height:125%;font-family:sans-serif;-inkscape-font-specification:'sans-serif Bold';letter-spacing:0px;word-spacing:0px;fill:#000000;fill-opacity:1;stroke:none;stroke-width:1px;stroke-linecap:butt;stroke-linejoin:miter;stroke-opacity:1" /><path
           d="m 6617.0547,2919.2116 q -10.9375,0 -16.5039,-3.7104 -5.4688,-3.7112 -5.4688,-10.9376 0,-6.6408 4.3946,-10.4496 4.4921,-3.7104 12.4023,-3.7104 9.8633,0 16.6016,7.0312 6.7382,7.1288 6.7382,17.7736 l 0,4.0032 -18.164,0 z m 53.4179,13.184 0,-62.4024 -35.2539,0 0,16.2112 q -7.0312,-9.9616 -15.8203,-14.5512 -8.789,-4.492 -21.3867,-4.492 -16.9922,0 -27.6367,9.8632 -10.5468,9.9608 -10.5468,25.7816 0,19.2376 13.1835,28.2224 13.2813,8.984 41.6016,8.984 l 20.6054,0 0,2.7344 q 0,8.3008 -6.5429,12.1096 -6.543,3.9064 -20.4102,3.9064 -11.2305,0 -20.8984,-2.2464 -9.668,-2.2456 -17.9688,-6.7384 l 0,26.6608 q 11.2305,2.7344 22.5586,4.1016 11.3281,1.4648 22.6563,1.4648 29.5898,0 42.6757,-11.7192 13.1836,-11.6208 13.1836,-37.8904 z"
           id="path4625"
           inkscape:connector-curvature="0"
           style="font-style:normal;font-variant:normal;font-weight:bold;font-stretch:normal;font-size:medium;line-height:125%;font-family:sans-serif;-inkscape-font-specification:'sans-serif Bold';letter-spacing:0px;word-spacing:0px;fill:#000000;fill-opacity:1;stroke:none;stroke-width:1px;stroke-linecap:butt;stroke-linejoin:miter;stroke-opacity:1" /><path
           d="m 6791.5664,2975.95 0,-28.5152 q -7.1289,4.8824 -14.3554,7.2264 -7.129,2.344 -14.8438,2.344 -14.6485,0 -22.8516,-8.5944 -8.1054,-8.496 -8.1054,-23.828 0,-15.332 8.1054,-23.9256 8.2031,-8.496 22.8516,-8.496 8.2031,0 15.5274,2.4416 7.4218,2.4408 13.6718,7.2264 l 0,-28.6136 q -8.2031,-3.0272 -16.6992,-4.492 -8.3985,-1.5624 -16.8946,-1.5624 -29.5898,0 -46.289,15.1368 -16.6992,15.2344 -16.6992,42.2848 0,27.0512 16.6992,42.188 16.6992,15.2344 46.289,15.2344 8.5938,0 16.8946,-1.5632 8.3984,-1.4648 16.6992,-4.492 z"
           id="path4627"
           inkscape:connector-curvature="0"
           style="font-style:normal;font-variant:normal;font-weight:bold;font-stretch:normal;font-size:medium;line-height:125%;font-family:sans-serif;-inkscape-font-specification:'sans-serif Bold';letter-spacing:0px;word-spacing:0px;fill:#000000;fill-opacity:1;stroke:none;stroke-width:1px;stroke-linecap:butt;stroke-linejoin:miter;stroke-opacity:1" /><path
           d="m 6931.1172,2924.974 0,-9.9616 -81.7383,0 q 1.2695,-12.304 8.8867,-18.4568 7.6172,-6.152 21.2891,-6.152 11.0351,0 22.5586,3.2224 11.6211,3.32 23.8281,9.9608 l 0,-26.9528 q -12.4024,-4.688 -24.8047,-7.0312 -12.4023,-2.4416 -24.8047,-2.4416 -29.6874,0 -46.1914,15.0392 -16.4062,15.1368 -16.4062,42.3824 0,26.7584 16.1133,42.0904 16.2109,15.332 44.5312,15.332 25.7813,0 41.2109,-15.528 15.5274,-15.5272 15.5274,-41.5032 z m -35.9375,11.6208 q 0,9.9608 -5.8594,16.0152 -5.7617,6.1528 -15.1367,6.1528 -10.1562,0 -16.5039,-5.7616 -6.3477,-5.664 -7.9102,-16.4064 l 45.4102,0 z"
           id="path4629"
           inkscape:connector-curvature="0"
           style="font-style:normal;font-variant:normal;font-weight:bold;font-stretch:normal;font-size:medium;line-height:125%;font-family:sans-serif;-inkscape-font-specification:'sans-serif Bold';letter-spacing:0px;word-spacing:0px;fill:#000000;fill-opacity:1;stroke:none;stroke-width:1px;stroke-linecap:butt;stroke-linejoin:miter;stroke-opacity:1" /><path
           inkscape:connector-curvature="0"
           id="path4632"
           style="font-style:normal;font-variant:normal;font-weight:bold;font-stretch:normal;font-size:25px;line-height:125%;font-family:sans-serif;-inkscape-font-specification:'sans-serif Bold';letter-spacing:0px;word-spacing:0px;fill:#000000;fill-opacity:1;stroke:none;stroke-width:1px;stroke-linecap:butt;stroke-linejoin:miter;stroke-opacity:1"
           d="m 4373.176,2793.8404 q -17.1875,0 -26.6601,-12.6952 -9.4727,-12.6952 -9.4727,-35.7424 0,-22.9488 9.4727,-35.644 9.4726,-12.6952 26.6601,-12.6952 17.2852,0 26.7578,12.6952 9.4727,12.6952 9.4727,35.644 0,23.0472 -9.4727,35.7424 -9.4726,12.6952 -26.7578,12.6952 z m 0,27.2464 q 35.1563,0 55.0781,-20.1176 19.9219,-20.1168 19.9219,-55.5664 0,-35.3512 -19.9219,-55.4688 -19.9218,-20.1168 -55.0781,-20.1168 -35.0586,0 -55.0781,20.1168 -19.9219,20.1176 -19.9219,55.4688 0,35.4496 19.9219,55.5664 20.0195,20.1176 55.0781,20.1176 z" /><path
           inkscape:connector-curvature="0"
           id="path4634"
           style="font-style:normal;font-variant:normal;font-weight:bold;font-stretch:normal;font-size:25px;line-height:125%;font-family:sans-serif;-inkscape-font-specification:'sans-serif Bold';letter-spacing:0px;word-spacing:0px;fill:#000000;fill-opacity:1;stroke:none;stroke-width:1px;stroke-linecap:butt;stroke-linejoin:miter;stroke-opacity:1"
           d="m 4584.8948,2739.2508 0,-66.6016 -35.1563,0 0,10.84 0,40.1368 q 0,14.16 -0.684,19.5312 -0.5856,5.3712 -2.1484,7.9096 -2.0508,3.4184 -5.5665,5.2736 -3.5156,1.9536 -8.0077,1.9536 -10.9375,0 -17.1875,-8.496 -6.25,-8.3992 -6.25,-23.34 l 0,-53.8088 -34.961,0 0,109.3752 34.961,0 0,-16.016 q 7.9101,9.5704 16.7968,14.0624 8.8868,4.5904 19.6289,4.5904 18.9454,0 28.711,-11.6216 9.8633,-11.6208 9.8633,-33.7888 z" /><path
           inkscape:connector-curvature="0"
           id="path4636"
           style="font-style:normal;font-variant:normal;font-weight:bold;font-stretch:normal;font-size:25px;line-height:125%;font-family:sans-serif;-inkscape-font-specification:'sans-serif Bold';letter-spacing:0px;word-spacing:0px;fill:#000000;fill-opacity:1;stroke:none;stroke-width:1px;stroke-linecap:butt;stroke-linejoin:miter;stroke-opacity:1"
           d="m 4772.4924,2778.606 0,-26.5624 q -11.2304,4.6872 -21.6796,7.0312 -10.4493,2.344 -19.7266,2.344 -9.961,0 -14.8438,-2.5392 -4.7852,-2.4416 -4.7852,-7.6168 0,-4.1992 3.6133,-6.4456 3.711,-2.2464 13.1836,-3.32 l 6.1524,-0.8792 q 26.8555,-3.4184 36.1328,-11.2304 9.2774,-7.8128 9.2774,-24.512 0,-17.48 -12.8907,-26.2696 -12.8906,-8.7888 -38.4765,-8.7888 -10.8399,0 -22.461,1.7576 -11.5234,1.66 -23.7305,5.0784 l 0,26.5624 q 10.4492,-5.0784 21.3868,-7.6176 11.0352,-2.5384 22.3632,-2.5384 10.254,0 15.4297,2.832 5.1758,2.832 5.1758,8.3984 0,4.6872 -3.6133,6.9336 -3.5156,2.3432 -14.1602,3.6128 l -6.1523,0.784 q -23.3398,2.9296 -32.7148,10.84 -9.375,7.9096 -9.375,24.0232 0,17.3832 11.9141,25.7816 11.914,8.3984 36.5234,8.3984 9.668,0 20.3125,-1.4648 10.6445,-1.4656 23.1445,-4.5904 z" /><path
           inkscape:connector-curvature="0"
           id="path4638"
           style="font-style:normal;font-variant:normal;font-weight:bold;font-stretch:normal;font-size:25px;line-height:125%;font-family:sans-serif;-inkscape-font-specification:'sans-serif Bold';letter-spacing:0px;word-spacing:0px;fill:#000000;fill-opacity:1;stroke:none;stroke-width:1px;stroke-linecap:butt;stroke-linejoin:miter;stroke-opacity:1"
           d="m 4844.3674,2813.0788 0,-31.0544 36.0352,0 0,-25 -36.0352,0 0,-46.3872 q 0,-7.6168 3.0274,-10.3512 3.0273,-2.6368 12.0117,-2.6368 l 17.9687,0 0,-25 -29.9804,0 q -20.7032,0 -29.3946,8.5936 -8.5937,8.6912 -8.5937,29.3944 l 0,46.3872 -17.3829,0 0,25 17.3829,0 0,31.0544 34.9609,0 z" /><path
           inkscape:connector-curvature="0"
           id="path4640"
           style="font-style:normal;font-variant:normal;font-weight:bold;font-stretch:normal;font-size:25px;line-height:125%;font-family:sans-serif;-inkscape-font-specification:'sans-serif Bold';letter-spacing:0px;word-spacing:0px;fill:#000000;fill-opacity:1;stroke:none;stroke-width:1px;stroke-linecap:butt;stroke-linejoin:miter;stroke-opacity:1"
           d="m 4950.9104,2721.8676 q -10.9375,0 -16.5039,-3.7104 -5.4688,-3.7112 -5.4688,-10.9376 0,-6.6408 4.3946,-10.4496 4.4921,-3.7104 12.4023,-3.7104 9.8633,0 16.6016,7.0312 6.7382,7.1288 6.7382,17.7736 l 0,4.0032 -18.164,0 z m 53.418,13.184 0,-62.4024 -35.254,0 0,16.2112 q -7.0312,-9.9616 -15.8203,-14.5512 -8.789,-4.492 -21.3867,-4.492 -16.9922,0 -27.6367,9.8632 -10.5469,9.9608 -10.5469,25.7816 0,19.2376 13.1836,28.2224 13.2813,8.984 41.6016,8.984 l 20.6054,0 0,2.7344 q 0,8.3008 -6.5429,12.1096 -6.543,3.9064 -20.4102,3.9064 -11.2305,0 -20.8984,-2.2464 -9.668,-2.2456 -17.9688,-6.7384 l 0,26.6608 q 11.2305,2.7344 22.5587,4.1016 11.328,1.4648 22.6562,1.4648 29.5898,0 42.6758,-11.7192 13.1836,-11.6208 13.1836,-37.8904 z" /><path
           inkscape:connector-curvature="0"
           id="path4642"
           style="font-style:normal;font-variant:normal;font-weight:bold;font-stretch:normal;font-size:25px;line-height:125%;font-family:sans-serif;-inkscape-font-specification:'sans-serif Bold';letter-spacing:0px;word-spacing:0px;fill:#000000;fill-opacity:1;stroke:none;stroke-width:1px;stroke-linecap:butt;stroke-linejoin:miter;stroke-opacity:1"
           d="m 5111.4572,2691.2036 q -7.2265,-9.5704 -15.9179,-14.0624 -8.6914,-4.492 -20.1172,-4.492 -20.0195,0 -33.1054,15.7224 -13.086,15.8208 -13.086,40.2344 0,24.512 13.086,40.1368 13.0859,15.7224 33.1054,15.7224 11.4258,0 20.1172,-4.492 8.6914,-4.492 15.9179,-14.16 l 0,16.2112 35.1563,0 0,-98.34 q 0,-26.3672 -16.6992,-40.2344 -16.6015,-13.9648 -48.2422,-13.9648 -10.2539,0 -19.8242,1.5624 -9.5703,1.5624 -19.2383,4.7848 l 0,27.2464 q 9.1797,-5.2736 17.9688,-7.8128 8.789,-2.636 17.6757,-2.636 17.1875,0 25.1954,7.5192 8.0077,7.5192 8.0077,23.5352 l 0,7.5192 z m -23.0468,68.0664 q -10.8399,0 -16.8945,-8.0072 -6.0547,-8.008 -6.0547,-22.6568 0,-15.0392 5.8593,-22.8512 5.8595,-7.7152 17.0899,-7.7152 10.9375,0 16.9922,8.008 6.0546,8.008 6.0546,22.5584 0,14.6488 -6.0546,22.6568 -6.0547,8.0072 -16.9922,8.0072 z" /><path
           inkscape:connector-curvature="0"
           id="path4644"
           style="font-style:normal;font-variant:normal;font-weight:bold;font-stretch:normal;font-size:25px;line-height:125%;font-family:sans-serif;-inkscape-font-specification:'sans-serif Bold';letter-spacing:0px;word-spacing:0px;fill:#000000;fill-opacity:1;stroke:none;stroke-width:1px;stroke-linecap:butt;stroke-linejoin:miter;stroke-opacity:1"
           d="m 5289.5823,2727.63 0,-9.9616 -81.7383,0 q 1.2695,-12.304 8.8867,-18.4568 7.6172,-6.152 21.2891,-6.152 11.0351,0 22.5586,3.2224 11.6211,3.32 23.8281,9.9608 l 0,-26.9528 q -12.4024,-4.688 -24.8047,-7.0312 -12.4023,-2.4416 -24.8047,-2.4416 -29.6875,0 -46.1914,15.0392 -16.4062,15.1368 -16.4062,42.3824 0,26.7584 16.1133,42.0904 16.2108,15.332 44.5312,15.332 25.7812,0 41.2109,-15.528 15.5274,-15.5272 15.5274,-41.5032 z m -35.9375,11.6208 q 0,9.9608 -5.8594,16.0152 -5.7618,6.1528 -15.1367,6.1528 -10.1563,0 -16.5039,-5.7616 -6.3477,-5.664 -7.9102,-16.4064 l 45.4102,0 z" /><path
           sodipodi:nodetypes="cccc"
           inkscape:connector-curvature="0"
           id="rect4746"
           d="m 6311.4755,2137.1404 0,-280.3233 -1687.3959,0 0,280.3233"
           style="fill:none;fill-opacity:1;stroke:#ff0000;stroke-width:3.14129806;stroke-miterlimit:4;stroke-dasharray:none;stroke-opacity:1" /></g></g></g></svg>