<?xml version="1.0" encoding="UTF-8" standalone="no"?>
<svg
   xmlns:dc="http://purl.org/dc/elements/1.1/"
   xmlns:cc="http://creativecommons.org/ns#"
   xmlns:rdf="http://www.w3.org/1999/02/22-rdf-syntax-ns#"
   xmlns:svg="http://www.w3.org/2000/svg"
   xmlns="http://www.w3.org/2000/svg"
   xmlns:xlink="http://www.w3.org/1999/xlink"
   xmlns:sodipodi="http://sodipodi.sourceforge.net/DTD/sodipodi-0.dtd"
   xmlns:inkscape="http://www.inkscape.org/namespaces/inkscape"
   width="3543.3069"
   height="2125.9841"
   id="svg3035"
   version="1.1"
   inkscape:version="0.91 r13725"
   sodipodi:docname="15mm_margin_top_upper_right.svg">
  <metadata
     id="metadata3080">
    <rdf:RDF>
      <cc:Work
         rdf:about="">
        <dc:format>image/svg+xml</dc:format>
        <dc:type
           rdf:resource="http://purl.org/dc/dcmitype/StillImage" />
        <dc:title />
      </cc:Work>
    </rdf:RDF>
  </metadata>
  <sodipodi:namedview
     pagecolor="#ffffff"
     bordercolor="#666666"
     borderopacity="1"
     objecttolerance="10"
     gridtolerance="10"
     guidetolerance="10"
     inkscape:pageopacity="0"
     inkscape:pageshadow="2"
     inkscape:window-width="1366"
     inkscape:window-height="706"
     id="namedview3078"
     showgrid="false"
     inkscape:document-units="mm"
     units="mm"
     inkscape:zoom="0.15025552"
     inkscape:cx="1518.4902"
     inkscape:cy="944.54369"
     inkscape:window-x="-8"
     inkscape:window-y="-8"
     inkscape:window-maximized="1"
     inkscape:current-layer="g3054" />
  <desc
     id="desc3037">/home/kamascience/ArenaMetabot/laser/groundfrominventor/upper_right.dxf - scale = 1.000000</desc>
  <defs
     id="defs3039">
    <marker
       id="DistanceX"
       orient="auto"
       refX="0"
       refY="0"
       style="overflow:visible">
      <path
         d="M 3,-3 -3,3 M 0,-5 0,5"
         style="stroke:#000000;stroke-width:0.5"
         id="path3042"
         inkscape:connector-curvature="0" />
    </marker>
    <pattern
       height="8"
       id="Hatch"
       patternUnits="userSpaceOnUse"
       width="8"
       x="0"
       y="0">
      <path
         d="M8 4 l-4,4"
         linecap="square"
         stroke="#000000"
         stroke-width="0.25"
         id="path3045" />
      <path
         d="M6 2 l-4,4"
         linecap="square"
         stroke="#000000"
         stroke-width="0.25"
         id="path3047" />
      <path
         d="M4 0 l-4,4"
         linecap="square"
         stroke="#000000"
         stroke-width="0.25"
         id="path3049" />
    </pattern>
    <symbol
       id="*Model_Space" />
    <symbol
       id="*Paper_Space" />
    <symbol
       id="*Paper_Space0" />
  </defs>
  <g
     inkscape:groupmode="layer"
     inkscape:label="0"
     id="g3054"
     transform="translate(0,1073.622)">
    <g
       id="g3082"
       transform="matrix(0,1,-1,0,841.18961,3043.9486)"
       style="stroke:#ff0000;stroke-opacity:1;fill:none">
      <path
         inkscape:connector-curvature="0"
         id="path3056"
         style="fill:none;stroke:#ff0000;stroke-linecap:round;stroke-opacity:1"
         d="m -3782.3424,840.68961 0,-246.25984 -159.4488,0 0,-37.20473 159.4488,0 0,-70.86614 37.2048,0 0,70.86614 159.4488,0 0,37.20473 -159.4488,0 0,246.25984"
         sodipodi:nodetypes="cccccccccccc" />
      <path
         inkscape:connector-curvature="0"
         id="path3058"
         style="fill:none;stroke:#ff0000;stroke-linecap:round;stroke-opacity:1"
         d="m -3919.6455,-7.0466123 a 5.314961,5.314961 0 1 0 -10.6299,0 5.314961,5.314961 0 1 0 10.6299,0 z" />
      <path
         inkscape:connector-curvature="0"
         id="path3060"
         style="fill:none;stroke:#ff0000;stroke-linecap:round;stroke-opacity:1"
         d="m -3919.6455,-83.227714 a 5.314961,5.314961 0 1 0 -10.6299,0 5.314961,5.314961 0 1 0 10.6299,0 z" />
      <path
         inkscape:connector-curvature="0"
         id="path3062"
         style="fill:none;stroke:#ff0000;stroke-linecap:round;stroke-opacity:1"
         d="m -3673.3857,-7.0466123 a 5.314961,5.314961 0 1 0 -10.6299,0 5.314961,5.314961 0 1 0 10.6299,0 z" />
      <path
         inkscape:connector-curvature="0"
         id="path3064"
         style="fill:none;stroke:#ff0000;stroke-linecap:round;stroke-opacity:1"
         d="m -3673.3857,-83.227714 a 5.314961,5.314961 0 1 0 -10.6299,0 5.314961,5.314961 0 1 0 10.6299,0 z" />
      <path
         inkscape:connector-curvature="0"
         id="path3066"
         style="fill:none;stroke:#ff0000;stroke-linecap:round;stroke-opacity:1"
         d="m -3758.425,-168.26708 a 5.315,5.315 0 1 0 -10.63,0 5.315,5.315 0 1 0 10.63,0 z" />
      <path
         inkscape:connector-curvature="0"
         id="path3068"
         style="fill:none;stroke:#ff0000;stroke-linecap:round;stroke-opacity:1"
         d="m -3758.425,77.992758 a 5.315,5.315 0 1 0 -10.63,0 5.315,5.315 0 1 0 10.63,0 z" />
      <path
         inkscape:connector-curvature="0"
         id="path3070"
         style="fill:none;stroke:#ff0000;stroke-linecap:round;stroke-opacity:1"
         d="m -3834.6061,77.992758 a 5.315,5.315 0 1 0 -10.63,0 5.315,5.315 0 1 0 10.63,0 z" />
      <path
         inkscape:connector-curvature="0"
         id="path3072"
         style="fill:none;stroke:#ff0000;stroke-linecap:round;stroke-opacity:1"
         d="m -3834.6061,-168.26708 a 5.315,5.315 0 1 0 -10.63,0 5.315,5.315 0 1 0 10.63,0 z" />
      <path
         inkscape:connector-curvature="0"
         id="path3074"
         style="fill:none;stroke:#ff0000;stroke-linecap:round;stroke-opacity:1"
         d="m -3581.2597,-45.137163 a 7.086614,7.086614 0 1 0 -14.1732,0 7.086614,7.086614 0 0 0 14.1732,0 z" />
      <path
         inkscape:connector-curvature="0"
         id="path3076"
         style="fill:none;stroke:#ff0000;stroke-linecap:round;stroke-opacity:1"
         d="m -3097.5983,-45.137163 a 7.086614,7.086614 0 1 0 -14.1732,0 7.086614,7.086614 0 1 0 14.1732,0 z" />
    </g>
    <rect
       style="fill:none;stroke:#00ffff;stroke-width:0.3665303;stroke-miterlimit:4;stroke-dasharray:none;stroke-dashoffset:0;stroke-opacity:1"
       id="rect3097"
       width="2834.6348"
       height="2072.468"
       x="0.18270141"
       y="-1020.2887" />
    <path
       style="fill:none;fill-opacity:1;stroke:none;stroke-width:0.35433072;stroke-linecap:butt;stroke-linejoin:miter;stroke-miterlimit:4;stroke-dasharray:none;stroke-opacity:1"
       d="m 2479.7839,-671.96271 c 0,0 -372.3492,205.26122 -577.1855,211.81118 -229.9818,7.35403 -661.9099,-195.92534 -661.9099,-195.92534"
       id="path4548"
       inkscape:connector-curvature="0"
       sodipodi:nodetypes="cac" />
    <text
       xml:space="preserve"
       style="font-style:normal;font-variant:normal;font-weight:normal;font-stretch:normal;font-size:100px;line-height:125%;font-family:Serif;-inkscape-font-specification:Serif;text-align:center;letter-spacing:0px;word-spacing:0px;text-anchor:middle;fill:none;fill-opacity:1;stroke:#0000ff;stroke-width:0.33362287;stroke-miterlimit:4;stroke-dasharray:none;stroke-opacity:1"
       id="text4558"
       sodipodi:linespacing="125%"
       transform="matrix(1.0620696,0,0,1.0620696,-127.56488,45.954312)"><textPath
         xlink:href="#path4548"
         startOffset="50%"
         id="textPath4564"><tspan
   style="fill:none;fill-opacity:1;stroke:#0000ff;stroke-width:0.33362287;stroke-miterlimit:4;stroke-dasharray:none;stroke-opacity:1"
   id="tspan4560"><tspan
     id="tspan4562"
     style="font-size:120px;font-family:TakaoPGothic;-inkscape-font-specification:TakaoPGothic;fill:none;fill-opacity:1;stroke:#0000ff;stroke-width:0.33362287;stroke-miterlimit:4;stroke-dasharray:none;stroke-opacity:1"
     y="147.29793"
     x="1562.8828">Lunar Craters</tspan></tspan></textPath></text>
    <path
       sodipodi:type="arc"
       style="fill:none;stroke:#ff0000;stroke-width:0.35433072;stroke-miterlimit:4;stroke-opacity:1;stroke-dasharray:none;stroke-dashoffset:0"
       id="path4580"
       sodipodi:cx="1301.2969"
       sodipodi:cy="1393.0698"
       sodipodi:rx="144.58855"
       sodipodi:ry="134.61693"
       d="m 1445.8854,1393.0698 a 144.58855,134.61693 0 0 1 -144.5885,134.617 144.58855,134.61693 0 0 1 -144.5886,-134.617 144.58855,134.61693 0 0 1 144.5886,-134.6169 144.58855,134.61693 0 0 1 144.5885,134.6169 z"
       transform="matrix(1.2200756,0,0,1.3104515,-374.17586,-1597.7995)" />
    <circle
       style="fill:none;stroke:#ff0000;stroke-width:0.22039536;stroke-miterlimit:4;stroke-dasharray:none;stroke-dashoffset:0;stroke-opacity:1"
       id="path4580-4"
       cx="2064.3535"
       cy="419.05029"
       r="86.778152" />
    <path
       sodipodi:type="arc"
       style="fill:none;stroke:#ff0000;stroke-width:0.35433072;stroke-miterlimit:4;stroke-opacity:1;stroke-dasharray:none;stroke-dashoffset:0"
       id="path4580-3"
       sodipodi:cx="1301.2969"
       sodipodi:cy="1393.0698"
       sodipodi:rx="144.58855"
       sodipodi:ry="134.61693"
       d="m 1445.8854,1393.0698 a 144.58855,134.61693 0 0 1 -144.5885,134.617 144.58855,134.61693 0 0 1 -144.5886,-134.617 144.58855,134.61693 0 0 1 144.5886,-134.6169 144.58855,134.61693 0 0 1 144.5885,134.6169 z"
       transform="matrix(0.97900237,0,0,1.051521,-77.377855,-601.9409)" />
    <path
       sodipodi:type="arc"
       style="fill:none;stroke:#ff0000;stroke-width:0.35433072;stroke-miterlimit:4;stroke-opacity:1;stroke-dasharray:none;stroke-dashoffset:0"
       id="path4580-6"
       sodipodi:cx="1301.2969"
       sodipodi:cy="1393.0698"
       sodipodi:rx="144.58855"
       sodipodi:ry="134.61693"
       d="m 1445.8854,1393.0698 a 144.58855,134.61693 0 0 1 -144.5885,134.617 144.58855,134.61693 0 0 1 -144.5886,-134.617 144.58855,134.61693 0 0 1 144.5886,-134.6169 144.58855,134.61693 0 0 1 144.5885,134.6169 z"
       transform="matrix(0.75514874,0,0,0.81108564,879.52809,-219.63238)" />
    <circle
       style="fill:none;stroke:#ff0000;stroke-width:0.45435905;stroke-miterlimit:4;stroke-dasharray:none;stroke-dashoffset:0;stroke-opacity:1"
       id="path4580-7"
       cx="2314.2402"
       cy="772.67444"
       r="178.8987" />
    <path
       sodipodi:type="arc"
       style="fill:none;stroke:#ff0000;stroke-width:0.35433072;stroke-miterlimit:4;stroke-opacity:1;stroke-dasharray:none;stroke-dashoffset:0"
       id="path4580-36"
       sodipodi:cx="1301.2969"
       sodipodi:cy="1393.0698"
       sodipodi:rx="144.58855"
       sodipodi:ry="134.61693"
       d="m 1445.8854,1393.0698 a 144.58855,134.61693 0 0 1 -144.5885,134.617 144.58855,134.61693 0 0 1 -144.5886,-134.617 144.58855,134.61693 0 0 1 144.5886,-134.6169 144.58855,134.61693 0 0 1 144.5885,134.6169 z"
       transform="matrix(1.2200755,0,0,1.3104515,341.82872,-1855.1094)" />
    <path
       sodipodi:type="arc"
       style="fill:none;stroke:#ff0000;stroke-width:0.35433072;stroke-miterlimit:4;stroke-opacity:1;stroke-dasharray:none;stroke-dashoffset:0"
       id="path4580-4-7"
       sodipodi:cx="1301.2969"
       sodipodi:cy="1393.0698"
       sodipodi:rx="144.58855"
       sodipodi:ry="134.61693"
       d="m 1445.8854,1393.0698 a 144.58855,134.61693 0 0 1 -144.5885,134.617 144.58855,134.61693 0 0 1 -144.5886,-134.617 144.58855,134.61693 0 0 1 144.5886,-134.6169 144.58855,134.61693 0 0 1 144.5885,134.6169 z"
       transform="matrix(0.61739261,0,0,0.66312535,749.66936,-302.69052)" />
    <path
       sodipodi:type="arc"
       style="fill:none;stroke:#ff0000;stroke-width:0.35433072;stroke-miterlimit:4;stroke-opacity:1;stroke-dasharray:none;stroke-dashoffset:0"
       id="path4580-4-8"
       sodipodi:cx="1301.2969"
       sodipodi:cy="1393.0698"
       sodipodi:rx="144.58855"
       sodipodi:ry="134.61693"
       d="m 1445.8854,1393.0698 a 144.58855,134.61693 0 0 1 -144.5885,134.617 144.58855,134.61693 0 0 1 -144.5886,-134.617 144.58855,134.61693 0 0 1 144.5886,-134.6169 144.58855,134.61693 0 0 1 144.5885,134.6169 z"
       transform="matrix(0.72070968,0,0,0.77409554,804.68406,-811.27239)" />
    <path
       style="fill:none;fill-rule:evenodd;stroke:#0000ff;stroke-width:0.35433071;stroke-linecap:butt;stroke-linejoin:miter;stroke-opacity:1;stroke-miterlimit:4;stroke-dasharray:none"
       d="m 893.41336,-1020.4725 c 0,2072.8346 0,2072.8346 0,2072.8346"
       id="path16273"
       inkscape:connector-curvature="0" />
    <path
       style="fill:none;fill-rule:evenodd;stroke:#0000ff;stroke-width:0.35433071;stroke-linecap:butt;stroke-linejoin:miter;stroke-miterlimit:4;stroke-dasharray:none;stroke-opacity:1"
       d="m 878.91732,-1020.4725 c 0,2072.8346 0,2072.8346 0,2072.8346"
       id="path16273-5"
       inkscape:connector-curvature="0" />
    <ellipse
       ry="125.08142"
       rx="125.08144"
       cy="118.21542"
       cx="2430.6638"
       style="fill:none;stroke:#ff0000;stroke-width:0.3595089;stroke-miterlimit:4;stroke-dasharray:none;stroke-dashoffset:0;stroke-opacity:1"
       id="path4580-3-6" />
    <g
       id="g16332"
       transform="translate(19.5504,94.120592)">
      <path
         sodipodi:nodetypes="cssssssscc"
         inkscape:connector-curvature="0"
         id="path4548-0"
         d="m 2460.2335,-766.0833 c 0,0 -23.2718,12.82882 -61.3801,32.1744 -38.1083,19.34558 -91.0531,45.20791 -150.399,71.27493 -59.346,26.06702 -125.093,52.33872 -188.8059,72.50305 -63.7128,20.16432 -125.3914,34.22126 -176.6005,35.85875 -57.4955,1.83851 -127.6125,-9.48757 -200.447,-27.51085 -72.8344,-18.02328 -148.3863,-42.74376 -216.7511,-67.69405 -68.3649,-24.9503 -129.5428,-50.1304 -173.6296,-69.07294 -44.0867,-18.94253 -71.0822,-31.64749 -71.0822,-31.64749 z"
         style="fill:none;fill-opacity:1;stroke:#0000ff;stroke-width:0.35433072;stroke-linecap:butt;stroke-linejoin:miter;stroke-miterlimit:4;stroke-dasharray:none;stroke-opacity:1" />
      <path
         inkscape:connector-curvature="0"
         id="path16330"
         d="m 1334.7107,-700.63361 c 996.3204,0 996.3204,0 996.3204,0"
         style="fill:none;fill-rule:evenodd;stroke:#0000ff;stroke-width:0.35433072;stroke-linecap:butt;stroke-linejoin:miter;stroke-miterlimit:4;stroke-dasharray:none;stroke-opacity:1" />
    </g>
  </g>
</svg>
