<?xml version="1.0" encoding="UTF-8" standalone="no"?>
<svg
   xmlns:dc="http://purl.org/dc/elements/1.1/"
   xmlns:cc="http://creativecommons.org/ns#"
   xmlns:rdf="http://www.w3.org/1999/02/22-rdf-syntax-ns#"
   xmlns:svg="http://www.w3.org/2000/svg"
   xmlns="http://www.w3.org/2000/svg"
   xmlns:sodipodi="http://sodipodi.sourceforge.net/DTD/sodipodi-0.dtd"
   xmlns:inkscape="http://www.inkscape.org/namespaces/inkscape"
   width="3543.3069"
   height="2125.9841"
   id="svg5531"
   version="1.1"
   inkscape:version="0.91 r13725"
   sodipodi:docname="no_margin_lower_right.svg">
  <metadata
     id="metadata5556">
    <rdf:RDF>
      <cc:Work
         rdf:about="">
        <dc:format>image/svg+xml</dc:format>
        <dc:type
           rdf:resource="http://purl.org/dc/dcmitype/StillImage" />
        <dc:title />
      </cc:Work>
    </rdf:RDF>
  </metadata>
  <sodipodi:namedview
     pagecolor="#ffffff"
     bordercolor="#666666"
     borderopacity="1"
     objecttolerance="10"
     gridtolerance="10"
     guidetolerance="10"
     inkscape:pageopacity="0"
     inkscape:pageshadow="2"
     inkscape:window-width="1366"
     inkscape:window-height="706"
     id="namedview5554"
     showgrid="false"
     inkscape:document-units="mm"
     units="mm"
     inkscape:zoom="0.16321964"
     inkscape:cx="1776.452"
     inkscape:cy="876.95636"
     inkscape:window-x="-8"
     inkscape:window-y="-8"
     inkscape:window-maximized="1"
     inkscape:current-layer="g5550" />
  <desc
     id="desc5533">/home/kamascience/ArenaMetabot/laser/groundfrominventor/lower_right.dxf - scale = 1.000000</desc>
  <defs
     id="defs5535">
    <marker
       id="DistanceX"
       orient="auto"
       refX="0"
       refY="0"
       style="overflow:visible">
      <path
         d="M 3,-3 -3,3 M 0,-5 0,5"
         style="stroke:#000000;stroke-width:0.5"
         id="path5538"
         inkscape:connector-curvature="0" />
    </marker>
    <pattern
       height="8"
       id="Hatch"
       patternUnits="userSpaceOnUse"
       width="8"
       x="0"
       y="0">
      <path
         d="M8 4 l-4,4"
         linecap="square"
         stroke="#000000"
         stroke-width="0.25"
         id="path5541" />
      <path
         d="M6 2 l-4,4"
         linecap="square"
         stroke="#000000"
         stroke-width="0.25"
         id="path5543" />
      <path
         d="M4 0 l-4,4"
         linecap="square"
         stroke="#000000"
         stroke-width="0.25"
         id="path5545" />
    </pattern>
    <symbol
       id="*Model_Space" />
    <symbol
       id="*Paper_Space" />
    <symbol
       id="*Paper_Space0" />
  </defs>
  <g
     inkscape:groupmode="layer"
     inkscape:label="0"
     id="g5550"
     transform="translate(0,1073.622)">
    <path
       d="m 0.5,678.92913 246.2599,0 0,-159.44885 37.2047,0 0,159.44885 70.8661,0 0,37.2047 -70.8661,0 0,159.4488 -37.2047,0 0,-159.4488 -246.2599,0"
       style="fill:none;stroke:#ff0000;stroke-width:0.35433072;stroke-linecap:round;stroke-miterlimit:4;stroke-dasharray:none;stroke-opacity:1"
       id="path5552"
       inkscape:connector-curvature="0"
       sodipodi:nodetypes="cccccccccccc" />
    <path
       style="fill:none;stroke:#0000ff;stroke-width:0.35433071;stroke-linecap:butt;stroke-linejoin:miter;stroke-miterlimit:4;stroke-opacity:1;stroke-dasharray:none"
       d="m 884.19439,-364.42165 -4.9152,1239.07939"
       id="path3990"
       inkscape:connector-curvature="0" />
    <path
       style="fill:none;stroke:#0000ff;stroke-width:0.35433071;stroke-linecap:butt;stroke-linejoin:miter;stroke-miterlimit:4;stroke-opacity:1;stroke-dasharray:none"
       d="m 898.37362,-364.42125 -4.9209,1239.07869"
       id="path3990-1"
       inkscape:connector-curvature="0" />
    <flowRoot
       xml:space="preserve"
       id="flowRoot5732"
       style="font-size:100px;font-style:normal;font-weight:normal;text-align:center;line-height:125%;letter-spacing:0px;word-spacing:0px;text-anchor:middle;fill:none;stroke:#0000ff;stroke-opacity:1;font-family:Sans;stroke-width:0.35433071;stroke-miterlimit:4;stroke-dasharray:none"
       transform="translate(-184.50592,-1004.5504)"><flowRegion
         id="flowRegion5734"><rect
           id="rect5736"
           width="419.16119"
           height="173.9073"
           x="1110.3313"
           y="1778.1696"
           style="font-size:100px;text-align:center;text-anchor:middle;fill:none;stroke:#0000ff;stroke-opacity:1;stroke-width:0.35433071;stroke-miterlimit:4;stroke-dasharray:none" /></flowRegion><flowPara
         id="flowPara5738">GG</flowPara></flowRoot>    <text
       xml:space="preserve"
       style="font-size:40px;font-style:normal;font-weight:normal;line-height:125%;letter-spacing:0px;word-spacing:0px;fill:#000000;fill-opacity:1;stroke:none;font-family:Sans"
       x="1471.5234"
       y="1666.6906"
       id="text5740"
       sodipodi:linespacing="125%"
       transform="translate(0,-1073.622)"><tspan
         sodipodi:role="line"
         id="tspan5742"
         x="1471.5234"
         y="1666.6906" /></text>
    <flowRoot
       xml:space="preserve"
       id="flowRoot5732-3"
       style="font-size:100px;font-style:normal;font-weight:normal;text-align:center;line-height:125%;letter-spacing:0px;word-spacing:0px;text-anchor:middle;fill:none;stroke:#0000ff;stroke-opacity:1;font-family:Sans;stroke-width:0.35433071;stroke-miterlimit:4;stroke-dasharray:none"
       transform="translate(1159.2099,-1003.1344)"><flowRegion
         id="flowRegion5734-9"><rect
           id="rect5736-4"
           width="419.16119"
           height="173.9073"
           x="1110.3313"
           y="1778.1696"
           style="font-size:100px;text-align:center;text-anchor:middle;fill:none;stroke:#0000ff;stroke-opacity:1;stroke-width:0.35433071;stroke-miterlimit:4;stroke-dasharray:none" /></flowRegion><flowPara
         id="flowPara5738-0">WP</flowPara></flowRoot>    <rect
       style="opacity:1;fill:none;fill-opacity:1;stroke:#00ffff;stroke-width:0.35433072;stroke-linecap:round;stroke-miterlimit:4;stroke-dasharray:none;stroke-opacity:1"
       id="rect17484"
       width="2834.2913"
       height="1416.9685"
       x="0.17716536"
       y="-364.78354" />
  </g>
</svg>
