<?xml version="1.0" encoding="UTF-8" standalone="no"?>
<!-- Created with Inkscape (http://www.inkscape.org/) -->

<svg
   xmlns:dc="http://purl.org/dc/elements/1.1/"
   xmlns:cc="http://creativecommons.org/ns#"
   xmlns:rdf="http://www.w3.org/1999/02/22-rdf-syntax-ns#"
   xmlns:svg="http://www.w3.org/2000/svg"
   xmlns="http://www.w3.org/2000/svg"
   xmlns:sodipodi="http://sodipodi.sourceforge.net/DTD/sodipodi-0.dtd"
   xmlns:inkscape="http://www.inkscape.org/namespaces/inkscape"
   width="3543.3069"
   height="2125.9841"
   viewBox="0 0 3543.3069 2125.9842"
   id="svg4212"
   version="1.1"
   inkscape:version="0.48.4 r9939"
   sodipodi:docname="metabarre_10mm.svg">
  <defs
     id="defs4214" />
  <sodipodi:namedview
     id="base"
     pagecolor="#ffffff"
     bordercolor="#666666"
     borderopacity="1.0"
     inkscape:pageopacity="0.0"
     inkscape:pageshadow="2"
     inkscape:zoom="0.35721463"
     inkscape:cx="802.32834"
     inkscape:cy="570.21822"
     inkscape:document-units="mm"
     inkscape:current-layer="layer1"
     showgrid="true"
     inkscape:window-width="1301"
     inkscape:window-height="744"
     inkscape:window-x="65"
     inkscape:window-y="24"
     inkscape:window-maximized="1"
     inkscape:snap-nodes="false"
     inkscape:snap-object-midpoints="false"
     units="mm"
     showguides="true"
     inkscape:guide-bbox="true"
     inkscape:snap-grids="true">
    <inkscape:grid
       type="xygrid"
       id="grid4805"
       empspacing="5"
       visible="true"
       enabled="true"
       snapvisiblegridlinesonly="true" />
  </sodipodi:namedview>
  <metadata
     id="metadata4217">
    <rdf:RDF>
      <cc:Work
         rdf:about="">
        <dc:format>image/svg+xml</dc:format>
        <dc:type
           rdf:resource="http://purl.org/dc/dcmitype/StillImage" />
        <dc:title />
      </cc:Work>
    </rdf:RDF>
  </metadata>
  <g
     inkscape:label="Calque 1"
     inkscape:groupmode="layer"
     id="layer1"
     transform="translate(0,1073.6218)">
    <rect
       y="-1052.0691"
       x="-1700.4062"
       height="176.57971"
       width="34.670254"
       id="rect8763-0-4-7"
       style="color:#000000;fill:none;stroke:#ff0000;stroke-width:0.58565217;stroke-linecap:round;stroke-linejoin:miter;stroke-miterlimit:4;stroke-opacity:1;stroke-dasharray:none;stroke-dashoffset:0;marker:none;visibility:visible;display:inline;overflow:visible;enable-background:accumulate"
       transform="scale(-1,-1)" />
    <rect
       y="-1052.0691"
       x="-105.9178"
       height="176.57971"
       width="34.670254"
       id="rect8763-0-4-2-2"
       style="color:#000000;fill:none;stroke:#ff0000;stroke-width:0.58565217;stroke-linecap:round;stroke-linejoin:miter;stroke-miterlimit:4;stroke-opacity:1;stroke-dasharray:none;stroke-dashoffset:0;marker:none;visibility:visible;display:inline;overflow:visible;enable-background:accumulate"
       transform="scale(-1,-1)" />
    <rect
       style="fill:none;stroke:#00ff00;stroke-width:1.0629921;stroke-miterlimit:4;stroke-opacity:1;stroke-dasharray:none"
       id="rect4752-6"
       width="1771.6536"
       height="885.82678"
       x="0.53144604"
       y="166.00368" />
    <g
       id="g5185"
       transform="translate(-354.12203,51.946279)">
      <rect
         style="color:#000000;fill:none;stroke:#ff0000;stroke-width:0.50760508;stroke-linecap:round;stroke-linejoin:miter;stroke-miterlimit:4;stroke-opacity:1;stroke-dasharray:none;stroke-dashoffset:0;marker:none;visibility:visible;display:inline;overflow:visible;enable-background:accumulate"
         id="rect8763-0-4-8-4"
         width="34.748299"
         height="176.65775"
         x="868.98407"
         y="166.08441" />
      <path
         sodipodi:open="true"
         d="m 532.31761,679.57161 c 0.23698,-205.23195 158.93838,-371.40369 354.4695,-371.15496 195.53109,0.24873 353.84829,166.82374 353.61139,372.05569 -10e-5,0.0695 -2e-4,0.13902 -3e-4,0.20852"
         sodipodi:end="6.2849584"
         sodipodi:start="3.1428046"
         sodipodi:ry="371.60559"
         sodipodi:rx="354.04068"
         sodipodi:cy="680.02197"
         sodipodi:cx="886.35803"
         sodipodi:type="arc"
         id="path4786-0-3"
         style="fill:none;stroke:#ff0000;stroke-width:0.29010695;stroke-miterlimit:4;stroke-opacity:1;stroke-dasharray:none"
         transform="translate(5.1907349e-5,-142.44132)" />
      <path
         inkscape:connector-curvature="0"
         id="path4807-3-5-6"
         d="m 1240.6891,537.87571 -708.66145,0"
         style="fill:none;stroke:#ff0000;stroke-width:0.51935166;stroke-linecap:butt;stroke-linejoin:miter;stroke-miterlimit:4;stroke-opacity:1;stroke-dasharray:none" />
      <path
         transform="matrix(-1,0,0,-1,5.1907349e-5,-142.44132)"
         sodipodi:open="true"
         d="m -1240.3988,-681.06249 c 0.237,-205.23195 158.9384,-371.40371 354.46948,-371.15491 195.53112,0.2487 353.84831,166.82369 353.61134,372.05564 -8e-5,0.0695 -1.8e-4,0.13902 -3e-4,0.20853"
         sodipodi:end="6.2849584"
         sodipodi:start="3.1428046"
         sodipodi:ry="371.60559"
         sodipodi:rx="354.04068"
         sodipodi:cy="-680.61212"
         sodipodi:cx="-886.3584"
         sodipodi:type="arc"
         id="path4786-0-9-1"
         style="fill:none;stroke:#ff0000;stroke-width:0.29010695;stroke-miterlimit:4;stroke-opacity:1;stroke-dasharray:none" />
      <rect
         transform="scale(-1,-1)"
         style="color:#000000;fill:none;stroke:#ff0000;stroke-width:0.50760508;stroke-linecap:round;stroke-linejoin:miter;stroke-miterlimit:4;stroke-opacity:1;stroke-dasharray:none;stroke-dashoffset:0;marker:none;visibility:visible;display:inline;overflow:visible;enable-background:accumulate"
         id="rect8763-0-4-8-9-4"
         width="34.748299"
         height="176.65775"
         x="-903.73236"
         y="-909.66705" />
    </g>
    <path
       style="fill:none;stroke:#ff0000;stroke-width:0.35433072;stroke-linecap:butt;stroke-linejoin:miter;stroke-miterlimit:4;stroke-opacity:1;stroke-dasharray:none"
       d="m 1772.8017,164.2855 c 0,0 -39.7614,70.41668 -56.6088,95.68781 -80,120.00001 -110,240.00002 -120,330.00003 -10,90.00001 0,150.00001 0,150.00001 0,0 21.4369,261.80405 -34.2941,237.67135 l -673.22824,1.7694 -4.36216,1.4872 -673.22837,-1.76945 c -55.73097,24.13275 -35.11525,-239.34633 -35.11525,-239.34633 0,0 10,-60 0,-150.00001 -10,-90 -40,-210.00001 -120.000007,-330.00001 C 39.117353,234.51437 0.17711535,165.7727 0.17711535,165.7727"
       id="path5194-1"
       inkscape:connector-curvature="0"
       sodipodi:nodetypes="cssccccccssc" />
    <g
       id="g5185-0"
       transform="translate(354.05878,51.946279)">
      <rect
         style="color:#000000;fill:none;stroke:#ff0000;stroke-width:0.50760508;stroke-linecap:round;stroke-linejoin:miter;stroke-miterlimit:4;stroke-opacity:1;stroke-dasharray:none;stroke-dashoffset:0;marker:none;visibility:visible;display:inline;overflow:visible;enable-background:accumulate"
         id="rect8763-0-4-8-4-9"
         width="34.748299"
         height="176.65775"
         x="868.98407"
         y="166.08441" />
      <path
         sodipodi:open="true"
         d="m 532.31761,679.57161 c 0.23698,-205.23195 158.93838,-371.40369 354.4695,-371.15496 195.53109,0.24873 353.84829,166.82374 353.61139,372.05569 -10e-5,0.0695 -2e-4,0.13902 -3e-4,0.20852"
         sodipodi:end="6.2849584"
         sodipodi:start="3.1428046"
         sodipodi:ry="371.60559"
         sodipodi:rx="354.04068"
         sodipodi:cy="680.02197"
         sodipodi:cx="886.35803"
         sodipodi:type="arc"
         id="path4786-0-3-3"
         style="fill:none;stroke:#ff0000;stroke-width:0.29010695;stroke-miterlimit:4;stroke-opacity:1;stroke-dasharray:none"
         transform="translate(5.1907349e-5,-142.44132)" />
      <path
         inkscape:connector-curvature="0"
         id="path4807-3-5-6-4"
         d="m 1240.6891,537.87571 -708.66145,0"
         style="fill:none;stroke:#ff0000;stroke-width:0.51935166;stroke-linecap:butt;stroke-linejoin:miter;stroke-miterlimit:4;stroke-opacity:1;stroke-dasharray:none" />
      <path
         transform="matrix(-1,0,0,-1,5.1907349e-5,-142.44132)"
         sodipodi:open="true"
         d="m -1240.3988,-681.06249 c 0.237,-205.23195 158.9384,-371.40371 354.46948,-371.15491 195.53112,0.2487 353.84831,166.82369 353.61134,372.05564 -8e-5,0.0695 -1.8e-4,0.13902 -3e-4,0.20853"
         sodipodi:end="6.2849584"
         sodipodi:start="3.1428046"
         sodipodi:ry="371.60559"
         sodipodi:rx="354.04068"
         sodipodi:cy="-680.61212"
         sodipodi:cx="-886.3584"
         sodipodi:type="arc"
         id="path4786-0-9-1-1"
         style="fill:none;stroke:#ff0000;stroke-width:0.29010695;stroke-miterlimit:4;stroke-opacity:1;stroke-dasharray:none" />
      <rect
         transform="scale(-1,-1)"
         style="color:#000000;fill:none;stroke:#ff0000;stroke-width:0.50760508;stroke-linecap:round;stroke-linejoin:miter;stroke-miterlimit:4;stroke-opacity:1;stroke-dasharray:none;stroke-dashoffset:0;marker:none;visibility:visible;display:inline;overflow:visible;enable-background:accumulate"
         id="rect8763-0-4-8-9-4-1"
         width="34.748299"
         height="176.65775"
         x="-903.73236"
         y="-909.66705" />
    </g>
    <flowRoot
       xml:space="preserve"
       id="flowRoot5767"
       style="fill:black;stroke:none;stroke-opacity:1;stroke-width:1px;stroke-linejoin:miter;stroke-linecap:butt;fill-opacity:1;font-family:Sans;font-style:normal;font-weight:normal;font-size:40px;line-height:125%;letter-spacing:0px;word-spacing:0px"><flowRegion
         id="flowRegion5769"><rect
           id="rect5771"
           width="702.65881"
           height="134.373"
           x="573.88464"
           y="2044.8004" /></flowRegion><flowPara
         id="flowPara5773"></flowPara></flowRoot>    <text
       xml:space="preserve"
       style="font-size:85.13121796000000074px;font-style:normal;font-weight:bold;line-height:125%;letter-spacing:0px;word-spacing:0px;fill:none;stroke:#0000ff;stroke-width:1.06299217;stroke-miterlimit:4;stroke-opacity:1;stroke-dasharray:none;font-family:Sans;-inkscape-font-specification:Sans Bold"
       x="327.33047"
       y="1230.5161"
       id="text5775"
       sodipodi:linespacing="125%"
       transform="scale(1.182378,0.84575321)"><tspan
         sodipodi:role="line"
         id="tspan5777"
         x="327.33047"
         y="1230.5161"
         style="stroke-width:1.06299217;stroke-miterlimit:4;stroke-dasharray:none">It's IMPOSSIBRU !</tspan></text>
    <text
       xml:space="preserve"
       style="font-size:40px;font-style:normal;font-weight:normal;line-height:125%;letter-spacing:0px;word-spacing:0px;fill:#000000;fill-opacity:1;stroke:none;font-family:Sans"
       x="1268.1451"
       y="2195.9702"
       id="text5779"
       sodipodi:linespacing="125%"
       transform="translate(-5e-5,-1073.6218)"><tspan
         sodipodi:role="line"
         id="tspan5781"
         x="1268.1451"
         y="2195.9702">  </tspan></text>
  </g>
</svg>
